ContadorB/test.vcd
$date
	Thu Sep 17 18:57:23 2020
$end
$version
	Icarus Verilog
$end
$timescale
	1s
$end
$scope module tb_top $end
$var wire 4 ! Q_tb [3:0] $end
$var wire 1 " load_tb $end
$var wire 1 # rco_tb $end
$var wire 1 $ reset $end
$var wire 1 % rco $end
$var wire 2 & mode [1:0] $end
$var wire 1 ' load $end
$var wire 1 ( enable $end
$var wire 1 ) clock $end
$var wire 4 * Q [3:0] $end
$var wire 4 + D [3:0] $end
$scope module clk1 $end
$var reg 1 ) clock $end
$upscope $end
$scope module dut $end
$var wire 1 , _005_ $end
$var wire 1 - _012_ $end
$var wire 1 . _013_ $end
$var wire 1 / _019_ $end
$var wire 1 0 _020_ $end
$var wire 1 1 _023_ $end
$var wire 1 2 _024_ $end
$var wire 1 3 _025_ $end
$var wire 1 4 _026_ $end
$var wire 1 5 _027_ $end
$var wire 1 6 _028_ $end
$var wire 1 7 _029_ $end
$var wire 1 8 _030_ $end
$var wire 1 9 _031_ $end
$var wire 1 : _032_ $end
$var wire 1 ; _033_ $end
$var wire 1 < _034_ $end
$var wire 1 = _035_ $end
$var wire 1 > _036_ $end
$var wire 1 ? _037_ $end
$var wire 1 @ _038_ $end
$var wire 1 A _039_ $end
$var wire 1 B _040_ $end
$var wire 1 C _042_ $end
$var wire 1 D _044_ $end
$var wire 1 E _045_ $end
$var wire 1 F _048_ $end
$var wire 1 G _051_ $end
$var wire 1 H _062_ $end
$var wire 1 I _063_ $end
$var wire 1 J _065_ $end
$var wire 1 K _066_ $end
$var wire 1 ) clk $end
$var wire 1 $ reset $end
$var wire 2 L mode [1:0] $end
$var wire 1 ( enable $end
$var wire 32 M _064_ [31:0] $end
$var wire 32 N _061_ [31:0] $end
$var wire 32 O _060_ [31:0] $end
$var wire 32 P _059_ [31:0] $end
$var wire 4 Q _058_ [3:0] $end
$var wire 4 R _057_ [3:0] $end
$var wire 4 S _056_ [3:0] $end
$var wire 16 T _055_ [15:0] $end
$var wire 1 U _054_ $end
$var wire 1 V _053_ $end
$var wire 1 W _052_ $end
$var wire 3 X _050_ [2:0] $end
$var wire 1 Y _049_ $end
$var wire 1 Z _047_ $end
$var wire 1 [ _046_ $end
$var wire 1 \ _043_ $end
$var wire 4 ] _041_ [3:0] $end
$var wire 2 ^ _022_ [1:0] $end
$var wire 4 _ _021_ [3:0] $end
$var wire 2 ` _018_ [1:0] $end
$var wire 2 a _017_ [1:0] $end
$var wire 2 b _016_ [1:0] $end
$var wire 2 c _015_ [1:0] $end
$var wire 2 d _014_ [1:0] $end
$var wire 2 e _011_ [1:0] $end
$var wire 2 f _010_ [1:0] $end
$var wire 2 g _009_ [1:0] $end
$var wire 2 h _008_ [1:0] $end
$var wire 2 i _007_ [1:0] $end
$var wire 2 j _006_ [1:0] $end
$var wire 32 k _004_ [31:0] $end
$var wire 32 l _003_ [31:0] $end
$var wire 1 m _002_ $end
$var wire 1 n _001_ $end
$var wire 4 o _000_ [3:0] $end
$var wire 4 p D [3:0] $end
$var reg 4 q Q [3:0] $end
$var reg 1 ' load $end
$var reg 1 % rco $end
$upscope $end
$scope module tb $end
$var wire 4 r Q [3:0] $end
$var wire 1 ) clk $end
$var wire 4 s dut_Q [3:0] $end
$var wire 1 t dut_load $end
$var wire 1 u dut_rco $end
$var wire 1 " load $end
$var wire 1 # rco $end
$var wire 1 v sb_rco $end
$var wire 1 w sb_load $end
$var wire 4 x sb_Q [3:0] $end
$var reg 4 y D [3:0] $end
$var reg 1 ( enable $end
$var reg 2 z mode [1:0] $end
$var reg 1 $ reset $end
$var integer 32 { log [31:0] $end
$scope module sb $end
$var wire 4 | D [3:0] $end
$var wire 1 } _005_ $end
$var wire 1 ~ _006_ $end
$var wire 1 !" _017_ $end
$var wire 1 "" _018_ $end
$var wire 1 #" _021_ $end
$var wire 1 $" _022_ $end
$var wire 1 %" _023_ $end
$var wire 1 &" _024_ $end
$var wire 1 '" _025_ $end
$var wire 1 (" _026_ $end
$var wire 1 )" _027_ $end
$var wire 1 *" _028_ $end
$var wire 1 +" _029_ $end
$var wire 1 ," _030_ $end
$var wire 1 -" _031_ $end
$var wire 1 ." _032_ $end
$var wire 1 /" _033_ $end
$var wire 1 0" _034_ $end
$var wire 1 1" _036_ $end
$var wire 1 2" _038_ $end
$var wire 1 3" _039_ $end
$var wire 1 4" _040_ $end
$var wire 1 5" _041_ $end
$var wire 1 6" _052_ $end
$var wire 1 7" _053_ $end
$var wire 1 8" _055_ $end
$var wire 1 9" _056_ $end
$var wire 1 ) clk $end
$var wire 1 ( enable $end
$var wire 2 :" mode [1:0] $end
$var wire 1 $ reset $end
$var wire 32 ;" _054_ [31:0] $end
$var wire 32 <" _051_ [31:0] $end
$var wire 32 =" _050_ [31:0] $end
$var wire 32 >" _049_ [31:0] $end
$var wire 4 ?" _048_ [3:0] $end
$var wire 4 @" _047_ [3:0] $end
$var wire 4 A" _046_ [3:0] $end
$var wire 16 B" _045_ [15:0] $end
$var wire 1 C" _044_ $end
$var wire 1 D" _043_ $end
$var wire 1 E" _042_ $end
$var wire 1 F" _037_ $end
$var wire 4 G" _035_ [3:0] $end
$var wire 2 H" _020_ [1:0] $end
$var wire 4 I" _019_ [3:0] $end
$var wire 2 J" _016_ [1:0] $end
$var wire 2 K" _015_ [1:0] $end
$var wire 2 L" _014_ [1:0] $end
$var wire 2 M" _013_ [1:0] $end
$var wire 2 N" _012_ [1:0] $end
$var wire 2 O" _011_ [1:0] $end
$var wire 2 P" _010_ [1:0] $end
$var wire 2 Q" _009_ [1:0] $end
$var wire 2 R" _008_ [1:0] $end
$var wire 2 S" _007_ [1:0] $end
$var wire 32 T" _004_ [31:0] $end
$var wire 32 U" _003_ [31:0] $end
$var wire 1 V" _002_ $end
$var wire 1 W" _001_ $end
$var wire 4 X" _000_ [3:0] $end
$var reg 4 Y" Q [3:0] $end
$var reg 1 w load $end
$var reg 1 v rco $end
$upscope $end
$scope task checker $end
$var integer 32 Z" iteration [31:0] $end
$upscope $end
$scope task drv_init $end
$upscope $end
$scope task test_high_impedance $end
$var integer 32 [" iteration [31:0] $end
$upscope $end
$scope task test_modo00_static $end
$var integer 32 \" iteration [31:0] $end
$upscope $end
$scope task test_modo01_static $end
$var integer 32 ]" iteration [31:0] $end
$upscope $end
$scope task test_modo10_static $end
$var integer 32 ^" iteration [31:0] $end
$upscope $end
$scope task test_modo11_random $end
$var integer 32 _" iteration [31:0] $end
$upscope $end
$scope task test_reset $end
$var integer 32 `" iteration [31:0] $end
$upscope $end
$upscope $end
$upscope $end
$enddefinitions $end
#0
$dumpvars
bx `"
bx _"
bx ^"
bx ]"
bx \"
bx ["
bx Z"
bx Y"
bx X"
xW"
xV"
bzxxxx U"
bzxxxz T"
bx S"
bzx R"
bzx Q"
bx P"
bzx O"
bx N"
bx M"
bx L"
bx K"
bx J"
bxz I"
bx H"
bxzz G"
xF"
xE"
xD"
xC"
bx B"
bx A"
bx @"
bx ?"
bzxxzz >"
bzxxz ="
bzxxz <"
bzxzz ;"
bx :"
x9"
x8"
x7"
x6"
x5"
x4"
x3"
x2"
x1"
x0"
x/"
x."
x-"
x,"
x+"
x*"
x)"
x("
x'"
x&"
x%"
x$"
x#"
x""
x!"
x~
x}
bx |
b10 {
bx z
bx y
bx x
xw
xv
zu
zt
bz s
bz r
bx q
bx p
bx o
xn
xm
bzxxxx l
bzxxxz k
bx j
bzx i
bxz h
bzx g
bx f
bx e
bx d
bx c
bx b
bx a
bx `
bxz _
bx ^
bxzz ]
x\
x[
xZ
xY
bxzz X
xW
xV
xU
bx T
bx S
bx R
bx Q
bzxxxx P
bzxxz O
bzxxz N
bzxxx M
bx L
xK
xJ
xI
xH
xG
xF
xE
xD
xC
xB
xA
x@
x?
x>
x=
x<
x;
x:
x9
x8
x7
x6
x5
x4
x3
x2
x1
x0
x/
x.
x-
x,
bx +
bx *
0)
x(
x'
bx &
x%
x$
z#
z"
bz !
$end
#5
1)
#10
1E"
0C"
b1111 ?"
zY
zU
bz Q
0."
0@
0)"
1V"
0W"
b0 X"
b0 o
0n
0m
0:
1$
0)
#15
b0xzz ]
0Z
b0xzz G"
0A
b0zz X
0/"
0B
bx0 f
0[
0V
00"
bx0 P"
0;
09
0>
0=
0<
0+"
0*"
0,"
11
15
14
13
12
1#"
1%"
1$"
1?
bz0zz ;"
1-"
b1z h
0K
bz001z k
b11 j
0/
bz1110 P
bz1 g
bz1 i
b0xxxxx0000xxxxx T
bz11zz >"
09"
b11 S"
0!"
bz1 Q"
bz1 R"
b0xxxxxx000xxxxx B"
bz00z N
bz001 M
b111z _
b0 `
0J
bz00z O
bz0001 l
bz00z ="
b111z I"
b0 J"
08"
bz00z <"
bz0011 U"
bz000z T"
0%
0'
b0 *
b0 q
1v
0w
b0 x
b0 Y"
1)
#20
xV"
xW"
xE"
xC"
bx ?"
xY
xU
bx Q
x."
x@
1)"
bx X"
bx o
xn
xm
1:
0$
0)
#25
bxzz ]
bxzz G"
bxzz X
xZ
bx P"
x/"
x0"
x[
xV
bx f
xA
xB
x*"
x,"
x+"
x>
x=
x9
x<
x;
x%"
x$"
x#"
x4
x3
x5
x2
x1
x-"
x?
bzx R"
bzx Q"
x9"
x!"
bzxxzz >"
bx S"
bx B"
bzx i
bzx g
xK
bxz h
x/
bx j
bx T
x8"
bzxxz ="
bzxxz <"
bzxzz ;"
bx J"
bzxxxx U"
bxz I"
bzxxxz T"
xJ
bzxxz N
bzxxz O
bzxxxx P
bzxxx M
bx `
bxz _
bzxxxz k
bzxxxx l
bx x
bx Y"
xw
xv
bx *
bx q
x'
x%
1)
#30
b11110 _"
b11110 Z"
0)
#35
1)
#40
b0 X"
b0 o
b0 ?"
0V"
b0 Q
0m
b0 @"
0E"
1n
0Y
0F"
b0 R
1U
0\
01"
b0 A"
1W"
16"
1H
1W
0C
b0 S
1C"
1I
b0 K"
b0 L"
b0 N"
b0 M"
1D"
bz1 O"
1.
1G
b0 a
b0 b
b0 d
b0 c
17"
12"
1-
b0 P"
0}
b0zz G"
0~
0&"
06
b0zz X
b0zz ]
b1 e
b0 f
0,
03"
04"
05"
0F
0E
0D
1'"
1("
1""
b0 H"
b0 ^
10
18
17
b0 B"
b0 T
1."
1@
b11 &
b11 L
b11 z
b11 :"
1(
b0 +
b0 p
b0 y
b0 |
0)
#45
0Z
0/"
00"
0[
0V
0A
0B
0*"
0,"
0+"
0>
0=
09
0<
0;
bz0zz ;"
1%"
1$"
1#"
14
13
15
12
11
bz11zz >"
09"
1-"
1?
bz1 R"
bz1 Q"
0!"
b11 S"
bz1 i
bz1 g
bz001z k
bz1110 P
0K
b1z h
0/
b11 j
08"
bz0011 U"
bz000z T"
bz00z ="
bz00z <"
b0 J"
b111z I"
0J
bz001 M
bz0001 l
bz00z N
bz00z O
b0 `
b111z _
b0 x
b0 Y"
1w
0v
b0 *
b0 q
1'
0%
1)
#50
b1 X"
b1 o
b1 ?"
b1 Q
b1 @"
b1 R
b1 A"
b1 S
b1 K"
b1 a
b1 B"
b1 T
b1 +
b1 p
b1 y
b1 |
0)
#55
bz1zz ;"
0?
0-"
bz00zz >"
19"
1/
bz1111 P
bz0 i
1!"
bz0 R"
bz01z N
bz01z ="
b1 `
1J
bz010z k
bz0010 l
b1 J"
18"
bz0100 U"
bz001z T"
b1 *
b1 q
b1 x
b1 Y"
1)
#60
0)
#65
1)
#70
b11 X"
b11 o
b11 ?"
b11 Q
b11 @"
b11 R
b11 A"
b11 S
b1 L"
b1 b
b11 B"
b11 T
b11 +
b11 p
b11 y
b11 |
0)
#75
1K
bz011z k
0J
bz0 g
bz0110 U"
08"
bz0 Q"
bz1 i
bz111 M
bz01z O
b110z _
bz0001 P
bz0100 l
bz1 R"
bz01z <"
b110z I"
bz010z T"
b11 *
b11 q
b11 x
b11 Y"
1)
#80
b1 X"
b1 o
b1 ?"
b1 Q
b1 @"
b1 R
b1 A"
b1 S
b0 L"
b0 b
b1 B"
b1 T
b1 +
b1 p
b1 y
b1 |
0)
#85
bz1zz ;"
bz00zz >"
19"
bz0100 U"
18"
bz1 Q"
0K
bz010z k
1J
bz1 g
bz0 R"
bz01z ="
bz00z <"
b111z I"
bz001z T"
bz0 i
bz01z N
bz001 M
bz00z O
b111z _
bz1111 P
bz0010 l
b1 x
b1 Y"
b1 *
b1 q
1)
#90
0)
#95
1)
#100
0)
#105
1)
#110
b10 X"
b10 o
b10 ?"
b10 Q
b10 @"
b10 R
b10 A"
b10 S
b0 K"
b1 L"
b1 b
b0 a
b10 B"
b10 T
b10 +
b10 p
b10 y
b10 |
0)
#115
1K
b10 j
b10 S"
bz1 i
b110z _
bz0000 P
0J
bz111 M
bz010z k
bz0011 l
bz1 R"
b110z I"
08"
bz0101 U"
b10 *
b10 q
b10 x
b10 Y"
1)
#120
b1 X"
b1 o
b1 ?"
b1 Q
b1 @"
b1 R
b1 A"
b1 S
b1 K"
b0 L"
b0 b
b1 a
b1 B"
b1 T
b1 +
b1 p
b1 y
b1 |
0)
#125
bz1zz ;"
bz0 R"
bz00zz >"
19"
18"
bz0 i
0K
1J
b11 S"
bz0100 U"
bz01z ="
b111z I"
b11 j
bz010z k
bz0010 l
bz01z N
bz001 M
b111z _
bz1111 P
b1 x
b1 Y"
b1 *
b1 q
1)
#130
0)
#135
1)
#140
b10 X"
b10 o
b10 ?"
b10 Q
b10 @"
b10 R
b10 A"
b10 S
b0 K"
b1 L"
b1 b
b0 a
b10 B"
b10 T
b10 +
b10 p
b10 y
b10 |
0)
#145
b10 S"
1K
b10 j
08"
bz0101 U"
bz1 R"
b110z I"
0J
bz010z k
bz0011 l
bz1 i
bz111 M
b110z _
bz0000 P
b10 x
b10 Y"
b10 *
b10 q
1)
#150
b1 X"
b1 o
b1 ?"
b1 Q
b1 @"
b1 R
b1 A"
b1 S
b1 K"
b0 L"
b0 b
b1 a
b1 B"
b1 T
b1 +
b1 p
b1 y
b1 |
0)
#155
bz1zz ;"
0K
1J
bz0 i
bz00zz >"
19"
18"
bz0 R"
bz01z N
bz001 M
b111z _
bz1111 P
b11 j
bz010z k
bz0010 l
bz01z ="
b111z I"
b11 S"
bz0100 U"
b1 *
b1 q
b1 x
b1 Y"
1)
#160
0)
#165
1)
#170
b0 X"
b0 o
b0 ?"
b0 Q
b0 @"
b0 R
b0 A"
b0 S
b0 K"
b0 a
b0 B"
b0 T
b0 +
b0 p
b0 y
b0 |
0)
#175
bz0zz ;"
1?
1-"
bz11zz >"
09"
0/
bz1110 P
bz1 i
0!"
bz1 R"
bz00z N
bz00z ="
b0 `
0J
bz001 M
bz001z k
bz0001 l
b0 J"
08"
bz0011 U"
bz000z T"
b0 *
b0 q
b0 x
b0 Y"
1)
#180
b1 X"
b1 o
b1 ?"
b1 Q
b1 @"
b1 R
b1 A"
b1 S
b1 K"
b1 a
b1 B"
b1 T
b1 +
b1 p
b1 y
b1 |
0)
#185
bz1zz ;"
0-"
bz00zz >"
19"
0?
1!"
bz0 R"
1/
bz1111 P
bz0 i
bz01z ="
bz01z N
b1 J"
18"
bz0100 U"
bz001z T"
b1 `
1J
bz010z k
bz0010 l
b1 x
b1 Y"
b1 *
b1 q
1)
#190
b10 X"
b10 o
b10 ?"
b10 Q
b10 @"
b10 R
b10 A"
b10 S
b0 K"
b1 L"
b1 b
b0 a
b10 B"
b10 T
b10 +
b10 p
b10 y
b10 |
0)
#195
1K
b10 j
b10 S"
bz1 i
b110z _
bz0000 P
0J
bz111 M
bz010z k
bz0011 l
bz1 R"
b110z I"
08"
bz0101 U"
b10 *
b10 q
b10 x
b10 Y"
1)
#200
b1 X"
b1 o
b1 ?"
b1 Q
b1 @"
b1 R
b1 A"
b1 S
b1 K"
b0 L"
b0 b
b1 a
b1 B"
b1 T
b1 +
b1 p
b1 y
b1 |
0)
#205
bz1zz ;"
bz0 R"
bz00zz >"
19"
18"
bz0 i
0K
1J
b11 S"
bz0100 U"
bz01z ="
b111z I"
b11 j
bz010z k
bz0010 l
bz01z N
bz001 M
b111z _
bz1111 P
b1 x
b1 Y"
b1 *
b1 q
1)
#210
b10 X"
b10 o
b10 ?"
b10 Q
b10 @"
b10 R
b10 A"
b10 S
b0 K"
b1 L"
b1 b
b0 a
b10 B"
b10 T
b10 +
b10 p
b10 y
b10 |
0)
#215
1K
b10 j
b10 S"
bz1 i
b110z _
bz0000 P
0J
bz111 M
bz010z k
bz0011 l
bz1 R"
b110z I"
08"
bz0101 U"
b10 *
b10 q
b10 x
b10 Y"
1)
#220
b1 X"
b1 o
b1 ?"
b1 Q
b1 @"
b1 R
b1 A"
b1 S
b1 K"
b0 L"
b0 b
b1 a
b1 B"
b1 T
b1 +
b1 p
b1 y
b1 |
0)
#225
bz1zz ;"
bz0 R"
bz00zz >"
19"
18"
bz0 i
0K
1J
b11 S"
bz0100 U"
bz01z ="
b111z I"
b11 j
bz010z k
bz0010 l
bz01z N
bz001 M
b111z _
bz1111 P
b1 x
b1 Y"
b1 *
b1 q
1)
#230
b11 X"
b11 o
b11 ?"
b11 Q
b11 @"
b11 R
b11 A"
b11 S
b1 L"
b1 b
b11 B"
b11 T
b11 +
b11 p
b11 y
b11 |
0)
#235
1K
bz011z k
0J
bz0 g
bz0110 U"
08"
bz0 Q"
bz1 i
bz111 M
bz01z O
b110z _
bz0001 P
bz0100 l
bz1 R"
bz01z <"
b110z I"
bz010z T"
b11 *
b11 q
b11 x
b11 Y"
1)
#240
b10 X"
b10 o
b10 ?"
b10 Q
b10 @"
b10 R
b10 A"
b10 S
b0 K"
b0 a
b10 B"
b10 T
b10 +
b10 p
b10 y
b10 |
0)
#245
1K
bz1 Q"
bz0000 P
bz1 g
b10 S"
bz00z <"
bz0101 U"
bz001z T"
b10 j
bz111 M
bz00z O
bz010z k
bz0011 l
b10 x
b10 Y"
b10 *
b10 q
1)
#250
b11 X"
b11 o
b11 ?"
b11 Q
b11 @"
b11 R
b11 A"
b11 S
b1 K"
b1 a
b11 B"
b11 T
b11 +
b11 p
b11 y
b11 |
0)
#255
bz0001 P
bz0 g
bz0 Q"
b11 j
bz01z O
bz011z k
bz0100 l
b11 S"
bz01z <"
bz0110 U"
bz010z T"
b11 *
b11 q
b11 x
b11 Y"
1)
#260
b10 X"
b10 o
b10 ?"
b10 Q
b10 @"
b10 R
b10 A"
b10 S
b0 K"
b0 a
b10 B"
b10 T
b10 +
b10 p
b10 y
b10 |
0)
#265
1K
bz1 Q"
bz0000 P
bz1 g
b10 S"
bz00z <"
bz0101 U"
bz001z T"
b10 j
bz111 M
bz00z O
bz010z k
bz0011 l
b10 x
b10 Y"
b10 *
b10 q
1)
#270
0)
#275
1)
#280
b0 X"
b0 o
b0 ?"
b0 Q
b0 @"
b0 R
b0 A"
b0 S
b0 L"
b0 b
b0 B"
b0 T
b0 +
b0 p
b0 y
b0 |
0)
#285
1-"
bz0zz ;"
1?
0!"
bz11zz >"
09"
bz0011 U"
b11 S"
0/
0K
bz001z k
b11 j
b0 J"
bz00z ="
b111z I"
bz000z T"
b0 `
bz00z N
bz001 M
b111z _
bz1110 P
bz0001 l
b0 x
b0 Y"
b0 *
b0 q
1)
#290
b1 X"
b1 o
b1 ?"
b1 Q
b1 @"
b1 R
b1 A"
b1 S
b1 K"
b1 a
b1 B"
b1 T
b1 +
b1 p
b1 y
b1 |
0)
#295
bz1zz ;"
0?
0-"
bz00zz >"
19"
1/
bz1111 P
bz0 i
1!"
bz0 R"
bz01z N
bz01z ="
b1 `
1J
bz010z k
bz0010 l
b1 J"
18"
bz0100 U"
bz001z T"
b1 *
b1 q
b1 x
b1 Y"
1)
#300
b0 X"
b0 o
b0 ?"
b0 Q
b0 @"
b0 R
b0 A"
b0 S
b0 K"
b0 a
b0 B"
b0 T
b0 +
b0 p
b0 y
b0 |
0)
#305
bz0zz ;"
1-"
bz11zz >"
09"
1?
0!"
bz1 R"
0/
bz1110 P
bz1 i
bz00z ="
bz00z N
b0 J"
08"
bz0011 U"
bz000z T"
b0 `
0J
bz001 M
bz001z k
bz0001 l
b0 x
b0 Y"
b0 *
b0 q
1)
#310
b1 X"
b1 o
b1 ?"
b1 Q
b1 @"
b1 R
b1 A"
b1 S
b1 K"
b1 a
b1 B"
b1 T
b1 +
b1 p
b1 y
b1 |
0)
#315
bz1zz ;"
0?
0-"
bz00zz >"
19"
1/
bz1111 P
bz0 i
1!"
bz0 R"
bz01z N
bz01z ="
b1 `
1J
bz010z k
bz0010 l
b1 J"
18"
bz0100 U"
bz001z T"
b1 *
b1 q
b1 x
b1 Y"
1)
#320
0)
#325
1)
#330
0)
#335
1)
#340
1E"
0C"
b1111 ?"
zY
zU
bz Q
0."
0@
0)"
1V"
0W"
b0 X"
b0 o
0n
0:
1$
0)
#345
bz0zz ;"
1-"
bz11zz >"
09"
1?
0!"
bz1 R"
0/
bz1110 P
bz1 i
bz00z ="
bz00z N
b0 J"
08"
bz0011 U"
bz000z T"
b0 `
0J
bz001 M
bz001z k
bz0001 l
b0 x
b0 Y"
0w
1v
b0 *
b0 q
0'
1)
#350
0V"
1W"
0E"
1C"
b1 ?"
0Y
1U
b1 Q
1."
1@
1)"
b1 X"
b1 o
1n
0m
1:
0$
0)
#355
bz1zz ;"
0?
0-"
bz00zz >"
19"
1/
bz1111 P
bz0 i
1!"
bz0 R"
bz01z N
bz01z ="
b1 `
1J
bz010z k
bz0010 l
b1 J"
18"
bz0100 U"
bz001z T"
1'
b1 *
b1 q
0v
1w
b1 x
b1 Y"
1)
#360
b11110 \"
0)
#365
1)
#370
b100 X"
b100 o
b100 ?"
b100 Q
b100 @"
b100 R
0n
b100 A"
b0 K"
0W"
0U
b100 S
0C"
0.
0W
b0 L"
b10 N"
0D"
bz0 O"
0G
b0 a
b10 d
b0 c
b0 b
02"
0-
1}
b100000000000000 B"
1~
1&"
16
b10 e
b100000000000000 T
0,
03"
04"
15"
1F
0E
0D
1'"
1("
0""
b11 H"
b11 ^
00
18
17
b0 &
b0 L
b0 z
b0 :"
0)
#375
b111 o
b111 X"
b111 Q
b111 ?"
b111 R
b111 @"
b0 c
b111 S
b0 M"
b111 A"
b10 d
b10 b
b10 a
b10 N"
b10 K"
b10 L"
b0z h
bz0010 P
b111000000000000 T
bz1 i
09"
bz1 R"
b111000000000000 B"
bz00z N
b101z _
b10 `
0J
bz101 M
bz011z k
bz0101 l
bz00z ="
b101z I"
b10 J"
08"
bz0111 U"
bz010z T"
0'
b100 *
b100 q
0w
b100 x
b100 Y"
1)
#380
0)
#385
1m
1Y
1\
b1010 X"
b1010 o
1C
b1010 ?"
b1010 Q
b10 f
b1010 @"
b10 M"
b1010 R
b10 c
b10zz ]
1Z
b1010 A"
b0 N"
b1010 S
b0 d
1[
1>
b0 K"
b10 L"
b10 b
b0 a
04
b1010000000000000 B"
bz01zz >"
bz100z T"
bz0 Q"
b1010000000000000 T
bz0 g
08"
bz1010 U"
b11 J"
bz11z ="
bz11z <"
b100z I"
0J
bz101z k
bz1000 l
b11 `
bz11z N
bz111 M
bz11z O
b100z _
bz0101 P
b111 x
b111 Y"
b111 *
b111 q
1)
#390
0)
#395
0m
0Y
b1101 o
b1101 X"
0\
0C
b1101 Q
b1101 ?"
b0 f
b1101 R
b1101 @"
b0zz ]
b1101 S
b1101 A"
0Z
0[
b10 c
b10 d
b0 b
b10 a
b10 M"
b10 N"
b10 K"
b0 L"
0>
14
1K
bz1000 P
b1101000000000000 T
bz1 g
bz10zz >"
19"
bz1 Q"
b1101000000000000 B"
b1z h
bz01z N
b10z _
b10 j
bz111 M
bz00z O
bz110z k
bz1011 l
bz01z ="
bz1zz ;"
b10z I"
b10 S"
bz00z <"
bz1101 U"
bz101z T"
1%
b1010 *
b1010 q
b1010 x
b1010 Y"
1)
#400
0)
#405
1m
1V"
1Y
1E"
1\
b0 X"
1F"
b0 o
1C
11"
b0 ?"
b0 Q
b10 f
b10 P"
b0 @"
b0 R
b10zz ]
b10zz G"
1Z
b0 M"
b0 A"
1/"
b0 c
b0 S
1A
bz11zz >"
1,"
1<
b0 K"
b0 L"
b0 N"
0$"
b0 b
b0 a
b0 d
02
bz0 R"
18"
b0 B"
09"
bz0 i
1J
b0 T
0K
b1 S"
bz11z ="
bz0000 U"
b1z I"
bz111z T"
b1 j
bz101 M
bz1011 P
bz11z N
bz000z k
b1z _
bz1110 l
b1101 x
b1101 Y"
b1101 *
b1101 q
0%
1)
#410
0)
#415
0m
0Y
0V"
0\
0E"
b11 o
0C
0F"
b11 X"
01"
b11 Q
b0 f
b11 ?"
b0 P"
b11 R
b0zz ]
b11 @"
0Z
b0zz G"
b11 S
0A
0/"
b11 A"
0<
0,"
b0 c
b0 d
b10 b
b10 a
12
b0 M"
b0 N"
b10 K"
1$"
b10 L"
0=
1?
1-"
13
b11 j
0/
bz1110 P
b11000000000000 T
bz1 i
b11 S"
0!"
bz1 R"
b11000000000000 B"
b1z h
bz00z N
b111z _
b0 `
0J
bz001 M
bz001z k
bz0001 l
bz00z ="
bz0zz ;"
b111z I"
b0 J"
08"
bz0011 U"
bz000z T"
1%
b0 *
b0 q
1v
b0 x
b0 Y"
1)
#420
0)
#425
b110 X"
b110 o
b110 ?"
b110 Q
b110 @"
b110 R
b110 A"
b10 N"
b110 S
b10 d
b0 K"
b10 L"
b10 b
b0 a
0-"
bz1zz ;"
0?
b110000000000000 B"
1!"
bz00zz >"
19"
bz010z T"
bz0 Q"
b110000000000000 T
1/
1K
bz0 g
08"
bz0110 U"
b1 J"
bz01z ="
bz01z <"
b110z I"
0J
bz011z k
bz0100 l
b1 `
bz01z N
bz111 M
bz01z O
b110z _
bz0001 P
b11 x
b11 Y"
0v
b11 *
b11 q
0%
1)
#430
0)
#435
b1001 o
b1001 X"
b1001 Q
b1001 ?"
b1001 R
b1001 @"
b10 c
b1001 S
b10 M"
b1001 A"
b0 d
b0 b
b10 a
b0 N"
b10 K"
b0 L"
0K
b0z h
bz0100 P
b1001000000000000 T
bz1 g
bz01zz >"
09"
bz1 Q"
b1001000000000000 B"
b11 `
bz11z N
b100z _
b10 j
bz111 M
bz00z O
bz100z k
bz0111 l
b11 J"
bz11z ="
b100z I"
b10 S"
bz00z <"
bz1001 U"
bz011z T"
b110 *
b110 q
b110 x
b110 Y"
1)
#440
0)
#445
b1100 X"
b1100 o
b1100 ?"
b1100 Q
b1100 @"
b1100 R
b1100 A"
b1100 S
bz10zz >"
19"
b0 K"
b0 L"
b10 N"
b10 M"
b0 b
b0 a
b10 d
b10 c
bz0 R"
18"
b1100000000000000 B"
bz0 i
1J
b1100000000000000 T
b11 S"
bz01z ="
bz1zz ;"
bz1100 U"
b11z I"
bz101z T"
b11 j
bz0111 P
bz01z N
bz001 M
b1z h
b11z _
bz110z k
bz1010 l
b1001 x
b1001 Y"
b1001 *
b1001 q
1)
#450
0)
#455
b1111 o
b1111 X"
b1111 Q
b1111 ?"
b1111 R
b1111 @"
b10 c
b1111 S
b10 M"
b1111 A"
b10 d
b10 b
b10 a
b10 N"
b10 K"
b10 L"
b1 j
bz1010 P
b1111000000000000 T
bz1 i
09"
b1 S"
bz1 R"
b1111000000000000 B"
bz00z N
b1z _
b10 `
0J
bz101 M
bz111z k
bz1101 l
bz00z ="
b1z I"
b10 J"
08"
bz1111 U"
bz110z T"
b1100 *
b1100 q
b1100 x
b1100 Y"
1)
#460
0)
#465
1m
1V"
1Y
1E"
1\
1F"
1C
b10 X"
11"
b10 o
b10 f
b10 ?"
b10 P"
b10 Q
b10zz ]
b10 @"
b0 M"
b10zz G"
b10 R
b0 c
1Z
1/"
1A
b10 A"
b0 N"
10"
b10 S
b0 d
1B
1*"
19
b0 K"
b10 L"
0%"
b10 b
b0 a
05
b10000000000000 B"
bz11zz >"
bz000z T"
bz0 Q"
b10000000000000 T
bz0 g
08"
bz0010 U"
b11 J"
bz11z ="
bz11z <"
b0z I"
0J
bz001z k
bz0000 l
b11 `
bz11z N
bz111 M
bz11z O
b0z _
bz1101 P
b1111 x
b1111 Y"
b1111 *
b1111 q
1)
#470
0)
#475
0m
0Y
0V"
0\
0E"
0C
0F"
b101 o
01"
b101 X"
b0 f
b101 Q
b0 P"
b101 ?"
b0zz ]
b101 R
0Z
b0zz G"
b101 @"
0A
0/"
b101 S
0B
00"
b101 A"
09
0*"
0[
b0 c
b10 d
b0 b
b10 a
15
b0 M"
b10 N"
b10 K"
1%"
b0 L"
0>
0;
0+"
14
1K
11
bz0000 P
b101000000000000 T
bz1 g
bz00zz >"
19"
1#"
bz1 Q"
b101000000000000 B"
b1z h
b1 `
bz01z N
b110z _
b10 j
bz111 M
bz00z O
bz010z k
bz0011 l
b1 J"
bz01z ="
bz1zz ;"
b110z I"
b10 S"
bz00z <"
bz0101 U"
bz001z T"
1%
b10 *
b10 q
1v
b10 x
b10 Y"
1)
#480
0)
#485
b1000 X"
b1000 o
1n
1U
b1000 ?"
b1000 Q
1W
1G
b1000 @"
b1000 R
b1zz X
b10 M"
b1000 A"
b10 c
b1000 S
1V
bz01zz >"
1=
b0 K"
b0 L"
b0 N"
b0 b
b0 a
b0 d
03
bz0 R"
18"
b1000000000000000 B"
09"
bz0 i
1J
b1000000000000000 T
0K
b0z h
b11 S"
b11 J"
bz11z ="
bz1000 U"
b101z I"
bz011z T"
b11 j
bz101 M
bz0011 P
b11 `
bz11z N
bz100z k
b101z _
bz0110 l
b101 x
b101 Y"
0v
b101 *
b101 q
0%
1)
#490
0)
