Proyecto/contador_32_bits/rco_ciclo_completo/test.vcd
$date
	Tue Dec  8 03:03:28 2020
$end
$version
	Icarus Verilog
$end
$timescale
	1s
$end
$scope module tb_top $end
$var wire 32 ! Q_tb [0:31] $end
$var wire 1 " load $end
$var wire 1 # load_tb $end
$var wire 1 $ rco $end
$var wire 1 % rco_tb $end
$var wire 1 & reset $end
$var wire 2 ' mode [1:0] $end
$var wire 1 ( enable $end
$var wire 1 ) clock $end
$var wire 32 * Q [0:31] $end
$var wire 4 + D [3:0] $end
$scope module clk1 $end
$var reg 1 ) clock $end
$upscope $end
$scope module dut $end
$var wire 1 ) clk $end
$var wire 1 " load $end
$var wire 1 $ rco $end
$var wire 1 & reset $end
$var wire 8 , rco_bus [7:0] $end
$var wire 2 - mode [1:0] $end
$var wire 1 ( enable $end
$var wire 32 . Q [0:31] $end
$var wire 4 / D [3:0] $end
$scope begin genblk1[0] $end
$scope module op $end
$var wire 1 ) clk $end
$var wire 1 0 enable $end
$var wire 1 & reset $end
$var wire 2 1 mode [1:0] $end
$var wire 4 2 D [3:0] $end
$var reg 4 3 Q [3:0] $end
$var reg 1 4 load $end
$var reg 1 5 rco $end
$upscope $end
$upscope $end
$scope begin genblk1[4] $end
$scope module op $end
$var wire 1 ) clk $end
$var wire 1 6 enable $end
$var wire 1 & reset $end
$var wire 2 7 mode [1:0] $end
$var wire 4 8 D [3:0] $end
$var reg 4 9 Q [3:0] $end
$var reg 1 : load $end
$var reg 1 ; rco $end
$upscope $end
$upscope $end
$scope begin genblk1[8] $end
$scope module op $end
$var wire 1 ) clk $end
$var wire 1 < enable $end
$var wire 1 & reset $end
$var wire 2 = mode [1:0] $end
$var wire 4 > D [3:0] $end
$var reg 4 ? Q [3:0] $end
$var reg 1 @ load $end
$var reg 1 A rco $end
$upscope $end
$upscope $end
$scope begin genblk1[12] $end
$scope module op $end
$var wire 1 ) clk $end
$var wire 1 B enable $end
$var wire 1 & reset $end
$var wire 2 C mode [1:0] $end
$var wire 4 D D [3:0] $end
$var reg 4 E Q [3:0] $end
$var reg 1 F load $end
$var reg 1 G rco $end
$upscope $end
$upscope $end
$scope begin genblk1[16] $end
$scope module op $end
$var wire 1 ) clk $end
$var wire 1 H enable $end
$var wire 1 & reset $end
$var wire 2 I mode [1:0] $end
$var wire 4 J D [3:0] $end
$var reg 4 K Q [3:0] $end
$var reg 1 L load $end
$var reg 1 M rco $end
$upscope $end
$upscope $end
$scope begin genblk1[20] $end
$scope module op $end
$var wire 1 ) clk $end
$var wire 1 N enable $end
$var wire 1 & reset $end
$var wire 2 O mode [1:0] $end
$var wire 4 P D [3:0] $end
$var reg 4 Q Q [3:0] $end
$var reg 1 R load $end
$var reg 1 S rco $end
$upscope $end
$upscope $end
$scope begin genblk1[24] $end
$scope module op $end
$var wire 1 ) clk $end
$var wire 1 T enable $end
$var wire 1 & reset $end
$var wire 2 U mode [1:0] $end
$var wire 4 V D [3:0] $end
$var reg 4 W Q [3:0] $end
$var reg 1 X load $end
$var reg 1 Y rco $end
$upscope $end
$upscope $end
$scope module op $end
$var wire 1 ) clk $end
$var wire 1 & reset $end
$var wire 2 Z mode [1:0] $end
$var wire 1 ( enable $end
$var wire 4 [ D [3:0] $end
$var reg 4 \ Q [3:0] $end
$var reg 1 ] load $end
$var reg 1 ^ rco $end
$upscope $end
$upscope $end
$scope module tb $end
$var wire 32 _ Q [0:31] $end
$var wire 1 ) clk $end
$var wire 32 ` dut_Q [0:31] $end
$var wire 1 a dut_load $end
$var wire 1 b dut_rco $end
$var wire 1 # load $end
$var wire 1 % rco $end
$var wire 1 c sb_load $end
$var wire 1 d sb_rco $end
$var wire 32 e sb_Q [0:31] $end
$var reg 4 f D [3:0] $end
$var reg 1 ( enable $end
$var reg 2 g mode [1:0] $end
$var reg 1 & reset $end
$var integer 32 h log [31:0] $end
$scope module sb $end
$var wire 4 i D [3:0] $end
$var wire 1 ) clk $end
$var wire 1 ( enable $end
$var wire 1 c load $end
$var wire 2 j mode [1:0] $end
$var wire 1 d rco $end
$var wire 1 & reset $end
$var wire 32 k Q [0:31] $end
$scope begin genblk1[4] $end
$scope module op $end
$var wire 4 l D [3:0] $end
$var wire 1 ) clk $end
$var wire 1 d enable $end
$var wire 2 m mode [1:0] $end
$var wire 1 & reset $end
$var reg 4 n Q [3:0] $end
$var reg 1 o load $end
$var reg 1 p rco $end
$upscope $end
$upscope $end
$scope begin genblk1[8] $end
$scope module op $end
$var wire 4 q D [3:0] $end
$var wire 1 ) clk $end
$var wire 1 d enable $end
$var wire 2 r mode [1:0] $end
$var wire 1 & reset $end
$var reg 4 s Q [3:0] $end
$var reg 1 t load $end
$var reg 1 u rco $end
$upscope $end
$upscope $end
$scope begin genblk1[12] $end
$scope module op $end
$var wire 4 v D [3:0] $end
$var wire 1 ) clk $end
$var wire 1 d enable $end
$var wire 2 w mode [1:0] $end
$var wire 1 & reset $end
$var reg 4 x Q [3:0] $end
$var reg 1 y load $end
$var reg 1 z rco $end
$upscope $end
$upscope $end
$scope begin genblk1[16] $end
$scope module op $end
$var wire 4 { D [3:0] $end
$var wire 1 ) clk $end
$var wire 1 d enable $end
$var wire 2 | mode [1:0] $end
$var wire 1 & reset $end
$var reg 4 } Q [3:0] $end
$var reg 1 ~ load $end
$var reg 1 !" rco $end
$upscope $end
$upscope $end
$scope begin genblk1[20] $end
$scope module op $end
$var wire 4 "" D [3:0] $end
$var wire 1 ) clk $end
$var wire 1 d enable $end
$var wire 2 #" mode [1:0] $end
$var wire 1 & reset $end
$var reg 4 $" Q [3:0] $end
$var reg 1 %" load $end
$var reg 1 &" rco $end
$upscope $end
$upscope $end
$scope begin genblk1[24] $end
$scope module op $end
$var wire 4 '" D [3:0] $end
$var wire 1 ) clk $end
$var wire 1 d enable $end
$var wire 2 (" mode [1:0] $end
$var wire 1 & reset $end
$var reg 4 )" Q [3:0] $end
$var reg 1 *" load $end
$var reg 1 +" rco $end
$upscope $end
$upscope $end
$scope begin genblk1[28] $end
$scope module op $end
$var wire 4 ," D [3:0] $end
$var wire 1 ) clk $end
$var wire 1 d enable $end
$var wire 2 -" mode [1:0] $end
$var wire 1 & reset $end
$var reg 4 ." Q [3:0] $end
$var reg 1 /" load $end
$var reg 1 0" rco $end
$upscope $end
$upscope $end
$scope module op $end
$var wire 4 1" D [3:0] $end
$var wire 1 ) clk $end
$var wire 1 ( enable $end
$var wire 2 2" mode [1:0] $end
$var wire 1 & reset $end
$var reg 4 3" Q [3:0] $end
$var reg 1 4" load $end
$var reg 1 5" rco $end
$upscope $end
$upscope $end
$scope task checker $end
$var integer 32 6" iteration [31:0] $end
$upscope $end
$scope task drv_init $end
$upscope $end
$scope task test00 $end
$var integer 32 7" iteration [31:0] $end
$upscope $end
$scope task test01 $end
$var integer 32 8" iteration [31:0] $end
$upscope $end
$scope task test10 $end
$var integer 32 9" iteration [31:0] $end
$upscope $end
$scope task test11 $end
$var integer 32 :" iteration [31:0] $end
$upscope $end
$upscope $end
$upscope $end
$enddefinitions $end
#0
$dumpvars
bx :"
bx 9"
bx 8"
bx 7"
bx 6"
x5"
x4"
b0 3"
bx 2"
bx 1"
x0"
x/"
b0 ."
bx -"
bx ,"
x+"
x*"
b0 )"
bx ("
bx '"
x&"
x%"
b0 $"
bx #"
bx ""
x!"
x~
b0 }
bx |
bx {
xz
xy
b0 x
bx w
bx v
xu
xt
b0 s
bx r
bx q
xp
xo
b0 n
bx m
bx l
b0 k
bx j
bx i
b10 h
bx g
bx f
b0 e
xd
xc
zb
za
bz `
bz _
x^
x]
b0 \
bx [
bx Z
xY
xX
b0 W
bx V
bx U
xT
xS
xR
b0 Q
bx P
bx O
xN
xM
xL
b0 K
bx J
bx I
xH
xG
xF
b0 E
bx D
bx C
xB
xA
x@
b0 ?
bx >
bx =
x<
x;
x:
b0 9
bx 8
bx 7
x6
x5
x4
b0 3
bx 2
bx 1
x0
bx /
b0 .
bx -
bx ,
bx +
b0 *
0)
x(
bx '
x&
z%
z$
z#
x"
bz !
$end
#20
1)
#40
1&
0)
#60
1)
#80
0)
#100
1)
#120
0)
#140
1)
#160
0)
#180
1)
#200
0&
0)
#220
1)
#240
b100111000100000 9"
b100111000100000 6"
0)
#260
1)
#280
b0 +
b0 /
b0 2
b0 8
b0 >
b0 D
b0 J
b0 P
b0 V
b0 [
b0 f
b0 i
b0 l
b0 q
b0 v
b0 {
b0 ""
b0 '"
b0 ,"
b0 1"
b10 '
b10 -
b10 1
b10 7
b10 =
b10 C
b10 I
b10 O
b10 U
b10 Z
b10 g
b10 j
b10 m
b10 r
b10 w
b10 |
b10 #"
b10 ("
b10 -"
b10 2"
1(
0)
#300
0T
b0xxxxxxx ,
0^
0]
b11 *
b11 .
b11 \
05"
04"
b110000000000000000000000000000 e
b110000000000000000000000000000 k
b11 3"
1)
#320
0)
#340
b1100000000000000000000000000000 e
b1100000000000000000000000000000 k
b110 3"
b110 *
b110 .
b110 \
1)
#360
0)
#380
b1001 *
b1001 .
b1001 \
b10010000000000000000000000000000 e
b10010000000000000000000000000000 k
b1001 3"
1)
#400
0)
#420
b11000000000000000000000000000000 e
b11000000000000000000000000000000 k
b1100 3"
b1100 *
b1100 .
b1100 \
1)
#440
0)
#460
1T
b1xxxxxxx ,
1^
b1111 *
b1111 .
b1111 \
15"
b11110000000000000000000000000000 e
b11110000000000000000000000000000 k
b1111 3"
1)
#480
0)
#500
0N
0T
05"
b100000000000000000000000000000 e
b100000000000000000000000000000 k
b10 3"
0Y
0X
b11 W
b0xxxxxx ,
0^
b110010 *
b110010 .
b10 \
1)
#520
0)
#540
b110101 *
b110101 .
b101 \
b1010000000000000000000000000000 e
b1010000000000000000000000000000 k
b101 3"
1)
#560
0)
#580
b10000000000000000000000000000000 e
b10000000000000000000000000000000 k
b1000 3"
b111000 *
b111000 .
b1000 \
1)
#600
0)
#620
b111011 *
b111011 .
b1011 \
b10110000000000000000000000000000 e
b10110000000000000000000000000000 k
b1011 3"
1)
#640
0)
#660
b11100000000000000000000000000000 e
b11100000000000000000000000000000 k
b1110 3"
b111110 *
b111110 .
b1110 \
1)
#680
0)
#700
b110001 *
b110001 .
b1 \
b10000000000000000000000000000 e
b10000000000000000000000000000 k
b1 3"
1)
#720
0)
#740
b1000000000000000000000000000000 e
b1000000000000000000000000000000 k
b100 3"
b110100 *
b110100 .
b100 \
1)
#760
0)
#780
b110111 *
b110111 .
b111 \
b1110000000000000000000000000000 e
b1110000000000000000000000000000 k
b111 3"
1)
#800
0)
#820
b10100000000000000000000000000000 e
b10100000000000000000000000000000 k
b1010 3"
b111010 *
b111010 .
b1010 \
1)
#840
0)
#860
b111101 *
b111101 .
b1101 \
b11010000000000000000000000000000 e
b11010000000000000000000000000000 k
b1101 3"
1)
#880
0)
#900
b0 e
b0 k
b0 3"
b110000 *
b110000 .
b0 \
1)
#920
0)
#940
b110011 *
b110011 .
b11 \
b110000000000000000000000000000 e
b110000000000000000000000000000 k
b11 3"
1)
#960
0)
#980
b1100000000000000000000000000000 e
b1100000000000000000000000000000 k
b110 3"
b110110 *
b110110 .
b110 \
1)
#1000
0)
#1020
b111001 *
b111001 .
b1001 \
b10010000000000000000000000000000 e
b10010000000000000000000000000000 k
b1001 3"
1)
#1040
0)
#1060
b11000000000000000000000000000000 e
b11000000000000000000000000000000 k
b1100 3"
b111100 *
b111100 .
b1100 \
1)
#1080
0)
#1100
1T
b10xxxxxx ,
1^
b111111 *
b111111 .
b1111 \
15"
b11110000000000000000000000000000 e
b11110000000000000000000000000000 k
b1111 3"
1)
#1120
0)
#1140
0T
05"
b100000000000000000000000000000 e
b100000000000000000000000000000 k
b10 3"
b110 W
b0xxxxxx ,
0^
b1100010 *
b1100010 .
b10 \
1)
#1160
0)
#1180
b1100101 *
b1100101 .
b101 \
b1010000000000000000000000000000 e
b1010000000000000000000000000000 k
b101 3"
1)
#1200
0)
#1220
b10000000000000000000000000000000 e
b10000000000000000000000000000000 k
b1000 3"
b1101000 *
b1101000 .
b1000 \
1)
#1240
0)
#1260
b1101011 *
b1101011 .
b1011 \
b10110000000000000000000000000000 e
b10110000000000000000000000000000 k
b1011 3"
1)
#1280
0)
#1300
b11100000000000000000000000000000 e
b11100000000000000000000000000000 k
b1110 3"
b1101110 *
b1101110 .
b1110 \
1)
#1320
0)
#1340
b1100001 *
b1100001 .
b1 \
b10000000000000000000000000000 e
b10000000000000000000000000000 k
b1 3"
1)
#1360
0)
#1380
b1000000000000000000000000000000 e
b1000000000000000000000000000000 k
b100 3"
b1100100 *
b1100100 .
b100 \
1)
#1400
0)
#1420
b1100111 *
b1100111 .
b111 \
b1110000000000000000000000000000 e
b1110000000000000000000000000000 k
b111 3"
1)
#1440
0)
#1460
b10100000000000000000000000000000 e
b10100000000000000000000000000000 k
b1010 3"
b1101010 *
b1101010 .
b1010 \
1)
#1480
0)
#1500
b1101101 *
b1101101 .
b1101 \
b11010000000000000000000000000000 e
b11010000000000000000000000000000 k
b1101 3"
1)
#1520
0)
#1540
b0 e
b0 k
b0 3"
b1100000 *
b1100000 .
b0 \
1)
#1560
0)
#1580
b1100011 *
b1100011 .
b11 \
b110000000000000000000000000000 e
b110000000000000000000000000000 k
b11 3"
1)
#1600
0)
#1620
b1100000000000000000000000000000 e
b1100000000000000000000000000000 k
b110 3"
b1100110 *
b1100110 .
b110 \
1)
#1640
0)
#1660
b1101001 *
b1101001 .
b1001 \
b10010000000000000000000000000000 e
b10010000000000000000000000000000 k
b1001 3"
1)
#1680
0)
#1700
b11000000000000000000000000000000 e
b11000000000000000000000000000000 k
b1100 3"
b1101100 *
b1101100 .
b1100 \
1)
#1720
0)
#1740
1T
b10xxxxxx ,
1^
b1101111 *
b1101111 .
b1111 \
15"
b11110000000000000000000000000000 e
b11110000000000000000000000000000 k
b1111 3"
1)
#1760
0)
#1780
0T
05"
b100000000000000000000000000000 e
b100000000000000000000000000000 k
b10 3"
b1001 W
b0xxxxxx ,
0^
b10010010 *
b10010010 .
b10 \
1)
#1800
0)
#1820
b10010101 *
b10010101 .
b101 \
b1010000000000000000000000000000 e
b1010000000000000000000000000000 k
b101 3"
1)
#1840
0)
#1860
b10000000000000000000000000000000 e
b10000000000000000000000000000000 k
b1000 3"
b10011000 *
b10011000 .
b1000 \
1)
#1880
0)
#1900
b10011011 *
b10011011 .
b1011 \
b10110000000000000000000000000000 e
b10110000000000000000000000000000 k
b1011 3"
1)
#1920
0)
#1940
b11100000000000000000000000000000 e
b11100000000000000000000000000000 k
b1110 3"
b10011110 *
b10011110 .
b1110 \
1)
#1960
0)
#1980
b10010001 *
b10010001 .
b1 \
b10000000000000000000000000000 e
b10000000000000000000000000000 k
b1 3"
1)
#2000
0)
#2020
b1000000000000000000000000000000 e
b1000000000000000000000000000000 k
b100 3"
b10010100 *
b10010100 .
b100 \
1)
#2040
0)
#2060
b10010111 *
b10010111 .
b111 \
b1110000000000000000000000000000 e
b1110000000000000000000000000000 k
b111 3"
1)
#2080
0)
#2100
b10100000000000000000000000000000 e
b10100000000000000000000000000000 k
b1010 3"
b10011010 *
b10011010 .
b1010 \
1)
#2120
0)
#2140
b10011101 *
b10011101 .
b1101 \
b11010000000000000000000000000000 e
b11010000000000000000000000000000 k
b1101 3"
1)
#2160
0)
#2180
b0 e
b0 k
b0 3"
b10010000 *
b10010000 .
b0 \
1)
#2200
0)
#2220
b10010011 *
b10010011 .
b11 \
b110000000000000000000000000000 e
b110000000000000000000000000000 k
b11 3"
1)
#2240
0)
#2260
b1100000000000000000000000000000 e
b1100000000000000000000000000000 k
b110 3"
b10010110 *
b10010110 .
b110 \
1)
#2280
0)
#2300
b10011001 *
b10011001 .
b1001 \
b10010000000000000000000000000000 e
b10010000000000000000000000000000 k
b1001 3"
1)
#2320
0)
#2340
b11000000000000000000000000000000 e
b11000000000000000000000000000000 k
b1100 3"
b10011100 *
b10011100 .
b1100 \
1)
#2360
0)
#2380
1T
b10xxxxxx ,
1^
b10011111 *
b10011111 .
b1111 \
15"
b11110000000000000000000000000000 e
b11110000000000000000000000000000 k
b1111 3"
1)
#2400
0)
#2420
0T
05"
b100000000000000000000000000000 e
b100000000000000000000000000000 k
b10 3"
b1100 W
b0xxxxxx ,
0^
b11000010 *
b11000010 .
b10 \
1)
#2440
0)
#2460
b11000101 *
b11000101 .
b101 \
b1010000000000000000000000000000 e
b1010000000000000000000000000000 k
b101 3"
1)
#2480
0)
#2500
b10000000000000000000000000000000 e
b10000000000000000000000000000000 k
b1000 3"
b11001000 *
b11001000 .
b1000 \
1)
#2520
0)
#2540
b11001011 *
b11001011 .
b1011 \
b10110000000000000000000000000000 e
b10110000000000000000000000000000 k
b1011 3"
1)
#2560
0)
#2580
b11100000000000000000000000000000 e
b11100000000000000000000000000000 k
b1110 3"
b11001110 *
b11001110 .
b1110 \
1)
#2600
0)
#2620
b11000001 *
b11000001 .
b1 \
b10000000000000000000000000000 e
b10000000000000000000000000000 k
b1 3"
1)
#2640
0)
#2660
b1000000000000000000000000000000 e
b1000000000000000000000000000000 k
b100 3"
b11000100 *
b11000100 .
b100 \
1)
#2680
0)
#2700
b11000111 *
b11000111 .
b111 \
b1110000000000000000000000000000 e
b1110000000000000000000000000000 k
b111 3"
1)
#2720
0)
#2740
b10100000000000000000000000000000 e
b10100000000000000000000000000000 k
b1010 3"
b11001010 *
b11001010 .
b1010 \
1)
#2760
0)
#2780
b11001101 *
b11001101 .
b1101 \
b11010000000000000000000000000000 e
b11010000000000000000000000000000 k
b1101 3"
1)
#2800
0)
#2820
b0 e
b0 k
b0 3"
b11000000 *
b11000000 .
b0 \
1)
#2840
0)
#2860
b11000011 *
b11000011 .
b11 \
b110000000000000000000000000000 e
b110000000000000000000000000000 k
b11 3"
1)
#2880
0)
#2900
b1100000000000000000000000000000 e
b1100000000000000000000000000000 k
b110 3"
b11000110 *
b11000110 .
b110 \
1)
#2920
0)
#2940
b11001001 *
b11001001 .
b1001 \
b10010000000000000000000000000000 e
b10010000000000000000000000000000 k
b1001 3"
1)
#2960
0)
#2980
b11000000000000000000000000000000 e
b11000000000000000000000000000000 k
b1100 3"
b11001100 *
b11001100 .
b1100 \
1)
#3000
0)
#3020
1T
b10xxxxxx ,
1^
b11001111 *
b11001111 .
b1111 \
15"
b11110000000000000000000000000000 e
b11110000000000000000000000000000 k
b1111 3"
1)
#3040
0)
#3060
1N
0T
05"
b100000000000000000000000000000 e
b100000000000000000000000000000 k
b10 3"
1Y
b1111 W
b1xxxxxx ,
0^
b11110010 *
b11110010 .
b10 \
1)
#3080
0)
#3100
0H
b101 \
b10xxxxx ,
0S
0R
b1111110101 *
b1111110101 .
b11 Q
b1010000000000000000000000000000 e
b1010000000000000000000000000000 k
b101 3"
1)
#3120
0)
#3140
b10000000000000000000000000000000 e
b10000000000000000000000000000000 k
b1000 3"
b110 Q
b11011111000 *
b11011111000 .
b1000 \
1)
#3160
0)
#3180
b1011 \
b100111111011 *
b100111111011 .
b1001 Q
b10110000000000000000000000000000 e
b10110000000000000000000000000000 k
b1011 3"
1)
#3200
0)
#3220
b11100000000000000000000000000000 e
b11100000000000000000000000000000 k
b1110 3"
b1100 Q
b110011111110 *
b110011111110 .
b1110 \
1)
#3240
0)
#3260
1H
b1 \
b11xxxxx ,
1S
b111111110001 *
b111111110001 .
b1111 Q
b10000000000000000000000000000 e
b10000000000000000000000000000 k
b1 3"
1)
#3280
0)
#3300
0H
0B
b1000000000000000000000000000000 e
b1000000000000000000000000000000 k
b100 3"
0S
b10 Q
b100xxxx ,
0M
0L
b11 K
b11001011110100 *
b11001011110100 .
b100 \
1)
#3320
0)
#3340
b111 \
b11010111110111 *
b11010111110111 .
b101 Q
b1110000000000000000000000000000 e
b1110000000000000000000000000000 k
b111 3"
1)
#3360
0)
#3380
b10100000000000000000000000000000 e
b10100000000000000000000000000000 k
b1010 3"
b1000 Q
b11100011111010 *
b11100011111010 .
b1010 \
1)
#3400
0)
#3420
b1101 \
b11101111111101 *
b11101111111101 .
b1011 Q
b11010000000000000000000000000000 e
b11010000000000000000000000000000 k
b1101 3"
1)
#3440
0)
#3460
b0 e
b0 k
b0 3"
b1110 Q
b11111011110000 *
b11111011110000 .
b0 \
1)
#3480
0)
#3500
b11 \
b11000111110011 *
b11000111110011 .
b1 Q
b110000000000000000000000000000 e
b110000000000000000000000000000 k
b11 3"
1)
#3520
0)
#3540
b1100000000000000000000000000000 e
b1100000000000000000000000000000 k
b110 3"
b100 Q
b11010011110110 *
b11010011110110 .
b110 \
1)
#3560
0)
#3580
b1001 \
b11011111111001 *
b11011111111001 .
b111 Q
b10010000000000000000000000000000 e
b10010000000000000000000000000000 k
b1001 3"
1)
#3600
0)
#3620
b11000000000000000000000000000000 e
b11000000000000000000000000000000 k
b1100 3"
b1010 Q
b11101011111100 *
b11101011111100 .
b1100 \
1)
#3640
0)
#3660
1T
b1100xxxx ,
1^
b1111 \
b11110111111111 *
b11110111111111 .
b1101 Q
15"
b11110000000000000000000000000000 e
b11110000000000000000000000000000 k
b1111 3"
1)
#3680
0)
#3700
0N
0T
05"
b100000000000000000000000000000 e
b100000000000000000000000000000 k
b10 3"
0Y
b10 W
b0 Q
b0xxxx ,
0^
b11000000100010 *
b11000000100010 .
b10 \
1)
#3720
0)
#3740
b11000000100101 *
b11000000100101 .
b101 \
b1010000000000000000000000000000 e
b1010000000000000000000000000000 k
b101 3"
1)
#3760
0)
#3780
b10000000000000000000000000000000 e
b10000000000000000000000000000000 k
b1000 3"
b11000000101000 *
b11000000101000 .
b1000 \
1)
#3800
0)
#3820
b11000000101011 *
b11000000101011 .
b1011 \
b10110000000000000000000000000000 e
b10110000000000000000000000000000 k
b1011 3"
1)
#3840
0)
#3860
b11100000000000000000000000000000 e
b11100000000000000000000000000000 k
b1110 3"
b11000000101110 *
b11000000101110 .
b1110 \
1)
#3880
0)
#3900
b11000000100001 *
b11000000100001 .
b1 \
b10000000000000000000000000000 e
b10000000000000000000000000000 k
b1 3"
1)
#3920
0)
#3940
b1000000000000000000000000000000 e
b1000000000000000000000000000000 k
b100 3"
b11000000100100 *
b11000000100100 .
b100 \
1)
#3960
0)
#3980
b11000000100111 *
b11000000100111 .
b111 \
b1110000000000000000000000000000 e
b1110000000000000000000000000000 k
b111 3"
1)
#4000
0)
#4020
b10100000000000000000000000000000 e
b10100000000000000000000000000000 k
b1010 3"
b11000000101010 *
b11000000101010 .
b1010 \
1)
#4040
0)
#4060
b11000000101101 *
b11000000101101 .
b1101 \
b11010000000000000000000000000000 e
b11010000000000000000000000000000 k
b1101 3"
1)
#4080
0)
#4100
b0 e
b0 k
b0 3"
b11000000100000 *
b11000000100000 .
b0 \
1)
#4120
0)
#4140
b11000000100011 *
b11000000100011 .
b11 \
b110000000000000000000000000000 e
b110000000000000000000000000000 k
b11 3"
1)
#4160
0)
#4180
b1100000000000000000000000000000 e
b1100000000000000000000000000000 k
b110 3"
b11000000100110 *
b11000000100110 .
b110 \
1)
#4200
0)
#4220
b11000000101001 *
b11000000101001 .
b1001 \
b10010000000000000000000000000000 e
b10010000000000000000000000000000 k
b1001 3"
1)
#4240
0)
#4260
b11000000000000000000000000000000 e
b11000000000000000000000000000000 k
b1100 3"
b11000000101100 *
b11000000101100 .
b1100 \
1)
#4280
0)
#4300
1T
b1000xxxx ,
1^
b11000000101111 *
b11000000101111 .
b1111 \
15"
b11110000000000000000000000000000 e
b11110000000000000000000000000000 k
b1111 3"
1)
#4320
0)
#4340
0T
05"
b100000000000000000000000000000 e
b100000000000000000000000000000 k
b10 3"
b101 W
b0xxxx ,
0^
b11000001010010 *
b11000001010010 .
b10 \
1)
#4360
0)
#4380
b11000001010101 *
b11000001010101 .
b101 \
b1010000000000000000000000000000 e
b1010000000000000000000000000000 k
b101 3"
1)
#4400
0)
#4420
b10000000000000000000000000000000 e
b10000000000000000000000000000000 k
b1000 3"
b11000001011000 *
b11000001011000 .
b1000 \
1)
#4440
0)
#4460
b11000001011011 *
b11000001011011 .
b1011 \
b10110000000000000000000000000000 e
b10110000000000000000000000000000 k
b1011 3"
1)
#4480
0)
#4500
b11100000000000000000000000000000 e
b11100000000000000000000000000000 k
b1110 3"
b11000001011110 *
b11000001011110 .
b1110 \
1)
#4520
0)
#4540
b11000001010001 *
b11000001010001 .
b1 \
b10000000000000000000000000000 e
b10000000000000000000000000000 k
b1 3"
1)
#4560
0)
#4580
b1000000000000000000000000000000 e
b1000000000000000000000000000000 k
b100 3"
b11000001010100 *
b11000001010100 .
b100 \
1)
#4600
0)
#4620
b11000001010111 *
b11000001010111 .
b111 \
b1110000000000000000000000000000 e
b1110000000000000000000000000000 k
b111 3"
1)
#4640
0)
#4660
b10100000000000000000000000000000 e
b10100000000000000000000000000000 k
b1010 3"
b11000001011010 *
b11000001011010 .
b1010 \
1)
#4680
0)
#4700
b11000001011101 *
b11000001011101 .
b1101 \
b11010000000000000000000000000000 e
b11010000000000000000000000000000 k
b1101 3"
1)
#4720
0)
#4740
b0 e
b0 k
b0 3"
b11000001010000 *
b11000001010000 .
b0 \
1)
#4760
0)
#4780
b11000001010011 *
b11000001010011 .
b11 \
b110000000000000000000000000000 e
b110000000000000000000000000000 k
b11 3"
1)
#4800
0)
#4820
b1100000000000000000000000000000 e
b1100000000000000000000000000000 k
b110 3"
b11000001010110 *
b11000001010110 .
b110 \
1)
#4840
0)
#4860
b11000001011001 *
b11000001011001 .
b1001 \
b10010000000000000000000000000000 e
b10010000000000000000000000000000 k
b1001 3"
1)
#4880
0)
#4900
b11000000000000000000000000000000 e
b11000000000000000000000000000000 k
b1100 3"
b11000001011100 *
b11000001011100 .
b1100 \
1)
#4920
0)
#4940
1T
b1000xxxx ,
1^
b11000001011111 *
b11000001011111 .
b1111 \
15"
b11110000000000000000000000000000 e
b11110000000000000000000000000000 k
b1111 3"
1)
#4960
0)
#4980
0T
05"
b100000000000000000000000000000 e
b100000000000000000000000000000 k
b10 3"
b1000 W
b0xxxx ,
0^
b11000010000010 *
b11000010000010 .
b10 \
1)
#5000
0)
#5020
b11000010000101 *
b11000010000101 .
b101 \
b1010000000000000000000000000000 e
b1010000000000000000000000000000 k
b101 3"
1)
#5040
0)
#5060
b10000000000000000000000000000000 e
b10000000000000000000000000000000 k
b1000 3"
b11000010001000 *
b11000010001000 .
b1000 \
1)
#5080
0)
#5100
b11000010001011 *
b11000010001011 .
b1011 \
b10110000000000000000000000000000 e
b10110000000000000000000000000000 k
b1011 3"
1)
#5120
0)
#5140
b11100000000000000000000000000000 e
b11100000000000000000000000000000 k
b1110 3"
b11000010001110 *
b11000010001110 .
b1110 \
1)
#5160
0)
#5180
b11000010000001 *
b11000010000001 .
b1 \
b10000000000000000000000000000 e
b10000000000000000000000000000 k
b1 3"
1)
#5200
0)
#5220
b1000000000000000000000000000000 e
b1000000000000000000000000000000 k
b100 3"
b11000010000100 *
b11000010000100 .
b100 \
1)
#5240
0)
#5260
b11000010000111 *
b11000010000111 .
b111 \
b1110000000000000000000000000000 e
b1110000000000000000000000000000 k
b111 3"
1)
#5280
0)
#5300
b10100000000000000000000000000000 e
b10100000000000000000000000000000 k
b1010 3"
b11000010001010 *
b11000010001010 .
b1010 \
1)
#5320
0)
#5340
b11000010001101 *
b11000010001101 .
b1101 \
b11010000000000000000000000000000 e
b11010000000000000000000000000000 k
b1101 3"
1)
#5360
0)
#5380
b0 e
b0 k
b0 3"
b11000010000000 *
b11000010000000 .
b0 \
1)
#5400
0)
#5420
b11000010000011 *
b11000010000011 .
b11 \
b110000000000000000000000000000 e
b110000000000000000000000000000 k
b11 3"
1)
#5440
0)
#5460
b1100000000000000000000000000000 e
b1100000000000000000000000000000 k
b110 3"
b11000010000110 *
b11000010000110 .
b110 \
1)
#5480
0)
#5500
b11000010001001 *
b11000010001001 .
b1001 \
b10010000000000000000000000000000 e
b10010000000000000000000000000000 k
b1001 3"
1)
#5520
0)
#5540
b11000000000000000000000000000000 e
b11000000000000000000000000000000 k
b1100 3"
b11000010001100 *
b11000010001100 .
b1100 \
1)
#5560
0)
#5580
1T
b1000xxxx ,
1^
b11000010001111 *
b11000010001111 .
b1111 \
15"
b11110000000000000000000000000000 e
b11110000000000000000000000000000 k
b1111 3"
1)
#5600
0)
#5620
0T
05"
b100000000000000000000000000000 e
b100000000000000000000000000000 k
b10 3"
b1011 W
b0xxxx ,
0^
b11000010110010 *
b11000010110010 .
b10 \
1)
#5640
0)
#5660
b11000010110101 *
b11000010110101 .
b101 \
b1010000000000000000000000000000 e
b1010000000000000000000000000000 k
b101 3"
1)
#5680
0)
#5700
b10000000000000000000000000000000 e
b10000000000000000000000000000000 k
b1000 3"
b11000010111000 *
b11000010111000 .
b1000 \
1)
#5720
0)
#5740
b11000010111011 *
b11000010111011 .
b1011 \
b10110000000000000000000000000000 e
b10110000000000000000000000000000 k
b1011 3"
1)
#5760
0)
#5780
b11100000000000000000000000000000 e
b11100000000000000000000000000000 k
b1110 3"
b11000010111110 *
b11000010111110 .
b1110 \
1)
#5800
0)
#5820
b11000010110001 *
b11000010110001 .
b1 \
b10000000000000000000000000000 e
b10000000000000000000000000000 k
b1 3"
1)
#5840
0)
#5860
b1000000000000000000000000000000 e
b1000000000000000000000000000000 k
b100 3"
b11000010110100 *
b11000010110100 .
b100 \
1)
#5880
0)
#5900
b11000010110111 *
b11000010110111 .
b111 \
b1110000000000000000000000000000 e
b1110000000000000000000000000000 k
b111 3"
1)
#5920
0)
#5940
b10100000000000000000000000000000 e
b10100000000000000000000000000000 k
b1010 3"
b11000010111010 *
b11000010111010 .
b1010 \
1)
#5960
0)
#5980
b11000010111101 *
b11000010111101 .
b1101 \
b11010000000000000000000000000000 e
b11010000000000000000000000000000 k
b1101 3"
1)
#6000
0)
