Proyecto/contador_4_bits/rco_ciclo_completo/test.vcd
$date
	Wed Dec  2 18:31:19 2020
$end
$version
	Icarus Verilog
$end
$timescale
	1s
$end
$scope module tb_top $end
$var wire 4 ! Q_tb [0:3] $end
$var wire 1 " load_tb $end
$var wire 1 # rco_tb $end
$var wire 1 $ reset $end
$var wire 1 % rco $end
$var wire 2 & mode [1:0] $end
$var wire 1 ' load $end
$var wire 1 ( enable $end
$var wire 1 ) clock $end
$var wire 4 * Q [0:3] $end
$var wire 4 + D [3:0] $end
$scope module clk1 $end
$var reg 1 ) clock $end
$upscope $end
$scope module dut $end
$var wire 1 ) clk $end
$var wire 1 $ reset $end
$var wire 2 , mode [1:0] $end
$var wire 1 ( enable $end
$var wire 4 - D [3:0] $end
$var reg 4 . Q [3:0] $end
$var reg 1 ' load $end
$var reg 1 % rco $end
$upscope $end
$scope module tb $end
$var wire 4 / Q [0:3] $end
$var wire 1 ) clk $end
$var wire 4 0 dut_Q [0:3] $end
$var wire 1 1 dut_load $end
$var wire 1 2 dut_rco $end
$var wire 1 " load $end
$var wire 1 # rco $end
$var wire 1 3 sb_rco $end
$var wire 1 4 sb_load $end
$var wire 4 5 sb_Q [0:3] $end
$var reg 4 6 D [3:0] $end
$var reg 1 ( enable $end
$var reg 2 7 mode [1:0] $end
$var reg 1 $ reset $end
$var integer 32 8 log [31:0] $end
$scope module sb $end
$var wire 4 9 D [3:0] $end
$var wire 1 ) clk $end
$var wire 1 ( enable $end
$var wire 2 : mode [1:0] $end
$var wire 1 $ reset $end
$var reg 4 ; Q [3:0] $end
$var reg 1 4 load $end
$var reg 1 3 rco $end
$upscope $end
$scope task checker $end
$var integer 32 < iteration [31:0] $end
$upscope $end
$scope task drv_init $end
$upscope $end
$scope task test00 $end
$var integer 32 = iteration [31:0] $end
$upscope $end
$scope task test01 $end
$var integer 32 > iteration [31:0] $end
$upscope $end
$scope task test10 $end
$var integer 32 ? iteration [31:0] $end
$upscope $end
$scope task test11 $end
$var integer 32 @ iteration [31:0] $end
$upscope $end
$upscope $end
$upscope $end
$enddefinitions $end
#0
$dumpvars
bx @
bx ?
bx >
bx =
bx <
b0 ;
bx :
bx 9
b10 8
bx 7
bx 6
b0 5
x4
x3
z2
z1
bz 0
bz /
b0 .
bx -
bx ,
bx +
b0 *
0)
x(
x'
bx &
x%
x$
z#
z"
bz !
$end
#20
03
14
bx 5
bx ;
1)
#40
1$
0)
#60
b0 5
b0 ;
04
1)
#80
0)
#100
1)
#120
0)
#140
1)
#160
0)
#180
1)
#200
0$
0)
#220
14
bx 5
bx ;
1)
#240
b110010 =
b110010 <
0)
#260
1)
#280
b0 +
b0 -
b0 6
b0 9
b0 &
b0 ,
b0 7
b0 :
1(
0)
#300
0%
0'
b1 *
b1 .
04
1)
#320
0)
#340
b10 *
b10 .
1)
#360
0)
#380
b11 *
b11 .
1)
#400
0)
#420
b100 *
b100 .
1)
#440
0)
#460
b101 *
b101 .
1)
#480
0)
#500
b110 *
b110 .
1)
#520
0)
#540
b111 *
b111 .
1)
#560
0)
#580
b1000 *
b1000 .
1)
#600
0)
#620
b1001 *
b1001 .
1)
#640
0)
#660
b1010 *
b1010 .
1)
#680
0)
#700
b1011 *
b1011 .
1)
#720
0)
#740
b1100 *
b1100 .
1)
#760
0)
#780
b1101 *
b1101 .
1)
#800
0)
#820
b1110 *
b1110 .
1)
#840
0)
#860
1%
b1111 *
b1111 .
1)
#880
0)
#900
0%
b0 *
b0 .
1)
#920
0)
#940
b1 *
b1 .
1)
#960
0)
#980
b10 *
b10 .
1)
#1000
0)
#1020
b11 *
b11 .
1)
#1040
0)
#1060
b100 *
b100 .
1)
#1080
0)
#1100
b101 *
b101 .
1)
#1120
0)
#1140
b110 *
b110 .
1)
#1160
0)
#1180
b111 *
b111 .
1)
#1200
0)
#1220
b1000 *
b1000 .
1)
#1240
0)
#1260
b1001 *
b1001 .
1)
#1280
0)
#1300
b1010 *
b1010 .
1)
#1320
0)
#1340
b1011 *
b1011 .
1)
#1360
0)
#1380
b1100 *
b1100 .
1)
#1400
0)
#1420
b1101 *
b1101 .
1)
#1440
0)
#1460
b1110 *
b1110 .
1)
#1480
0)
#1500
1%
b1111 *
b1111 .
1)
#1520
0)
#1540
0%
b0 *
b0 .
1)
#1560
0)
#1580
b1 *
b1 .
1)
#1600
0)
#1620
b10 *
b10 .
1)
#1640
0)
#1660
b11 *
b11 .
1)
#1680
0)
#1700
b100 *
b100 .
1)
#1720
0)
#1740
b101 *
b101 .
1)
#1760
0)
#1780
b110 *
b110 .
1)
#1800
0)
#1820
b111 *
b111 .
1)
#1840
0)
#1860
b1000 *
b1000 .
1)
#1880
0)
#1900
b1001 *
b1001 .
1)
#1920
0)
#1940
b1010 *
b1010 .
1)
#1960
0)
#1980
b1011 *
b1011 .
1)
#2000
0)
#2020
b1100 *
b1100 .
1)
#2040
0)
#2060
b1101 *
b1101 .
1)
#2080
0)
#2100
b1110 *
b1110 .
1)
#2120
0)
#2140
1%
b1111 *
b1111 .
1)
#2160
0)
#2180
0%
b0 *
b0 .
1)
#2200
0)
#2220
b1 *
b1 .
1)
#2240
0)
#2260
b10 *
b10 .
1)
#2280
1$
0)
#2300
b0 *
b0 .
b0 5
b0 ;
1)
#2320
0)
#2340
1)
#2360
0)
#2380
1)
#2400
0)
#2420
1)
#2440
0$
0)
#2460
b1 *
b1 .
b1 5
b1 ;
1)
#2480
b110010 >
0)
#2500
b10 5
b10 ;
b10 *
b10 .
1)
#2520
b1 &
b1 ,
b1 7
b1 :
0)
#2540
b1 *
b1 .
b1 5
b1 ;
1)
#2560
0)
#2580
13
b0 5
b0 ;
1%
b0 *
b0 .
1)
#2600
0)
#2620
0%
b1111 *
b1111 .
03
b1111 5
b1111 ;
1)
#2640
0)
#2660
b1110 5
b1110 ;
b1110 *
b1110 .
1)
#2680
0)
#2700
b1101 *
b1101 .
b1101 5
b1101 ;
1)
#2720
0)
#2740
b1100 5
b1100 ;
b1100 *
b1100 .
1)
#2760
0)
#2780
b1011 *
b1011 .
b1011 5
b1011 ;
1)
#2800
0)
#2820
b1010 5
b1010 ;
b1010 *
b1010 .
1)
#2840
0)
#2860
b1001 *
b1001 .
b1001 5
b1001 ;
1)
#2880
0)
#2900
b1000 5
b1000 ;
b1000 *
b1000 .
1)
#2920
0)
#2940
b111 *
b111 .
b111 5
b111 ;
1)
#2960
0)
#2980
b110 5
b110 ;
b110 *
b110 .
1)
#3000
0)
#3020
b101 *
b101 .
b101 5
b101 ;
1)
#3040
0)
#3060
b100 5
b100 ;
b100 *
b100 .
1)
#3080
0)
#3100
b11 *
b11 .
b11 5
b11 ;
1)
#3120
0)
#3140
b10 5
b10 ;
b10 *
b10 .
1)
#3160
0)
#3180
b1 *
b1 .
b1 5
b1 ;
1)
#3200
0)
#3220
13
b0 5
b0 ;
1%
b0 *
b0 .
1)
#3240
0)
#3260
0%
b1111 *
b1111 .
03
b1111 5
b1111 ;
1)
#3280
0)
#3300
b1110 5
b1110 ;
b1110 *
b1110 .
1)
#3320
0)
#3340
b1101 *
b1101 .
b1101 5
b1101 ;
1)
#3360
0)
#3380
b1100 5
b1100 ;
b1100 *
b1100 .
1)
#3400
0)
#3420
b1011 *
b1011 .
b1011 5
b1011 ;
1)
#3440
0)
#3460
b1010 5
b1010 ;
b1010 *
b1010 .
1)
#3480
0)
#3500
b1001 *
b1001 .
b1001 5
b1001 ;
1)
#3520
0)
#3540
b1000 5
b1000 ;
b1000 *
b1000 .
1)
#3560
0)
#3580
b111 *
b111 .
b111 5
b111 ;
1)
#3600
0)
#3620
b110 5
b110 ;
b110 *
b110 .
1)
#3640
0)
#3660
b101 *
b101 .
b101 5
b101 ;
1)
#3680
0)
#3700
b100 5
b100 ;
b100 *
b100 .
1)
#3720
0)
#3740
b11 *
b11 .
b11 5
b11 ;
1)
#3760
0)
#3780
b10 5
b10 ;
b10 *
b10 .
1)
#3800
0)
#3820
b1 *
b1 .
b1 5
b1 ;
1)
#3840
0)
#3860
13
b0 5
b0 ;
1%
b0 *
b0 .
1)
#3880
0)
#3900
0%
b1111 *
b1111 .
03
b1111 5
b1111 ;
1)
#3920
0)
#3940
b1110 5
b1110 ;
b1110 *
b1110 .
1)
#3960
0)
#3980
b1101 *
b1101 .
b1101 5
b1101 ;
1)
#4000
0)
#4020
b1100 5
b1100 ;
b1100 *
b1100 .
1)
#4040
0)
#4060
b1011 *
b1011 .
b1011 5
b1011 ;
1)
#4080
0)
#4100
b1010 5
b1010 ;
b1010 *
b1010 .
1)
#4120
0)
#4140
b1001 *
b1001 .
b1001 5
b1001 ;
1)
#4160
0)
#4180
b1000 5
b1000 ;
b1000 *
b1000 .
1)
#4200
0)
#4220
b111 *
b111 .
b111 5
b111 ;
1)
#4240
0)
#4260
b110 5
b110 ;
b110 *
b110 .
1)
#4280
0)
#4300
b101 *
b101 .
b101 5
b101 ;
1)
#4320
0)
#4340
b100 5
b100 ;
b100 *
b100 .
1)
#4360
0)
#4380
b11 *
b11 .
b11 5
b11 ;
1)
#4400
0)
#4420
b10 5
b10 ;
b10 *
b10 .
1)
#4440
0)
#4460
b1 *
b1 .
b1 5
b1 ;
1)
#4480
0)
#4500
13
b0 5
b0 ;
1%
b0 *
b0 .
1)
#4520
1$
0)
#4540
0%
03
1)
#4560
0)
#4580
1)
#4600
0)
#4620
1)
#4640
0)
#4660
1)
#4680
0$
0)
#4700
b1111 *
b1111 .
b1111 5
b1111 ;
1)
#4720
b110010 ?
0)
#4740
b1110 5
b1110 ;
b1110 *
b1110 .
1)
#4760
b10 &
b10 ,
b10 7
b10 :
0)
#4780
b1 *
b1 .
b1 5
b1 ;
1)
#4800
0)
#4820
b100 5
b100 ;
b100 *
b100 .
1)
#4840
0)
#4860
b111 *
b111 .
b111 5
b111 ;
1)
#4880
0)
#4900
b1010 5
b1010 ;
b1010 *
b1010 .
1)
#4920
0)
#4940
b1101 *
b1101 .
b1101 5
b1101 ;
1)
#4960
0)
#4980
b0 5
b0 ;
b0 *
b0 .
1)
#5000
0)
#5020
b11 *
b11 .
b11 5
b11 ;
1)
#5040
0)
#5060
b110 5
b110 ;
b110 *
b110 .
1)
#5080
0)
#5100
b1001 *
b1001 .
b1001 5
b1001 ;
1)
#5120
0)
#5140
b1100 5
b1100 ;
b1100 *
b1100 .
1)
#5160
0)
#5180
1%
b1111 *
b1111 .
13
b1111 5
b1111 ;
1)
#5200
0)
#5220
03
b10 5
b10 ;
0%
b10 *
b10 .
1)
#5240
0)
#5260
b101 *
b101 .
b101 5
b101 ;
1)
#5280
0)
#5300
b1000 5
b1000 ;
b1000 *
b1000 .
1)
#5320
0)
#5340
b1011 *
b1011 .
b1011 5
b1011 ;
1)
#5360
0)
#5380
b1110 5
b1110 ;
b1110 *
b1110 .
1)
#5400
0)
#5420
b1 *
b1 .
b1 5
b1 ;
1)
#5440
0)
#5460
b100 5
b100 ;
b100 *
b100 .
1)
#5480
0)
#5500
b111 *
b111 .
b111 5
b111 ;
1)
#5520
0)
#5540
b1010 5
b1010 ;
b1010 *
b1010 .
1)
#5560
0)
#5580
b1101 *
b1101 .
b1101 5
b1101 ;
1)
#5600
0)
#5620
b0 5
b0 ;
b0 *
b0 .
1)
#5640
0)
#5660
b11 *
b11 .
b11 5
b11 ;
1)
#5680
0)
#5700
b110 5
b110 ;
b110 *
b110 .
1)
#5720
0)
#5740
b1001 *
b1001 .
b1001 5
b1001 ;
1)
#5760
0)
#5780
b1100 5
b1100 ;
b1100 *
b1100 .
1)
#5800
0)
#5820
1%
b1111 *
b1111 .
13
b1111 5
b1111 ;
1)
#5840
0)
#5860
03
b10 5
b10 ;
0%
b10 *
b10 .
1)
#5880
0)
#5900
b101 *
b101 .
b101 5
b101 ;
1)
#5920
0)
#5940
b1000 5
b1000 ;
b1000 *
b1000 .
1)
#5960
0)
#5980
b1011 *
b1011 .
b1011 5
b1011 ;
1)
#6000
0)
#6020
b1110 5
b1110 ;
b1110 *
b1110 .
1)
#6040
0)
#6060
b1 *
b1 .
b1 5
b1 ;
1)
#6080
0)
#6100
b100 5
b100 ;
b100 *
b100 .
1)
#6120
0)
#6140
b111 *
b111 .
b111 5
b111 ;
1)
#6160
0)
#6180
b1010 5
b1010 ;
b1010 *
b1010 .
1)
#6200
0)
#6220
b1101 *
b1101 .
b1101 5
b1101 ;
1)
#6240
0)
#6260
b0 5
b0 ;
b0 *
b0 .
1)
#6280
0)
#6300
b11 *
b11 .
b11 5
b11 ;
1)
#6320
0)
#6340
b110 5
b110 ;
b110 *
b110 .
1)
#6360
0)
#6380
b1001 *
b1001 .
b1001 5
b1001 ;
1)
#6400
0)
#6420
b1100 5
b1100 ;
b1100 *
b1100 .
1)
#6440
0)
#6460
1%
b1111 *
b1111 .
13
b1111 5
b1111 ;
1)
#6480
0)
#6500
03
b10 5
b10 ;
0%
b10 *
b10 .
1)
#6520
0)
#6540
b101 *
b101 .
b101 5
b101 ;
1)
#6560
0)
#6580
b1000 5
b1000 ;
b1000 *
b1000 .
1)
#6600
0)
#6620
b1011 *
b1011 .
b1011 5
b1011 ;
1)
#6640
0)
#6660
b1110 5
b1110 ;
b1110 *
b1110 .
1)
#6680
0)
#6700
b1 *
b1 .
b1 5
b1 ;
1)
#6720
0)
#6740
b100 5
b100 ;
b100 *
b100 .
1)
#6760
1$
0)
#6780
b0 *
b0 .
b0 5
b0 ;
1)
#6800
0)
#6820
1)
#6840
0)
#6860
1)
#6880
0)
#6900
1)
#6920
0$
0)
#6940
b11 *
b11 .
b11 5
b11 ;
1)
#6960
b110010 @
0)
#6980
b110 5
b110 ;
b110 *
b110 .
1)
#7000
b11 &
b11 ,
b11 7
b11 :
0)
#7020
1'
b0 *
b0 .
14
b0 5
b0 ;
1)
#7040
b1 +
b1 -
b1 6
b1 9
0)
#7060
b1 5
b1 ;
b1 *
b1 .
1)
#7080
0)
#7100
1)
#7120
b11 +
b11 -
b11 6
b11 9
0)
#7140
b11 5
b11 ;
b11 *
b11 .
1)
#7160
b1 +
b1 -
b1 6
b1 9
0)
#7180
b1 *
b1 .
b1 5
b1 ;
1)
#7200
0)
#7220
1)
#7240
0)
#7260
1)
#7280
b10 +
b10 -
b10 6
b10 9
0)
#7300
b10 5
b10 ;
b10 *
b10 .
1)
#7320
b1 +
b1 -
b1 6
b1 9
0)
#7340
b1 *
b1 .
b1 5
b1 ;
1)
#7360
0)
#7380
1)
#7400
b10 +
b10 -
b10 6
b10 9
0)
#7420
b10 *
b10 .
b10 5
b10 ;
1)
#7440
b1 +
b1 -
b1 6
b1 9
0)
#7460
b1 5
b1 ;
b1 *
b1 .
1)
#7480
0)
#7500
1)
#7520
b0 +
b0 -
b0 6
b0 9
0)
#7540
b0 5
b0 ;
b0 *
b0 .
1)
#7560
b1 +
b1 -
b1 6
b1 9
0)
#7580
b1 *
b1 .
b1 5
b1 ;
1)
#7600
b10 +
b10 -
b10 6
b10 9
0)
#7620
b10 5
b10 ;
b10 *
b10 .
1)
#7640
b1 +
b1 -
b1 6
b1 9
0)
#7660
b1 *
b1 .
b1 5
b1 ;
1)
#7680
b10 +
b10 -
b10 6
b10 9
0)
#7700
b10 5
b10 ;
b10 *
b10 .
1)
#7720
b1 +
b1 -
b1 6
b1 9
0)
#7740
b1 *
b1 .
b1 5
b1 ;
1)
#7760
b11 +
b11 -
b11 6
b11 9
0)
#7780
b11 5
b11 ;
b11 *
b11 .
1)
#7800
b10 +
b10 -
b10 6
b10 9
0)
#7820
b10 *
b10 .
b10 5
b10 ;
1)
#7840
b11 +
b11 -
b11 6
b11 9
0)
#7860
b11 5
b11 ;
b11 *
b11 .
1)
#7880
b10 +
b10 -
b10 6
b10 9
0)
#7900
b10 *
b10 .
b10 5
b10 ;
1)
#7920
0)
#7940
1)
#7960
b0 +
b0 -
b0 6
b0 9
0)
#7980
b0 *
b0 .
b0 5
b0 ;
1)
#8000
b1 +
b1 -
b1 6
b1 9
0)
#8020
b1 5
b1 ;
b1 *
b1 .
1)
#8040
b0 +
b0 -
b0 6
b0 9
0)
#8060
b0 *
b0 .
b0 5
b0 ;
1)
#8080
b1 +
b1 -
b1 6
b1 9
0)
#8100
b1 5
b1 ;
b1 *
b1 .
1)
#8120
0)
#8140
1)
#8160
0)
#8180
1)
#8200
b11 +
b11 -
b11 6
b11 9
0)
#8220
b11 *
b11 .
b11 5
b11 ;
1)
#8240
b10 +
b10 -
b10 6
b10 9
0)
#8260
b10 5
b10 ;
b10 *
b10 .
1)
#8280
b0 +
b0 -
b0 6
b0 9
0)
#8300
b0 *
b0 .
b0 5
b0 ;
1)
#8320
0)
#8340
1)
#8360
b10 +
b10 -
b10 6
b10 9
0)
#8380
b10 *
b10 .
b10 5
b10 ;
1)
#8400
b1 +
b1 -
b1 6
b1 9
0)
#8420
b1 5
b1 ;
b1 *
b1 .
1)
#8440
b10 +
b10 -
b10 6
b10 9
0)
#8460
b10 *
b10 .
b10 5
b10 ;
1)
#8480
b11 +
b11 -
b11 6
b11 9
0)
#8500
b11 5
b11 ;
b11 *
b11 .
1)
#8520
b1 +
b1 -
b1 6
b1 9
0)
#8540
b1 *
b1 .
b1 5
b1 ;
1)
#8560
b11 +
b11 -
b11 6
b11 9
0)
#8580
b11 5
b11 ;
b11 *
b11 .
1)
#8600
0)
#8620
1)
#8640
b1 +
b1 -
b1 6
b1 9
0)
#8660
b1 5
b1 ;
b1 *
b1 .
1)
#8680
b10 +
b10 -
b10 6
b10 9
0)
#8700
b10 *
b10 .
b10 5
b10 ;
1)
#8720
0)
#8740
1)
#8760
b1 +
b1 -
b1 6
b1 9
0)
#8780
b1 *
b1 .
b1 5
b1 ;
1)
#8800
b11 +
b11 -
b11 6
b11 9
0)
#8820
b11 5
b11 ;
b11 *
b11 .
1)
#8840
0)
#8860
1)
#8880
b10 +
b10 -
b10 6
b10 9
0)
#8900
b10 5
b10 ;
b10 *
b10 .
1)
#8920
0)
#8940
1)
#8960
b0 +
b0 -
b0 6
b0 9
0)
#8980
b0 5
b0 ;
b0 *
b0 .
1)
#9000
1$
0)
#9020
0'
04
1)
#9040
0)
#9060
1)
#9080
0)
#9100
1)
#9120
0)
#9140
1)
#9160
0$
0)
#9180
1'
14
1)
#9200
0)
#9220
1)
#9240
b0 &
b0 ,
b0 7
b0 :
0)
#9260
0'
b1 *
b1 .
04
b1 5
b1 ;
1)
#9280
0)
#9300
b10 5
b10 ;
b10 *
b10 .
1)
#9320
0)
#9340
b11 *
b11 .
b11 5
b11 ;
1)
#9360
0)
#9380
b100 5
b100 ;
b100 *
b100 .
1)
#9400
0)
#9420
b101 *
b101 .
b101 5
b101 ;
1)
#9440
0)
#9460
b110 5
b110 ;
b110 *
b110 .
1)
#9480
0)
#9500
b111 *
b111 .
b111 5
b111 ;
1)
#9520
0)
#9540
b1000 5
b1000 ;
b1000 *
b1000 .
1)
#9560
0)
#9580
b1001 *
b1001 .
b1001 5
b1001 ;
1)
#9600
0)
#9620
b1010 5
b1010 ;
b1010 *
b1010 .
1)
#9640
0)
#9660
b1011 *
b1011 .
b1011 5
b1011 ;
1)
#9680
0)
#9700
b1100 5
b1100 ;
b1100 *
b1100 .
1)
#9720
0)
#9740
b1101 *
b1101 .
b1101 5
b1101 ;
1)
#9760
0)
#9780
b1110 5
b1110 ;
b1110 *
b1110 .
1)
#9800
0)
#9820
1%
b1111 *
b1111 .
13
b1111 5
b1111 ;
1)
#9840
0)
#9860
03
b0 5
b0 ;
0%
b0 *
b0 .
1)
#9880
0)
#9900
b1 *
b1 .
b1 5
b1 ;
1)
#9920
0)
#9940
b10 5
b10 ;
b10 *
b10 .
1)
#9960
0)
#9980
b11 *
b11 .
b11 5
b11 ;
1)
#10000
0)
#10020
b100 5
b100 ;
b100 *
b100 .
1)
#10040
0)
#10060
b101 *
b101 .
b101 5
b101 ;
1)
#10080
0)
#10100
b110 5
b110 ;
b110 *
b110 .
1)
#10120
0)
#10140
b111 *
b111 .
b111 5
b111 ;
1)
#10160
0)
#10180
b1000 5
b1000 ;
b1000 *
b1000 .
1)
#10200
0)
#10220
b1001 *
b1001 .
b1001 5
b1001 ;
1)
#10240
0)
#10260
b1010 5
b1010 ;
b1010 *
b1010 .
1)
#10280
0)
#10300
b1011 *
b1011 .
b1011 5
b1011 ;
1)
#10320
0)
#10340
b1100 5
b1100 ;
b1100 *
b1100 .
1)
#10360
0)
#10380
b1101 *
b1101 .
b1101 5
b1101 ;
1)
#10400
0)
#10420
b1110 5
b1110 ;
b1110 *
b1110 .
1)
#10440
0)
#10460
1%
b1111 *
b1111 .
13
b1111 5
b1111 ;
1)
#10480
0)
#10500
03
b0 5
b0 ;
0%
b0 *
b0 .
1)
#10520
0)
#10540
b1 *
b1 .
b1 5
b1 ;
1)
#10560
0)
#10580
b10 5
b10 ;
b10 *
b10 .
1)
#10600
0)
#10620
b11 *
b11 .
b11 5
b11 ;
1)
#10640
0)
#10660
b100 5
b100 ;
b100 *
b100 .
1)
#10680
0)
#10700
b101 *
b101 .
b101 5
b101 ;
1)
#10720
0)
#10740
b110 5
b110 ;
b110 *
b110 .
1)
#10760
0)
#10780
b111 *
b111 .
b111 5
b111 ;
1)
#10800
0)
#10820
b1000 5
b1000 ;
b1000 *
b1000 .
1)
#10840
0)
#10860
b1001 *
b1001 .
b1001 5
b1001 ;
1)
#10880
0)
#10900
b1010 5
b1010 ;
b1010 *
b1010 .
1)
#10920
0)
#10940
b1011 *
b1011 .
b1011 5
b1011 ;
1)
#10960
0)
#10980
b1100 5
b1100 ;
b1100 *
b1100 .
1)
#11000
0)
#11020
b1101 *
b1101 .
b1101 5
b1101 ;
1)
#11040
0)
#11060
b1110 5
b1110 ;
b1110 *
b1110 .
1)
#11080
0)
#11100
1%
b1111 *
b1111 .
13
b1111 5
b1111 ;
1)
#11120
0)
#11140
03
b0 5
b0 ;
0%
b0 *
b0 .
1)
#11160
0)
#11180
b1 *
b1 .
b1 5
b1 ;
1)
#11200
0)
#11220
b10 5
b10 ;
b10 *
b10 .
1)
#11240
0)
#11260
b11 *
b11 .
b11 5
b11 ;
1)
#11280
0)
#11300
b100 5
b100 ;
b100 *
b100 .
1)
#11320
0)
#11340
b101 *
b101 .
b101 5
b101 ;
1)
#11360
0)
#11380
b110 5
b110 ;
b110 *
b110 .
1)
