Timing/Modelo_sintetizado_con_retardos/test.vcd
$date
	Sat Oct 10 19:21:09 2020
$end
$version
	Icarus Verilog
$end
$timescale
	1ps
$end
$scope module BUF $end
$var wire 1 ! A $end
$var wire 1 " Y $end
$upscope $end
$scope module BUFX2 $end
$var wire 1 # A $end
$var wire 1 $ Y $end
$upscope $end
$scope module NOR $end
$var wire 1 % A $end
$var wire 1 & B $end
$var wire 1 ' Y $end
$upscope $end
$scope module tb_top $end
$var wire 4 ( Q_tb [3:0] $end
$var wire 1 ) load_tb $end
$var wire 1 * rco_tb $end
$var wire 1 + reset $end
$var wire 1 , rco_synth $end
$var wire 1 - rco $end
$var wire 2 . mode [1:0] $end
$var wire 1 / load_synth $end
$var wire 1 0 load $end
$var wire 1 1 enable $end
$var wire 1 2 clock $end
$var wire 4 3 Q_synth [3:0] $end
$var wire 4 4 Q [3:0] $end
$var wire 4 5 D [3:0] $end
$scope module clk1 $end
$var reg 1 2 clock $end
$upscope $end
$scope module dut $end
$var wire 1 2 clk $end
$var wire 1 + reset $end
$var wire 2 6 mode [1:0] $end
$var wire 1 1 enable $end
$var wire 4 7 D [3:0] $end
$var reg 4 8 Q [3:0] $end
$var reg 1 0 load $end
$var reg 1 - rco $end
$upscope $end
$scope module synth $end
$var wire 1 2 clk $end
$var wire 1 + reset $end
$var wire 1 , rco $end
$var wire 2 9 mode [1:0] $end
$var wire 1 / load $end
$var wire 1 1 enable $end
$var wire 1 : _062_ $end
$var wire 1 ; _061_ $end
$var wire 1 < _060_ $end
$var wire 1 = _059_ $end
$var wire 1 > _058_ $end
$var wire 1 ? _057_ $end
$var wire 1 @ _056_ $end
$var wire 1 A _055_ $end
$var wire 1 B _054_ $end
$var wire 1 C _053_ $end
$var wire 1 D _052_ $end
$var wire 1 E _051_ $end
$var wire 1 F _050_ $end
$var wire 1 G _049_ $end
$var wire 1 H _048_ $end
$var wire 1 I _047_ $end
$var wire 1 J _046_ $end
$var wire 1 K _045_ $end
$var wire 1 L _044_ $end
$var wire 1 M _043_ $end
$var wire 1 N _042_ $end
$var wire 1 O _041_ $end
$var wire 1 P _040_ $end
$var wire 1 Q _039_ $end
$var wire 1 R _038_ $end
$var wire 1 S _037_ $end
$var wire 1 T _036_ $end
$var wire 1 U _035_ $end
$var wire 1 V _034_ $end
$var wire 1 W _033_ $end
$var wire 1 X _032_ $end
$var wire 1 Y _031_ $end
$var wire 1 Z _030_ $end
$var wire 1 [ _029_ $end
$var wire 1 \ _028_ $end
$var wire 1 ] _027_ $end
$var wire 1 ^ _026_ $end
$var wire 1 _ _025_ $end
$var wire 1 ` _024_ $end
$var wire 1 a _023_ $end
$var wire 1 b _022_ $end
$var wire 1 c _021_ $end
$var wire 1 d _020_ $end
$var wire 1 e _019_ $end
$var wire 1 f _018_ $end
$var wire 1 g _017_ $end
$var wire 1 h _016_ $end
$var wire 1 i _015_ $end
$var wire 1 j _014_ $end
$var wire 1 k _013_ $end
$var wire 1 l _012_ $end
$var wire 1 m _011_ $end
$var wire 1 n _010_ $end
$var wire 1 o _009_ $end
$var wire 1 p _008_ $end
$var wire 1 q _007_ $end
$var wire 1 r _006_ $end
$var wire 1 s _005_ $end
$var wire 1 t _004_ $end
$var wire 1 u _003_ $end
$var wire 1 v _002_ $end
$var wire 1 w _001_ $end
$var wire 4 x _000_ [3:0] $end
$var wire 4 y Q [3:0] $end
$var wire 4 z D [3:0] $end
$scope module _063_ $end
$var wire 1 u Y $end
$var wire 1 + A $end
$upscope $end
$scope module _064_ $end
$var wire 1 { A $end
$var wire 1 t Y $end
$upscope $end
$scope module _065_ $end
$var wire 1 | A $end
$var wire 1 s Y $end
$upscope $end
$scope module _066_ $end
$var wire 1 } B $end
$var wire 1 r Y $end
$var wire 1 s A $end
$upscope $end
$scope module _067_ $end
$var wire 1 ~ B $end
$var wire 1 !" C $end
$var wire 1 q Y $end
$var wire 1 r A $end
$upscope $end
$scope module _068_ $end
$var wire 1 "" C $end
$var wire 1 p Y $end
$var wire 1 t B $end
$var wire 1 q A $end
$upscope $end
$scope module _069_ $end
$var wire 1 #" A $end
$var wire 1 $" B $end
$var wire 1 o Y $end
$upscope $end
$scope module _070_ $end
$var wire 1 n Y $end
$var wire 1 o A $end
$upscope $end
$scope module _071_ $end
$var wire 1 %" A $end
$var wire 1 m Y $end
$upscope $end
$scope module _072_ $end
$var wire 1 l Y $end
$var wire 1 m B $end
$var wire 1 s A $end
$upscope $end
$scope module _073_ $end
$var wire 1 k Y $end
$var wire 1 l A $end
$upscope $end
$scope module _074_ $end
$var wire 1 &" A $end
$var wire 1 j Y $end
$upscope $end
$scope module _075_ $end
$var wire 1 '" A $end
$var wire 1 i Y $end
$var wire 1 j B $end
$upscope $end
$scope module _076_ $end
$var wire 1 h Y $end
$var wire 1 i A $end
$upscope $end
$scope module _077_ $end
$var wire 1 g Y $end
$var wire 1 n C $end
$var wire 1 k B $end
$var wire 1 h A $end
$upscope $end
$scope module _078_ $end
$var wire 1 f Y $end
$var wire 1 p B $end
$var wire 1 g A $end
$upscope $end
$scope module _079_ $end
$var wire 1 e Y $end
$var wire 1 u B $end
$var wire 1 f A $end
$upscope $end
$scope module _080_ $end
$var wire 1 (" A $end
$var wire 1 d Y $end
$var wire 1 m B $end
$upscope $end
$scope module _081_ $end
$var wire 1 )" B $end
$var wire 1 c Y $end
$var wire 1 + C $end
$var wire 1 d A $end
$upscope $end
$scope module _082_ $end
$var wire 1 b Y $end
$var wire 1 t C $end
$var wire 1 n B $end
$var wire 1 c A $end
$upscope $end
$scope module _083_ $end
$var wire 1 v Y $end
$var wire 1 e B $end
$var wire 1 b A $end
$upscope $end
$scope module _084_ $end
$var wire 1 w Y $end
$var wire 1 m C $end
$var wire 1 s B $end
$var wire 1 + A $end
$upscope $end
$scope module _085_ $end
$var wire 1 *" B $end
$var wire 1 a Y $end
$var wire 1 w A $end
$upscope $end
$scope module _086_ $end
$var wire 1 +" A $end
$var wire 1 ," B $end
$var wire 1 ` Y $end
$upscope $end
$scope module _087_ $end
$var wire 1 _ Y $end
$var wire 1 u C $end
$var wire 1 j B $end
$var wire 1 ` A $end
$upscope $end
$scope module _088_ $end
$var wire 1 -" Y $end
$var wire 1 a B $end
$var wire 1 _ A $end
$upscope $end
$scope module _089_ $end
$var wire 1 ." B $end
$var wire 1 ^ Y $end
$var wire 1 w A $end
$upscope $end
$scope module _090_ $end
$var wire 1 /" B $end
$var wire 1 ] Y $end
$var wire 1 t A $end
$upscope $end
$scope module _091_ $end
$var wire 1 \ Y $end
$var wire 1 ] B $end
$var wire 1 i A $end
$upscope $end
$scope module _092_ $end
$var wire 1 [ Y $end
$var wire 1 \ A $end
$upscope $end
$scope module _093_ $end
$var wire 1 Z Y $end
$var wire 1 r C $end
$var wire 1 d B $end
$var wire 1 [ A $end
$upscope $end
$scope module _094_ $end
$var wire 1 Y Y $end
$var wire 1 l B $end
$var wire 1 \ A $end
$upscope $end
$scope module _095_ $end
$var wire 1 X Y $end
$var wire 1 u C $end
$var wire 1 Z B $end
$var wire 1 Y A $end
$upscope $end
$scope module _096_ $end
$var wire 1 0" Y $end
$var wire 1 ^ B $end
$var wire 1 X A $end
$upscope $end
$scope module _097_ $end
$var wire 1 W Y $end
$var wire 1 d A $end
$upscope $end
$scope module _098_ $end
$var wire 1 1" A $end
$var wire 1 V Y $end
$upscope $end
$scope module _099_ $end
$var wire 1 U Y $end
$var wire 1 j C $end
$var wire 1 t B $end
$var wire 1 V A $end
$upscope $end
$scope module _100_ $end
$var wire 1 T Y $end
$var wire 1 j B $end
$var wire 1 t A $end
$upscope $end
$scope module _101_ $end
$var wire 1 2" B $end
$var wire 1 S Y $end
$var wire 1 T A $end
$upscope $end
$scope module _102_ $end
$var wire 1 R Y $end
$var wire 1 W C $end
$var wire 1 U B $end
$var wire 1 S A $end
$upscope $end
$scope module _103_ $end
$var wire 1 Q Y $end
$var wire 1 U B $end
$var wire 1 S A $end
$upscope $end
$scope module _104_ $end
$var wire 1 3" C $end
$var wire 1 P Y $end
$var wire 1 s B $end
$var wire 1 Q A $end
$upscope $end
$scope module _105_ $end
$var wire 1 4" A $end
$var wire 1 5" B $end
$var wire 1 6" C $end
$var wire 1 O Y $end
$upscope $end
$scope module _106_ $end
$var wire 1 7" A $end
$var wire 1 8" B $end
$var wire 1 N Y $end
$upscope $end
$scope module _107_ $end
$var wire 1 M Y $end
$var wire 1 V B $end
$var wire 1 N A $end
$upscope $end
$scope module _108_ $end
$var wire 1 9" A $end
$var wire 1 :" B $end
$var wire 1 ;" C $end
$var wire 1 L Y $end
$upscope $end
$scope module _109_ $end
$var wire 1 K Y $end
$var wire 1 k C $end
$var wire 1 M B $end
$var wire 1 L A $end
$upscope $end
$scope module _110_ $end
$var wire 1 J Y $end
$var wire 1 O B $end
$var wire 1 K A $end
$upscope $end
$scope module _111_ $end
$var wire 1 I Y $end
$var wire 1 J A $end
$upscope $end
$scope module _112_ $end
$var wire 1 H Y $end
$var wire 1 R C $end
$var wire 1 P B $end
$var wire 1 I A $end
$upscope $end
$scope module _113_ $end
$var wire 1 G Y $end
$var wire 1 u B $end
$var wire 1 H A $end
$upscope $end
$scope module _114_ $end
$var wire 1 <" Y $end
$var wire 1 G A $end
$upscope $end
$scope module _115_ $end
$var wire 1 =" B $end
$var wire 1 F Y $end
$var wire 1 w A $end
$upscope $end
$scope module _116_ $end
$var wire 1 E Y $end
$var wire 1 W B $end
$var wire 1 S A $end
$upscope $end
$scope module _117_ $end
$var wire 1 >" C $end
$var wire 1 D Y $end
$var wire 1 s B $end
$var wire 1 U A $end
$upscope $end
$scope module _118_ $end
$var wire 1 C Y $end
$var wire 1 m C $end
$var wire 1 s B $end
$var wire 1 L A $end
$upscope $end
$scope module _119_ $end
$var wire 1 ?" B $end
$var wire 1 B Y $end
$var wire 1 C A $end
$upscope $end
$scope module _120_ $end
$var wire 1 A Y $end
$var wire 1 B A $end
$upscope $end
$scope module _121_ $end
$var wire 1 @ Y $end
$var wire 1 E C $end
$var wire 1 D B $end
$var wire 1 A A $end
$upscope $end
$scope module _122_ $end
$var wire 1 @" C $end
$var wire 1 ? Y $end
$var wire 1 W B $end
$var wire 1 T A $end
$upscope $end
$scope module _123_ $end
$var wire 1 A" B $end
$var wire 1 > Y $end
$var wire 1 m C $end
$var wire 1 U A $end
$upscope $end
$scope module _124_ $end
$var wire 1 B" B $end
$var wire 1 C" C $end
$var wire 1 = Y $end
$var wire 1 L A $end
$upscope $end
$scope module _125_ $end
$var wire 1 D" C $end
$var wire 1 < Y $end
$var wire 1 > B $end
$var wire 1 = A $end
$upscope $end
$scope module _126_ $end
$var wire 1 ; Y $end
$var wire 1 ? B $end
$var wire 1 < A $end
$upscope $end
$scope module _127_ $end
$var wire 1 : Y $end
$var wire 1 u C $end
$var wire 1 @ B $end
$var wire 1 ; A $end
$upscope $end
$scope module _128_ $end
$var wire 1 E" Y $end
$var wire 1 F B $end
$var wire 1 : A $end
$upscope $end
$scope module _129_ $end
$var wire 1 2 C $end
$var wire 1 F" D $end
$var reg 1 G" Q $end
$upscope $end
$scope module _130_ $end
$var wire 1 2 C $end
$var wire 1 H" D $end
$var reg 1 I" Q $end
$upscope $end
$scope module _131_ $end
$var wire 1 2 C $end
$var wire 1 J" D $end
$var reg 1 K" Q $end
$upscope $end
$scope module _132_ $end
$var wire 1 2 C $end
$var wire 1 L" D $end
$var reg 1 M" Q $end
$upscope $end
$scope module _133_ $end
$var wire 1 2 C $end
$var wire 1 w D $end
$var reg 1 N" Q $end
$upscope $end
$scope module _134_ $end
$var wire 1 2 C $end
$var wire 1 v D $end
$var reg 1 O" Q $end
$upscope $end
$upscope $end
$scope module tb $end
$var wire 4 P" Q [3:0] $end
$var wire 1 2 clk $end
$var wire 4 Q" dut_Q [3:0] $end
$var wire 1 R" dut_load $end
$var wire 1 S" dut_rco $end
$var wire 1 ) load $end
$var wire 1 * rco $end
$var wire 1 T" sb_rco $end
$var wire 1 U" sb_load $end
$var wire 4 V" sb_Q [3:0] $end
$var reg 4 W" D [3:0] $end
$var reg 1 1 enable $end
$var reg 2 X" mode [1:0] $end
$var reg 1 + reset $end
$var integer 32 Y" log [31:0] $end
$scope module sb $end
$var wire 4 Z" D [3:0] $end
$var wire 1 2 clk $end
$var wire 1 1 enable $end
$var wire 2 [" mode [1:0] $end
$var wire 1 + reset $end
$var reg 4 \" Q [3:0] $end
$var reg 1 U" load $end
$var reg 1 T" rco $end
$upscope $end
$scope task checker $end
$var integer 32 ]" iteration [31:0] $end
$upscope $end
$scope task drv_init $end
$upscope $end
$scope task test00 $end
$var integer 32 ^" iteration [31:0] $end
$upscope $end
$scope task test01 $end
$var integer 32 _" iteration [31:0] $end
$upscope $end
$scope task test10 $end
$var integer 32 `" iteration [31:0] $end
$upscope $end
$scope task test11 $end
$var integer 32 a" iteration [31:0] $end
$upscope $end
$upscope $end
$upscope $end
$enddefinitions $end
#0
$dumpvars
bx a"
bx `"
bx _"
bx ^"
bx ]"
b0 \"
bx ["
bx Z"
b10 Y"
bx X"
bx W"
b0 V"
xU"
xT"
zS"
zR"
bz Q"
bz P"
xO"
xN"
xM"
xL"
xK"
xJ"
xI"
xH"
xG"
xF"
xE"
xD"
xC"
xB"
xA"
x@"
x?"
x>"
x="
x<"
x;"
x:"
x9"
x8"
x7"
x6"
x5"
x4"
x3"
x2"
x1"
x0"
x/"
x."
x-"
x,"
x+"
x*"
x)"
x("
x'"
x&"
x%"
x$"
x#"
x""
x!"
x~
x}
x|
x{
bx z
bx y
bx x
xw
xv
xu
xt
xs
xr
xq
xp
xo
xn
xm
xl
xk
xj
xi
xh
xg
xf
xe
xd
xc
xb
xa
x`
x_
x^
x]
x\
x[
xZ
xY
xX
xW
xV
xU
xT
xS
xR
xQ
xP
xO
xN
xM
xL
xK
xJ
xI
xH
xG
xF
xE
xD
xC
xB
xA
x@
x?
x>
x=
x<
x;
x:
bx 9
b0 8
bx 7
bx 6
bx 5
b0 4
bx 3
02
x1
x0
x/
bx .
x-
x,
x+
z*
z)
bz (
x'
z&
z%
x$
z#
x"
z!
$end
#150
z"
#200000
0T"
1U"
bx V"
bx \"
12
#400000
1+
02
#404000
0u
#405000
0w
0c
#408000
1:
1X
1_
#409000
1b
#411000
1G
1e
#412000
1F
1^
1a
#415000
0J"
bx0xx x
0<"
#418000
0v
#419000
0L"
0H"
0F"
0E"
00"
b0 x
0-"
#600000
0O"
0N"
0M"
0K"
0I"
0G"
b0 V"
b0 \"
0U"
12
#602600
0D"
0?"
0#"
0~
0@"
09"
02"
01"
0$"
0!"
0:"
07"
0'"
0{
0;"
08"
0/"
0)"
0&"
0""
0,
0/
b0 3
b0 y
#606600
1?
1L
1p
1V
1t
1j
#609600
1B
1S
1o
1i
1N
1]
#610600
0U
#611600
0=
#613600
0A
0n
0h
0T
#614600
1D
1R
#616600
0M
0\
#617600
1@
1g
1Q
#620600
1K
1[
#623600
1Y
#624600
0f
#800000
02
#1000000
12
#1200000
02
#1400000
12
#1600000
02
#1800000
12
#2000000
0+
02
#2004000
xw
xc
1u
#2008000
x:
xX
x_
#2011000
xF
x^
xa
xG
#2015000
xJ"
xL"
xH"
xF"
x<"
xE"
x0"
bx x
x-"
#2200000
xN"
xM"
xK"
xI"
xG"
1U"
bx V"
bx \"
12
#2202600
xD"
x?"
x#"
x~
x@"
x9"
x2"
x1"
x$"
x!"
x:"
x7"
x'"
x{
x;"
x8"
x/"
x)"
x&"
x""
x/
bx 3
bx y
#2206600
xL
xp
xV
xt
xj
#2209600
xB
xo
xi
xN
x]
#2210600
x=
xU
#2213600
xA
xn
xh
xf
xM
xT
#2214600
xD
xR
#2216600
x\
#2217600
x@
xb
xK
x?
xg
xQ
#2220600
x[
xe
xS
#2223600
xY
#2224600
xv
#2400000
b110010 ^"
b110010 ]"
02
#2600000
xO"
12
#2602600
x,
#2800000
0="
04"
0."
0*"
0C"
0B"
0A"
0>"
06"
05"
03"
0,"
0+"
0("
0%"
0}
0|
b0 5
b0 7
b0 z
b0 W"
b0 Z"
b0 .
b0 6
b0 9
b0 X"
b0 ["
11
02
#2804000
1D
1O
1P
1m
1s
#2807000
1F
1^
1a
1`
1d
1r
#2809000
0>
0w
#2811000
0W
0l
#2812000
0c
0q
#2815000
1?
1R
1k
#2816000
1b
1p
#2818000
1E
1Y
#3000000
0N"
0-
00
b1 4
b1 8
0U"
12
#3002600
0/
#3200000
02
#3400000
b10 4
b10 8
12
#3600000
02
#3800000
b11 4
b11 8
12
#4000000
02
#4200000
b100 4
b100 8
12
#4400000
02
#4600000
b101 4
b101 8
12
#4800000
02
#5000000
b110 4
b110 8
12
#5200000
02
#5400000
b111 4
b111 8
12
#5600000
02
#5800000
b1000 4
b1000 8
12
#6000000
02
#6200000
b1001 4
b1001 8
12
#6400000
02
#6600000
b1010 4
b1010 8
12
#6800000
02
#7000000
b1011 4
b1011 8
12
#7200000
02
#7400000
b1100 4
b1100 8
12
#7600000
02
#7800000
b1101 4
b1101 8
12
#8000000
02
#8200000
b1110 4
b1110 8
12
#8400000
02
#8600000
1-
b1111 4
b1111 8
12
#8800000
02
#9000000
0-
b0 4
b0 8
12
#9200000
02
#9400000
b1 4
b1 8
12
#9600000
02
#9800000
b10 4
b10 8
12
#10000000
02
#10200000
b11 4
b11 8
12
#10400000
02
#10600000
b100 4
b100 8
12
#10800000
02
#11000000
b101 4
b101 8
12
#11200000
02
#11400000
b110 4
b110 8
12
#11600000
02
#11800000
b111 4
b111 8
12
#12000000
02
#12200000
b1000 4
b1000 8
12
#12400000
02
#12600000
b1001 4
b1001 8
12
#12800000
02
#13000000
b1010 4
b1010 8
12
#13200000
02
#13400000
b1011 4
b1011 8
12
#13600000
02
#13800000
b1100 4
b1100 8
12
#14000000
02
#14200000
b1101 4
b1101 8
12
#14400000
02
#14600000
b1110 4
b1110 8
12
#14800000
02
#15000000
1-
b1111 4
b1111 8
12
#15200000
02
#15400000
0-
b0 4
b0 8
12
#15600000
02
#15800000
b1 4
b1 8
12
#16000000
02
#16200000
b10 4
b10 8
12
#16400000
02
#16600000
b11 4
b11 8
12
#16800000
02
#17000000
b100 4
b100 8
12
#17200000
02
#17400000
b101 4
b101 8
12
#17600000
02
#17800000
b110 4
b110 8
12
#18000000
02
#18200000
b111 4
b111 8
12
#18400000
02
#18600000
b1000 4
b1000 8
12
#18800000
02
#19000000
b1001 4
b1001 8
12
#19200000
02
#19400000
b1010 4
b1010 8
12
#19600000
02
#19800000
b1011 4
b1011 8
12
#20000000
02
#20200000
b1100 4
b1100 8
12
#20400000
02
#20600000
b1101 4
b1101 8
12
#20800000
02
#21000000
b1110 4
b1110 8
12
#21200000
02
#21400000
1-
b1111 4
b1111 8
12
#21600000
02
#21800000
0-
b0 4
b0 8
12
#22000000
02
#22200000
b1 4
b1 8
12
#22400000
02
#22600000
b10 4
b10 8
12
#22800000
1+
02
#22804000
0u
#22808000
1:
1X
1_
#22811000
1G
1e
#22815000
0J"
0L"
0H"
0F"
0<"
0E"
00"
b0 x
0-"
#22818000
0v
#23000000
0O"
0M"
0K"
0I"
0G"
b0 4
b0 8
b0 V"
b0 \"
12
#23002600
0D"
0?"
0#"
0~
0@"
09"
02"
01"
0$"
0!"
0:"
07"
0'"
0{
0;"
08"
0/"
0)"
0&"
0""
0,
b0 3
b0 y
#23006600
1L
1V
1t
1j
#23009600
1B
1S
1o
1i
1N
1]
#23010600
0C
0U
#23011600
0=
#23013600
0A
0n
0h
0T
#23015600
1<
#23016600
0M
0\
#23017600
1@
1g
1Q
#23020600
1K
1[
#23022600
0;
#23024600
0Z
0f
#23027600
0J
#23031600
1I
#23035600
0H
#23200000
02
#23400000
12
#23600000
02
#23800000
12
#24000000
02
#24200000
12
#24400000
0+
02
#24404000
1u
#24408000
0_
#24415000
1F"
b1 x
1-"
#24600000
1G"
b1 4
b1 8
b1 V"
b1 \"
12
#24602600
1;"
18"
1/"
1)"
1&"
1""
b1 3
b1 y
#24606600
0j
#24609600
0]
#24610600
1_
1U
#24613600
1T
#24616600
1\
#24617600
0F"
b0 x
0-"
0Q
#24620600
0[
#24624600
1Z
#24628600
0X
#24635600
1H"
b10 x
10"
#24800000
b110010 _"
02
#25000000
0G"
1I"
b10 V"
b10 \"
b10 4
b10 8
12
#25002600
0;"
08"
0/"
0)"
0&"
0""
1:"
17"
1'"
1{
b10 3
b10 y
#25006600
1j
0t
#25009600
1]
#25010600
0_
#25013600
0i
#25017600
1F"
1h
b11 x
1-"
#25200000
1C"
1>"
16"
13"
1,"
1%"
1}
b1 .
b1 6
b1 9
b1 X"
b1 ["
02
#25204000
0D
0m
#25207000
0r
#25208000
1C
#25211000
1q
1l
#25215000
0k
#25218000
0Y
#25222000
1X
#25229000
0H"
b1 x
00"
#25400000
0I"
1G"
b1 4
b1 8
b1 V"
b1 \"
12
#25402600
0:"
07"
0'"
0{
1;"
18"
1/"
1)"
1&"
1""
b1 3
b1 y
#25406600
1t
0j
#25409600
1i
#25410600
0p
1_
#25413600
0h
0]
#25417600
0F"
1f
b0 x
0-"
#25424600
0e
#25431600
1v
#25600000
02
#25800000
0G"
1O"
1T"
b0 V"
b0 \"
1-
b0 4
b0 8
12
#25802600
0;"
08"
0/"
0)"
0&"
0""
b0 3
b0 y
1,
#25806600
1p
1j
#25809600
1]
#25810600
0_
0U
#25813600
0f
0T
#25814600
1>
1D
#25816600
0\
#25817600
1F"
b1 x
1-"
1Q
#25819600
0<
#25820600
1[
1e
#25821600
0P
#25823600
1Y
#25825600
1H
#25826600
1;
#25827600
0X
0v
#25830600
0:
#25832600
0G
#25834600
1H"
b11 x
10"
#25836600
1J"
b111 x
1<"
#25837600
1L"
b1111 x
1E"
#26000000
02
#26200000
0O"
1M"
1K"
1I"
1G"
0-
b1111 4
b1111 8
0T"
b1111 V"
b1111 \"
12
#26202600
1D"
1?"
1#"
1~
1@"
19"
12"
11"
1$"
1!"
1:"
17"
1'"
1{
1;"
18"
1/"
1)"
1&"
1""
0,
b1111 3
b1111 y
#26206600
0L
0p
0V
0t
0j
#26207600
0q
#26209600
0B
0o
0N
#26210600
1p
1_
1U
#26213600
1A
1n
1M
1T
#26214600
0D
#26215600
0>
#26217600
0F"
b1110 x
0-"
0Q
#26220600
0S
#26221600
1P
#26225600
0H
#26227600
1Q
#26231600
0P
#26232600
1G
#26235600
1H
#26236600
0J"
b1010 x
0<"
#26242600
0G
#26246600
1J"
b1110 x
1<"
#26400000
02
#26600000
0G"
b1110 V"
b1110 \"
b1110 4
b1110 8
12
#26602600
0;"
08"
0/"
0)"
0&"
0""
b1110 3
b1110 y
#26606600
1L
1j
#26609600
1N
#26610600
0_
#26613600
0i
#26617600
1F"
1h
b1111 x
1-"
#26620600
1\
#26624600
0[
#26627600
0Y
#26631600
1X
#26638600
0H"
b1101 x
00"
#26800000
02
#27000000
0I"
1G"
b1101 4
b1101 8
b1101 V"
b1101 \"
12
#27002600
0:"
07"
0'"
0{
1;"
18"
1/"
1)"
1&"
1""
b1101 3
b1101 y
#27006600
1t
0j
#27009600
1i
#27010600
1_
#27013600
0h
0]
#27017600
0F"
b1100 x
0-"
#27200000
02
#27400000
0G"
b1100 V"
b1100 \"
b1100 4
b1100 8
12
#27402600
0;"
08"
0/"
0)"
0&"
0""
b1100 3
b1100 y
#27406600
1j
#27409600
1]
#27410600
0_
#27413600
0T
#27416600
0\
#27417600
1F"
b1101 x
1-"
#27420600
1[
1S
#27423600
1Y
#27427600
0X
0Q
#27431600
1P
#27434600
1H"
b1111 x
10"
#27435600
0H
#27442600
1G
#27446600
0J"
b1011 x
0<"
#27600000
02
#27800000
0K"
1I"
1G"
b1011 4
b1011 8
b1011 V"
b1011 \"
12
#27802600
0@"
09"
02"
01"
0$"
0!"
1:"
17"
1'"
1{
1;"
18"
1/"
1)"
1&"
1""
b1011 3
b1011 y
#27806600
1V
0t
0j
#27809600
1o
0N
#27810600
1_
#27813600
0n
1T
#27817600
0F"
b1010 x
0-"
#28000000
02
#28200000
0G"
b1010 V"
b1010 \"
b1010 4
b1010 8
12
#28202600
0;"
08"
0/"
0)"
0&"
0""
b1010 3
b1010 y
#28206600
1j
#28209600
1N
#28210600
0_
#28213600
0i
#28216600
0M
#28217600
1F"
1h
b1011 x
1-"
#28220600
1\
#28224600
0[
#28227600
0Y
#28231600
1X
#28238600
0H"
b1001 x
00"
#28400000
02
#28600000
0I"
1G"
b1001 4
b1001 8
b1001 V"
b1001 \"
12
#28602600
0:"
07"
0'"
0{
1;"
18"
1/"
1)"
1&"
1""
b1001 3
b1001 y
#28606600
1t
0j
#28609600
1i
#28610600
1_
#28613600
0h
0]
#28617600
0F"
b1000 x
0-"
#28800000
02
#29000000
0G"
b1000 V"
b1000 \"
b1000 4
b1000 8
12
#29002600
0;"
08"
0/"
0)"
0&"
0""
b1000 3
b1000 y
#29006600
1j
#29009600
1]
#29010600
0_
0U
#29013600
0T
#29014600
1>
1D
#29016600
0\
#29017600
1F"
b1001 x
1-"
1Q
#29018600
0@
#29020600
1[
#29021600
0P
#29022600
1:
#29023600
1Y
#29025600
1H
#29027600
0X
#29029600
0L"
b1 x
0E"
#29032600
0G
#29034600
1H"
b11 x
10"
#29036600
1J"
b111 x
1<"
#29200000
02
#29400000
0M"
1K"
1I"
1G"
b111 4
b111 8
b111 V"
b111 \"
12
#29402600
0D"
0?"
0#"
0~
1@"
19"
12"
11"
1$"
1!"
1:"
17"
1'"
1{
1;"
18"
1/"
1)"
1&"
1""
b111 3
b111 y
#29406600
0L
0V
0t
0j
#29409600
1B
0N
#29410600
1_
1U
#29413600
0A
1M
1T
#29414600
0D
#29415600
0>
#29417600
0F"
1@
b110 x
0-"
0Q
#29419600
1<
#29420600
0S
#29421600
0:
1P
#29425600
0H
#29426600
0;
#29427600
1Q
#29428600
1L"
b1110 x
1E"
#29430600
1:
#29431600
0P
#29432600
1G
#29435600
1H
#29436600
0J"
b1010 x
0<"
#29437600
0L"
b10 x
0E"
#29442600
0G
#29446600
1J"
b110 x
1<"
#29600000
02
#29800000
0G"
b110 V"
b110 \"
b110 4
b110 8
12
#29802600
0;"
08"
0/"
0)"
0&"
0""
b110 3
b110 y
#29806600
1L
1j
#29809600
1N
#29810600
0_
#29813600
0i
#29817600
1F"
1h
b111 x
1-"
#29820600
1\
#29824600
0[
#29827600
0Y
#29831600
1X
#29838600
0H"
b101 x
00"
#30000000
02
#30200000
0I"
1G"
b101 4
b101 8
b101 V"
b101 \"
12
#30202600
0:"
07"
0'"
0{
1;"
18"
1/"
1)"
1&"
1""
b101 3
b101 y
#30206600
1t
0j
#30209600
1i
#30210600
1_
#30213600
0h
0]
#30217600
0F"
b100 x
0-"
#30400000
02
#30600000
0G"
b100 V"
b100 \"
b100 4
b100 8
12
#30602600
0;"
08"
0/"
0)"
0&"
0""
b100 3
b100 y
#30606600
1j
#30609600
1]
#30610600
0_
#30613600
0T
#30616600
0\
#30617600
1F"
b101 x
1-"
#30620600
1[
1S
#30623600
1Y
#30627600
0X
0Q
#30631600
1P
#30634600
1H"
b111 x
10"
#30635600
0H
#30642600
1G
#30646600
0J"
b11 x
0<"
#30800000
02
#31000000
0K"
1I"
1G"
b11 4
b11 8
b11 V"
b11 \"
12
#31002600
0@"
09"
02"
01"
0$"
0!"
1:"
17"
1'"
1{
1;"
18"
1/"
1)"
1&"
1""
b11 3
b11 y
#31006600
1q
1V
0t
0j
#31009600
0N
#31010600
1_
#31013600
1T
#31017600
0F"
b10 x
0-"
#31200000
02
#31400000
0G"
b10 V"
b10 \"
b10 4
b10 8
12
#31402600
0;"
08"
0/"
0)"
0&"
0""
b10 3
b10 y
#31406600
1j
#31409600
1N
#31410600
0_
#31413600
0i
#31416600
0M
#31417600
1F"
1h
b11 x
1-"
#31420600
1\
#31424600
0[
#31427600
0Y
#31431600
1X
#31438600
0H"
b1 x
00"
#31600000
02
#31800000
0I"
1G"
b1 4
b1 8
b1 V"
b1 \"
12
#31802600
0:"
07"
0'"
0{
1;"
18"
1/"
1)"
1&"
1""
b1 3
b1 y
#31806600
1t
0j
#31809600
1i
#31810600
0p
1_
#31813600
0h
0]
#31817600
0F"
1f
b0 x
0-"
#31824600
0e
#31831600
1v
#32000000
02
#32200000
0G"
1O"
1T"
b0 V"
b0 \"
1-
b0 4
b0 8
12
#32202600
0;"
08"
0/"
0)"
0&"
0""
b0 3
b0 y
1,
#32206600
1p
1j
#32209600
1]
#32210600
0_
0U
#32213600
0f
0T
#32214600
1>
1D
#32216600
0\
#32217600
1F"
b1 x
1-"
1Q
#32219600
0<
#32220600
1[
1e
#32221600
0P
#32223600
1Y
#32225600
1H
#32226600
1;
#32227600
0X
0v
#32230600
0:
#32232600
0G
#32234600
1H"
b11 x
10"
#32236600
1J"
b111 x
1<"
#32237600
1L"
b1111 x
1E"
#32400000
02
#32600000
0O"
1M"
1K"
1I"
1G"
0-
b1111 4
b1111 8
0T"
b1111 V"
b1111 \"
12
#32602600
1D"
1?"
1#"
1~
1@"
19"
12"
11"
1$"
1!"
1:"
17"
1'"
1{
1;"
18"
1/"
1)"
1&"
1""
0,
b1111 3
b1111 y
#32606600
0L
0p
0V
0t
0j
#32607600
0q
#32609600
0B
0o
0N
#32610600
1p
1_
1U
#32613600
1A
1n
1M
1T
#32614600
0D
#32615600
0>
#32617600
0F"
b1110 x
0-"
0Q
#32620600
0S
#32621600
1P
#32625600
0H
#32627600
1Q
#32631600
0P
#32632600
1G
#32635600
1H
#32636600
0J"
b1010 x
0<"
#32642600
0G
#32646600
1J"
b1110 x
1<"
#32800000
02
#33000000
0G"
b1110 V"
b1110 \"
b1110 4
b1110 8
12
#33002600
0;"
08"
0/"
0)"
0&"
0""
b1110 3
b1110 y
