ContadorC/test.vcd
$date
	Thu Sep 17 19:03:34 2020
$end
$version
	Icarus Verilog
$end
$timescale
	1s
$end
$scope module tb_top $end
$var wire 4 ! Q_tb [3:0] $end
$var wire 1 " load_tb $end
$var wire 1 # rco_tb $end
$var wire 1 $ reset $end
$var wire 1 % rco $end
$var wire 2 & mode [1:0] $end
$var wire 1 ' load $end
$var wire 1 ( enable $end
$var wire 1 ) clock $end
$var wire 4 * Q [3:0] $end
$var wire 4 + D [3:0] $end
$scope module clk1 $end
$var reg 1 ) clock $end
$upscope $end
$scope module dut $end
$var wire 1 , _005_ $end
$var wire 1 - _006_ $end
$var wire 1 . _017_ $end
$var wire 1 / _018_ $end
$var wire 1 0 _021_ $end
$var wire 1 1 _022_ $end
$var wire 1 2 _023_ $end
$var wire 1 3 _024_ $end
$var wire 1 4 _025_ $end
$var wire 1 5 _026_ $end
$var wire 1 6 _027_ $end
$var wire 1 7 _028_ $end
$var wire 1 8 _029_ $end
$var wire 1 9 _030_ $end
$var wire 1 : _031_ $end
$var wire 1 ; _032_ $end
$var wire 1 < _033_ $end
$var wire 1 = _034_ $end
$var wire 1 > _036_ $end
$var wire 1 ? _038_ $end
$var wire 1 @ _039_ $end
$var wire 1 A _040_ $end
$var wire 1 B _041_ $end
$var wire 1 C _052_ $end
$var wire 1 D _053_ $end
$var wire 1 E _055_ $end
$var wire 1 F _056_ $end
$var wire 1 ) clk $end
$var wire 1 $ reset $end
$var wire 2 G mode [1:0] $end
$var wire 1 ( enable $end
$var wire 32 H _054_ [31:0] $end
$var wire 32 I _051_ [31:0] $end
$var wire 32 J _050_ [31:0] $end
$var wire 32 K _049_ [31:0] $end
$var wire 4 L _048_ [3:0] $end
$var wire 4 M _047_ [3:0] $end
$var wire 4 N _046_ [3:0] $end
$var wire 16 O _045_ [15:0] $end
$var wire 1 P _044_ $end
$var wire 1 Q _043_ $end
$var wire 1 R _042_ $end
$var wire 1 S _037_ $end
$var wire 4 T _035_ [3:0] $end
$var wire 2 U _020_ [1:0] $end
$var wire 4 V _019_ [3:0] $end
$var wire 2 W _016_ [1:0] $end
$var wire 2 X _015_ [1:0] $end
$var wire 2 Y _014_ [1:0] $end
$var wire 2 Z _013_ [1:0] $end
$var wire 2 [ _012_ [1:0] $end
$var wire 2 \ _011_ [1:0] $end
$var wire 2 ] _010_ [1:0] $end
$var wire 2 ^ _009_ [1:0] $end
$var wire 2 _ _008_ [1:0] $end
$var wire 2 ` _007_ [1:0] $end
$var wire 32 a _004_ [31:0] $end
$var wire 32 b _003_ [31:0] $end
$var wire 1 c _002_ $end
$var wire 1 d _001_ $end
$var wire 4 e _000_ [3:0] $end
$var wire 4 f D [3:0] $end
$var reg 4 g Q [3:0] $end
$var reg 1 ' load $end
$var reg 1 % rco $end
$upscope $end
$scope module tb $end
$var wire 4 h Q [3:0] $end
$var wire 1 ) clk $end
$var wire 4 i dut_Q [3:0] $end
$var wire 1 j dut_load $end
$var wire 1 k dut_rco $end
$var wire 1 " load $end
$var wire 1 # rco $end
$var wire 1 l sb_rco $end
$var wire 1 m sb_load $end
$var wire 4 n sb_Q [3:0] $end
$var reg 4 o D [3:0] $end
$var reg 1 ( enable $end
$var reg 2 p mode [1:0] $end
$var reg 1 $ reset $end
$var integer 32 q log [31:0] $end
$scope module sb $end
$var wire 4 r D [3:0] $end
$var wire 1 s _005_ $end
$var wire 1 t _012_ $end
$var wire 1 u _013_ $end
$var wire 1 v _019_ $end
$var wire 1 w _020_ $end
$var wire 1 x _023_ $end
$var wire 1 y _024_ $end
$var wire 1 z _025_ $end
$var wire 1 { _026_ $end
$var wire 1 | _027_ $end
$var wire 1 } _028_ $end
$var wire 1 ~ _029_ $end
$var wire 1 !" _030_ $end
$var wire 1 "" _031_ $end
$var wire 1 #" _032_ $end
$var wire 1 $" _033_ $end
$var wire 1 %" _034_ $end
$var wire 1 &" _035_ $end
$var wire 1 '" _036_ $end
$var wire 1 (" _037_ $end
$var wire 1 )" _038_ $end
$var wire 1 *" _039_ $end
$var wire 1 +" _040_ $end
$var wire 1 ," _042_ $end
$var wire 1 -" _044_ $end
$var wire 1 ." _045_ $end
$var wire 1 /" _048_ $end
$var wire 1 0" _051_ $end
$var wire 1 1" _062_ $end
$var wire 1 2" _063_ $end
$var wire 1 3" _065_ $end
$var wire 1 4" _066_ $end
$var wire 1 ) clk $end
$var wire 1 ( enable $end
$var wire 2 5" mode [1:0] $end
$var wire 1 $ reset $end
$var wire 32 6" _064_ [31:0] $end
$var wire 32 7" _061_ [31:0] $end
$var wire 32 8" _060_ [31:0] $end
$var wire 32 9" _059_ [31:0] $end
$var wire 4 :" _058_ [3:0] $end
$var wire 4 ;" _057_ [3:0] $end
$var wire 4 <" _056_ [3:0] $end
$var wire 16 =" _055_ [15:0] $end
$var wire 1 >" _054_ $end
$var wire 1 ?" _053_ $end
$var wire 1 @" _052_ $end
$var wire 3 A" _050_ [2:0] $end
$var wire 1 B" _049_ $end
$var wire 1 C" _047_ $end
$var wire 1 D" _046_ $end
$var wire 1 E" _043_ $end
$var wire 4 F" _041_ [3:0] $end
$var wire 2 G" _022_ [1:0] $end
$var wire 4 H" _021_ [3:0] $end
$var wire 2 I" _018_ [1:0] $end
$var wire 2 J" _017_ [1:0] $end
$var wire 2 K" _016_ [1:0] $end
$var wire 2 L" _015_ [1:0] $end
$var wire 2 M" _014_ [1:0] $end
$var wire 2 N" _011_ [1:0] $end
$var wire 2 O" _010_ [1:0] $end
$var wire 2 P" _009_ [1:0] $end
$var wire 2 Q" _008_ [1:0] $end
$var wire 2 R" _007_ [1:0] $end
$var wire 2 S" _006_ [1:0] $end
$var wire 32 T" _004_ [31:0] $end
$var wire 32 U" _003_ [31:0] $end
$var wire 1 V" _002_ $end
$var wire 1 W" _001_ $end
$var wire 4 X" _000_ [3:0] $end
$var reg 4 Y" Q [3:0] $end
$var reg 1 m load $end
$var reg 1 l rco $end
$upscope $end
$scope task checker $end
$var integer 32 Z" iteration [31:0] $end
$upscope $end
$scope task drv_init $end
$upscope $end
$scope task test_high_impedance $end
$var integer 32 [" iteration [31:0] $end
$upscope $end
$scope task test_modo00_static $end
$var integer 32 \" iteration [31:0] $end
$upscope $end
$scope task test_modo01_static $end
$var integer 32 ]" iteration [31:0] $end
$upscope $end
$scope task test_modo10_static $end
$var integer 32 ^" iteration [31:0] $end
$upscope $end
$scope task test_modo11_random $end
$var integer 32 _" iteration [31:0] $end
$upscope $end
$scope task test_reset $end
$var integer 32 `" iteration [31:0] $end
$upscope $end
$upscope $end
$upscope $end
$enddefinitions $end
#0
$dumpvars
bx `"
bx _"
bx ^"
bx ]"
bx \"
bx ["
bx Z"
bx Y"
bx X"
xW"
xV"
bzxxxx U"
bzxxxz T"
bx S"
bzx R"
bxz Q"
bzx P"
bx O"
bx N"
bx M"
bx L"
bx K"
bx J"
bx I"
bxz H"
bx G"
bxzz F"
xE"
xD"
xC"
xB"
bxzz A"
x@"
x?"
x>"
bx ="
bx <"
bx ;"
bx :"
bzxxxx 9"
bzxxz 8"
bzxxz 7"
bzxxx 6"
bx 5"
x4"
x3"
x2"
x1"
x0"
x/"
x."
x-"
x,"
x+"
x*"
x)"
x("
x'"
x&"
x%"
x$"
x#"
x""
x!"
x~
x}
x|
x{
xz
xy
xx
xw
xv
xu
xt
xs
bx r
b10 q
bx p
bx o
bx n
xm
xl
zk
zj
bz i
bz h
bx g
bx f
bx e
xd
xc
bzxxxx b
bzxxxz a
bx `
bzx _
bzx ^
bx ]
bzx \
bx [
bx Z
bx Y
bx X
bx W
bxz V
bx U
bxzz T
xS
xR
xQ
xP
bx O
bx N
bx M
bx L
bzxxzz K
bzxxz J
bzxxz I
bzxzz H
bx G
xF
xE
xD
xC
xB
xA
x@
x?
x>
x=
x<
x;
x:
x9
x8
x7
x6
x5
x4
x3
x2
x1
x0
x/
x.
x-
x,
bx +
bx *
0)
x(
x'
bx &
x%
x$
z#
z"
bz !
$end
#5
1)
#10
zB"
z>"
bz :"
1R
0P
b1111 L
0)"
0;
0#"
0V"
0W"
b0 X"
b0 e
0d
1c
06
1$
0)
#15
b0xzz F"
b0xzz T
0C"
0<
0*"
b0zz A"
0=
bx0 ]
0+"
bx0 O"
0D"
0?"
08
07
09
0$"
0""
0'"
0&"
0%"
10
12
11
1x
1|
1{
1z
1y
bz0zz H
1:
1("
bz11zz K
0F
b11 `
0.
bz1 ^
bz1 _
b0xxxxxx000xxxxx O
b1z Q"
04"
bz001z T"
b11 S"
0v
bz1110 9"
bz1 P"
bz1 R"
b0xxxxx0000xxxxx ="
bz00z J
b111z V
b0 W
0E
bz00z I
bz0011 b
bz000z a
bz00z 7"
bz001 6"
b111z H"
b0 I"
03"
bz00z 8"
bz0001 U"
1%
0'
b0 *
b0 g
0l
0m
b0 n
b0 Y"
1)
#20
xc
xd
xB"
x>"
bx :"
xR
xP
bx L
x)"
x;
1#"
xV"
xW"
bx X"
bx e
16
0$
0)
#25
bxzz F"
bxzz A"
xC"
bxzz T
xD"
x?"
bx O"
x*"
x+"
bx ]
x<
x=
x'"
x&"
x""
x%"
x$"
x7
x9
x8
x{
xz
x|
xy
xx
x2
x1
x0
x("
x:
bzx R"
bzx P"
x4"
bxz Q"
xv
bx S"
bx ="
bzx _
bzx ^
xF
x.
bzxxzz K
bx `
bx O
x3"
bzxxz 7"
bzxxz 8"
bzxxxx 9"
bzxxx 6"
bx I"
bxz H"
bzxxxz T"
bzxxxx U"
xE
bzxxz J
bzxxz I
bzxzz H
bx W
bzxxxx b
bxz V
bzxxxz a
bx n
bx Y"
xm
xl
bx *
bx g
x'
x%
1)
#30
b11110 _"
b11110 Z"
0)
#35
1)
#40
b0 X"
b0 e
b0 :"
0V"
b0 L
0c
b0 ;"
0B"
0R
0E"
1W"
b0 M
0S
0,"
b0 <"
11"
1>"
1d
1C
0>
b0 N
1@"
1P
12"
b0 J"
b0 K"
b0 M"
b0 L"
10"
1Q
bz1 \
1D
b0 X
b0 Y
b0 [
b0 Z
1u
1t
1?
0,
b0 O"
0s
b0zz F"
b0zz A"
b1 N"
0}
03
b0zz T
0-
b0 ]
0-"
0."
0/"
0B
0A
0@
1~
1!"
1w
b0 G"
b0 U
1/
15
14
b0 ="
b0 O
1)"
1;
b11 &
b11 G
b11 p
b11 5"
1(
b0 +
b0 f
b0 o
b0 r
0)
#45
0C"
0D"
0?"
0*"
0+"
0<
0=
0'"
0&"
0""
0%"
0$"
07
09
08
1{
1z
1|
1y
1x
bz0zz H
12
11
10
1("
bz11zz K
0F
1:
bz1 R"
bz1 P"
bz001z T"
bz1110 9"
04"
b1z Q"
0v
b11 S"
bz1 _
bz1 ^
0.
b11 `
03"
bz001 6"
bz0001 U"
bz00z 7"
bz00z 8"
b0 I"
b111z H"
0E
bz0011 b
bz000z a
bz00z J
bz00z I
b0 W
b111z V
b0 n
b0 Y"
1m
0l
b0 *
b0 g
1'
0%
1)
#50
b1 X"
b1 e
b1 :"
b1 L
b1 ;"
b1 M
b1 <"
b1 N
b1 J"
b1 X
b1 ="
b1 O
b1 +
b1 f
b1 o
b1 r
0)
#55
bz1zz H
0:
bz00zz K
1F
0("
1.
bz0 _
1v
bz1111 9"
bz0 R"
bz01z J
bz01z 7"
b1 W
1E
bz0100 b
bz001z a
b1 I"
13"
bz010z T"
bz0010 U"
b1 *
b1 g
b1 n
b1 Y"
1)
#60
0)
#65
1)
#70
b11 X"
b11 e
b11 :"
b11 L
b11 ;"
b11 M
b11 <"
b11 N
b1 K"
b1 Y
b11 ="
b11 O
b11 +
b11 f
b11 o
b11 r
0)
#75
bz0110 b
0E
bz0 ^
14"
bz011z T"
03"
bz0 P"
bz1 _
bz01z I
b110z V
bz010z a
bz1 R"
bz111 6"
bz01z 8"
b110z H"
bz0001 9"
bz0100 U"
b11 *
b11 g
b11 n
b11 Y"
1)
#80
b1 X"
b1 e
b1 :"
b1 L
b1 ;"
b1 M
b1 <"
b1 N
b0 K"
b0 Y
b1 ="
b1 O
b1 +
b1 f
b1 o
b1 r
0)
#85
bz1zz H
04"
bz010z T"
13"
bz1 P"
bz00zz K
1F
bz0100 b
1E
bz1 ^
bz0 R"
bz01z 7"
bz001 6"
bz00z 8"
b111z H"
bz1111 9"
bz0010 U"
bz0 _
bz01z J
bz00z I
b111z V
bz001z a
b1 n
b1 Y"
b1 *
b1 g
1)
#90
0)
#95
1)
#100
0)
#105
1)
#110
b10 X"
b10 e
b10 :"
b10 L
b10 ;"
b10 M
b10 <"
b10 N
b0 J"
b1 K"
b1 Y
b0 X
b10 ="
b10 O
b10 +
b10 f
b10 o
b10 r
0)
#115
b10 `
14"
b10 S"
bz1 _
b110z V
0E
bz0101 b
bz1 R"
b110z H"
bz0000 9"
03"
bz111 6"
bz010z T"
bz0011 U"
b10 *
b10 g
b10 n
b10 Y"
1)
#120
b1 X"
b1 e
b1 :"
b1 L
b1 ;"
b1 M
b1 <"
b1 N
b1 J"
b0 K"
b0 Y
b1 X
b1 ="
b1 O
b1 +
b1 f
b1 o
b1 r
0)
#125
bz1zz H
bz0 R"
04"
13"
bz0 _
bz00zz K
1F
1E
b11 S"
bz010z T"
bz0010 U"
bz01z 7"
bz001 6"
b111z H"
bz1111 9"
b11 `
bz0100 b
bz01z J
b111z V
b1 n
b1 Y"
b1 *
b1 g
1)
#130
0)
#135
1)
#140
b10 X"
b10 e
b10 :"
b10 L
b10 ;"
b10 M
b10 <"
b10 N
b0 J"
b1 K"
b1 Y
b0 X
b10 ="
b10 O
b10 +
b10 f
b10 o
b10 r
0)
#145
14"
b10 S"
b10 `
03"
bz010z T"
bz0011 U"
bz1 R"
bz111 6"
b110z H"
bz0000 9"
0E
bz0101 b
bz1 _
b110z V
b10 n
b10 Y"
b10 *
b10 g
1)
#150
b1 X"
b1 e
b1 :"
b1 L
b1 ;"
b1 M
b1 <"
b1 N
b1 J"
b0 K"
b0 Y
b1 X
b1 ="
b1 O
b1 +
b1 f
b1 o
b1 r
0)
#155
bz1zz H
bz00zz K
1F
1E
bz0 _
04"
13"
bz0 R"
bz01z J
b111z V
b11 `
bz0100 b
bz01z 7"
bz001 6"
b111z H"
bz1111 9"
b11 S"
bz010z T"
bz0010 U"
b1 *
b1 g
b1 n
b1 Y"
1)
#160
0)
#165
1)
#170
b0 X"
b0 e
b0 :"
b0 L
b0 ;"
b0 M
b0 <"
b0 N
b0 J"
b0 X
b0 ="
b0 O
b0 +
b0 f
b0 o
b0 r
0)
#175
bz0zz H
1:
bz11zz K
0F
1("
0.
bz1 _
0v
bz1110 9"
bz1 R"
bz00z J
bz00z 7"
b0 W
0E
bz0011 b
bz000z a
b0 I"
03"
bz001 6"
bz001z T"
bz0001 U"
b0 *
b0 g
b0 n
b0 Y"
1)
#180
b1 X"
b1 e
b1 :"
b1 L
b1 ;"
b1 M
b1 <"
b1 N
b1 J"
b1 X
b1 ="
b1 O
b1 +
b1 f
b1 o
b1 r
0)
#185
bz1zz H
0("
0:
bz00zz K
1F
1v
bz1111 9"
bz0 R"
1.
bz0 _
bz01z 7"
bz01z J
b1 I"
13"
bz010z T"
bz0010 U"
b1 W
1E
bz0100 b
bz001z a
b1 n
b1 Y"
b1 *
b1 g
1)
#190
b10 X"
b10 e
b10 :"
b10 L
b10 ;"
b10 M
b10 <"
b10 N
b0 J"
b1 K"
b1 Y
b0 X
b10 ="
b10 O
b10 +
b10 f
b10 o
b10 r
0)
#195
b10 `
14"
b10 S"
bz1 _
b110z V
0E
bz0101 b
bz1 R"
b110z H"
bz0000 9"
03"
bz111 6"
bz010z T"
bz0011 U"
b10 *
b10 g
b10 n
b10 Y"
1)
#200
b1 X"
b1 e
b1 :"
b1 L
b1 ;"
b1 M
b1 <"
b1 N
b1 J"
b0 K"
b0 Y
b1 X
b1 ="
b1 O
b1 +
b1 f
b1 o
b1 r
0)
#205
bz1zz H
bz0 R"
04"
13"
bz0 _
bz00zz K
1F
1E
b11 S"
bz010z T"
bz0010 U"
bz01z 7"
bz001 6"
b111z H"
bz1111 9"
b11 `
bz0100 b
bz01z J
b111z V
b1 n
b1 Y"
b1 *
b1 g
1)
#210
b10 X"
b10 e
b10 :"
b10 L
b10 ;"
b10 M
b10 <"
b10 N
b0 J"
b1 K"
b1 Y
b0 X
b10 ="
b10 O
b10 +
b10 f
b10 o
b10 r
0)
#215
b10 `
14"
b10 S"
bz1 _
b110z V
0E
bz0101 b
bz1 R"
b110z H"
bz0000 9"
03"
bz111 6"
bz010z T"
bz0011 U"
b10 *
b10 g
b10 n
b10 Y"
1)
#220
b1 X"
b1 e
b1 :"
b1 L
b1 ;"
b1 M
b1 <"
b1 N
b1 J"
b0 K"
b0 Y
b1 X
b1 ="
b1 O
b1 +
b1 f
b1 o
b1 r
0)
#225
bz1zz H
bz0 R"
04"
13"
bz0 _
bz00zz K
1F
1E
b11 S"
bz010z T"
bz0010 U"
bz01z 7"
bz001 6"
b111z H"
bz1111 9"
b11 `
bz0100 b
bz01z J
b111z V
b1 n
b1 Y"
b1 *
b1 g
1)
#230
b11 X"
b11 e
b11 :"
b11 L
b11 ;"
b11 M
b11 <"
b11 N
b1 K"
b1 Y
b11 ="
b11 O
b11 +
b11 f
b11 o
b11 r
0)
#235
bz0110 b
0E
bz0 ^
14"
bz011z T"
03"
bz0 P"
bz1 _
bz01z I
b110z V
bz010z a
bz1 R"
bz111 6"
bz01z 8"
b110z H"
bz0001 9"
bz0100 U"
b11 *
b11 g
b11 n
b11 Y"
1)
#240
b10 X"
b10 e
b10 :"
b10 L
b10 ;"
b10 M
b10 <"
b10 N
b0 J"
b0 X
b10 ="
b10 O
b10 +
b10 f
b10 o
b10 r
0)
#245
14"
bz0000 9"
bz1 P"
bz1 ^
b10 S"
bz111 6"
bz00z 8"
bz010z T"
bz0011 U"
b10 `
bz00z I
bz0101 b
bz001z a
b10 n
b10 Y"
b10 *
b10 g
1)
#250
b11 X"
b11 e
b11 :"
b11 L
b11 ;"
b11 M
b11 <"
b11 N
b1 J"
b1 X
b11 ="
b11 O
b11 +
b11 f
b11 o
b11 r
0)
#255
bz0 ^
bz0001 9"
bz0 P"
b11 `
bz01z I
bz0110 b
bz010z a
b11 S"
bz01z 8"
bz011z T"
bz0100 U"
b11 *
b11 g
b11 n
b11 Y"
1)
#260
b10 X"
b10 e
b10 :"
b10 L
b10 ;"
b10 M
b10 <"
b10 N
b0 J"
b0 X
b10 ="
b10 O
b10 +
b10 f
b10 o
b10 r
0)
#265
14"
bz0000 9"
bz1 P"
bz1 ^
b10 S"
bz111 6"
bz00z 8"
bz010z T"
bz0011 U"
b10 `
bz00z I
bz0101 b
bz001z a
b10 n
b10 Y"
b10 *
b10 g
1)
#270
0)
#275
1)
#280
b0 X"
b0 e
b0 :"
b0 L
b0 ;"
b0 M
b0 <"
b0 N
b0 K"
b0 Y
b0 ="
b0 O
b0 +
b0 f
b0 o
b0 r
0)
#285
1("
1:
bz0zz H
0v
04"
bz001z T"
b11 S"
0.
bz11zz K
0F
bz0011 b
b11 `
b0 I"
bz00z 7"
bz001 6"
b111z H"
bz1110 9"
bz0001 U"
b0 W
bz00z J
b111z V
bz000z a
b0 n
b0 Y"
b0 *
b0 g
1)
#290
b1 X"
b1 e
b1 :"
b1 L
b1 ;"
b1 M
b1 <"
b1 N
b1 J"
b1 X
b1 ="
b1 O
b1 +
b1 f
b1 o
b1 r
0)
#295
bz1zz H
0:
bz00zz K
1F
0("
1.
bz0 _
1v
bz1111 9"
bz0 R"
bz01z J
bz01z 7"
b1 W
1E
bz0100 b
bz001z a
b1 I"
13"
bz010z T"
bz0010 U"
b1 *
b1 g
b1 n
b1 Y"
1)
#300
b0 X"
b0 e
b0 :"
b0 L
b0 ;"
b0 M
b0 <"
b0 N
b0 J"
b0 X
b0 ="
b0 O
b0 +
b0 f
b0 o
b0 r
0)
#305
bz0zz H
1("
1:
bz11zz K
0F
0v
bz1110 9"
bz1 R"
0.
bz1 _
bz00z 7"
bz00z J
b0 I"
03"
bz001 6"
bz001z T"
bz0001 U"
b0 W
0E
bz0011 b
bz000z a
b0 n
b0 Y"
b0 *
b0 g
1)
#310
b1 X"
b1 e
b1 :"
b1 L
b1 ;"
b1 M
b1 <"
b1 N
b1 J"
b1 X
b1 ="
b1 O
b1 +
b1 f
b1 o
b1 r
0)
#315
bz1zz H
0:
bz00zz K
1F
0("
1.
bz0 _
1v
bz1111 9"
bz0 R"
bz01z J
bz01z 7"
b1 W
1E
bz0100 b
bz001z a
b1 I"
13"
bz010z T"
bz0010 U"
b1 *
b1 g
b1 n
b1 Y"
1)
#320
0)
#325
1)
#330
0)
#335
1)
#340
zB"
z>"
bz :"
1R
0P
b1111 L
0)"
0;
0#"
0W"
b0 X"
b0 e
0d
1c
06
1$
0)
#345
bz0zz H
1("
1:
bz11zz K
0F
0v
bz1110 9"
bz1 R"
0.
bz1 _
bz00z 7"
bz00z J
b0 I"
03"
bz001 6"
bz001z T"
bz0001 U"
b0 W
0E
bz0011 b
bz000z a
b0 n
b0 Y"
0m
b0 *
b0 g
0'
1%
1)
#350
0c
1d
0B"
1>"
b1 :"
0R
1P
b1 L
1)"
1;
1#"
0V"
1W"
b1 X"
b1 e
16
0$
0)
#355
bz1zz H
0:
bz00zz K
1F
0("
1.
bz0 _
1v
bz1111 9"
bz0 R"
bz01z J
bz01z 7"
b1 W
1E
bz0100 b
bz001z a
b1 I"
13"
bz010z T"
bz0010 U"
0%
1'
b1 *
b1 g
1m
b1 n
b1 Y"
1)
#360
b11110 \"
0)
#365
1)
#370
b100 X"
b100 e
b100 :"
b100 L
b100 ;"
b100 M
0W"
b100 <"
0>"
b0 X
0d
b100 N
0u
0@"
0P
b0 J"
b0 K"
b0 L"
b10 M"
00"
0Q
bz0 \
b10 [
b0 Y
0t
0?
0s
b100000000000000 ="
b10 N"
1}
13
1-
b100000000000000 O
1,
0-"
0."
1/"
1B
0A
0@
1~
1!"
0w
b11 G"
b11 U
0/
15
14
b0 &
b0 G
b0 p
b0 5"
0)
#375
b111 e
b111 X"
b111 L
b111 :"
b111 M
b111 ;"
b0 Z
b111 N
b0 L"
b111 <"
b10 [
b10 X
b10 Y
b10 M"
b10 K"
b10 J"
0F
bz1 _
b111000000000000 O
b0z Q"
bz0010 9"
b111000000000000 ="
bz1 R"
bz00z J
b101z V
b10 W
0E
bz0111 b
bz010z a
bz00z 7"
b101z H"
b10 I"
03"
bz101 6"
bz011z T"
bz0101 U"
0'
b100 *
b100 g
0m
b100 n
b100 Y"
1)
#380
0)
#385
1V"
1B"
1E"
b1010 X"
1,"
b1010 e
b1010 :"
b10 O"
b1010 L
b1010 ;"
b10 L"
b10zz F"
b1010 M
b10 Z
1C"
b1010 <"
b0 M"
1D"
b1010 N
b0 [
1'"
b10 K"
b0 J"
0{
b0 X
b10 Y
b1010000000000000 ="
bz0 P"
b1010000000000000 O
bz01zz K
bz100z a
bz0 ^
03"
bz101z T"
bz1000 U"
b11 I"
bz11z 7"
bz111 6"
bz11z 8"
b100z H"
bz0101 9"
0E
bz1010 b
b11 W
bz11z J
bz11z I
b100z V
b111 n
b111 Y"
b111 *
b111 g
1)
#390
0)
#395
0V"
b1101 e
0B"
b1101 X"
0E"
b1101 L
0,"
b1101 :"
b1101 M
b0 O"
b1101 ;"
b1101 N
b0zz F"
b1101 <"
0C"
b10 Z
b10 [
b10 X
b0 Y
0D"
b10 L"
b10 M"
b0 K"
b10 J"
0'"
bz10zz K
1F
bz1 ^
b1101000000000000 O
1{
14"
bz1000 9"
b1101000000000000 ="
bz1 P"
bz01z J
bz1zz H
b10z V
b10 `
bz00z I
bz1101 b
bz101z a
b1z Q"
bz01z 7"
b10z H"
b10 S"
bz111 6"
bz00z 8"
bz110z T"
bz1011 U"
b1010 *
b1010 g
1l
b1010 n
b1010 Y"
1)
#400
0)
#405
1V"
1B"
1c
1E"
1R
b0 X"
1,"
b0 e
1S
1>
b0 :"
b10 O"
b0 L
b10 ]
b0 ;"
b10zz F"
b0 M
1C"
b10zz T
b0 L"
b0 <"
1*"
b0 Z
b0 N
1<
1%"
bz11zz K
19
b0 K"
b0 J"
b0 M"
0y
b0 X
b0 Y
b0 [
01
bz0 R"
13"
b0 ="
04"
bz0 _
1E
b0 O
0F
b1 S"
bz101 6"
bz1011 9"
bz11z 7"
bz000z T"
b1z H"
bz1110 U"
b1 `
bz11z J
bz0000 b
b1z V
bz111z a
b1101 n
b1101 Y"
0l
b1101 *
b1101 g
1)
#410
0)
#415
0V"
0c
0B"
0R
0E"
0S
b11 e
b11 X"
0,"
0>
b11 L
b11 :"
b0 O"
b0 ]
b11 M
b11 ;"
b0zz F"
b0zz T
0C"
0<
b11 N
b11 <"
0*"
09
0%"
b0 Z
b0 [
b10 X
11
b10 Y
b0 L"
b0 M"
b10 K"
b10 J"
1y
1:
0&"
1("
b11 `
0.
bz1 _
b11000000000000 O
1z
b11 S"
0v
bz1110 9"
b11000000000000 ="
bz1 R"
bz00z J
bz0zz H
b111z V
b0 W
0E
bz0011 b
bz000z a
b1z Q"
bz00z 7"
b111z H"
b0 I"
03"
bz001 6"
bz001z T"
bz0001 U"
1%
b0 *
b0 g
1l
b0 n
b0 Y"
1)
#420
0)
#425
b110 X"
b110 e
b110 :"
b110 L
b110 ;"
b110 M
b110 <"
b10 M"
b110 N
b10 [
b10 K"
b0 J"
b0 X
b10 Y
0("
0:
bz1zz H
b110000000000000 ="
1v
14"
bz0 P"
b110000000000000 O
1.
bz00zz K
1F
bz010z a
bz0 ^
03"
bz011z T"
bz0100 U"
b1 I"
bz01z 7"
bz111 6"
bz01z 8"
b110z H"
bz0001 9"
0E
bz0110 b
b1 W
bz01z J
bz01z I
b110z V
b11 n
b11 Y"
0l
b11 *
b11 g
0%
1)
#430
0)
#435
b1001 e
b1001 X"
b1001 L
b1001 :"
b1001 M
b1001 ;"
b10 Z
b1001 N
b10 L"
b1001 <"
b0 [
b10 X
b0 Y
b0 M"
b0 K"
b10 J"
bz01zz K
0F
bz1 ^
b1001000000000000 O
04"
b0z Q"
bz0100 9"
b1001000000000000 ="
bz1 P"
b11 W
bz11z J
b100z V
b10 `
bz00z I
bz1001 b
bz011z a
b11 I"
bz11z 7"
b100z H"
b10 S"
bz111 6"
bz00z 8"
bz100z T"
bz0111 U"
b110 *
b110 g
b110 n
b110 Y"
1)
#440
0)
#445
b1100 X"
b1100 e
b1100 :"
b1100 L
b1100 ;"
b1100 M
b1100 <"
b1100 N
bz10zz K
1F
b0 K"
b0 J"
b10 M"
b10 L"
b0 X
b0 Y
b10 [
b10 Z
bz0 R"
13"
b1100000000000000 ="
bz0 _
1E
b1100000000000000 O
b11 S"
bz0111 9"
bz01z 7"
bz001 6"
b1z Q"
b11z H"
bz110z T"
bz1010 U"
b11 `
bz01z J
bz1zz H
bz1100 b
b11z V
bz101z a
b1001 n
b1001 Y"
b1001 *
b1001 g
1)
#450
0)
#455
b1111 e
b1111 X"
b1111 L
b1111 :"
b1111 M
b1111 ;"
b10 Z
b1111 N
b10 L"
b1111 <"
b10 [
b10 X
b10 Y
b10 M"
b10 K"
b10 J"
0F
b1 `
bz1 _
b1111000000000000 O
b1 S"
bz1010 9"
b1111000000000000 ="
bz1 R"
bz00z J
b1z V
b10 W
0E
bz1111 b
bz110z a
bz00z 7"
b1z H"
b10 I"
03"
bz101 6"
bz111z T"
bz1101 U"
b1100 *
b1100 g
b1100 n
b1100 Y"
1)
#460
0)
#465
1V"
1B"
1c
1E"
1R
1,"
1S
b10 X"
b10 e
1>
b10 O"
b10 :"
b10 L
b10 ]
b10zz F"
b10 ;"
b0 L"
1C"
b10 M
b0 Z
b10zz T
1*"
1<
b10 <"
b0 M"
1+"
b10 N
b0 [
1=
1""
17
b10 K"
b0 J"
0|
b0 X
b10 Y
02
b10000000000000 ="
bz0 P"
b10000000000000 O
bz11zz K
bz000z a
bz0 ^
03"
bz001z T"
bz0000 U"
b11 I"
bz11z 7"
bz111 6"
bz11z 8"
b0z H"
bz1101 9"
0E
bz0010 b
b11 W
bz11z J
bz11z I
b0z V
b1111 n
b1111 Y"
b1111 *
b1111 g
1)
#470
0)
#475
0V"
0c
0B"
0R
0E"
0S
0,"
0>
b101 e
b101 X"
b0 O"
b0 ]
b101 L
b101 :"
b0zz F"
b0zz T
b101 M
b101 ;"
0C"
0<
0*"
0=
b101 N
b101 <"
0+"
07
0""
b0 Z
b10 [
b10 X
12
b0 Y
0D"
b0 L"
b10 M"
b0 K"
b10 J"
1|
08
0'"
0$"
bz00zz K
1F
10
bz1 ^
b101000000000000 O
1{
14"
1x
bz0000 9"
b101000000000000 ="
bz1 P"
b1 W
bz01z J
bz1zz H
b110z V
b10 `
bz00z I
bz0101 b
bz001z a
b1z Q"
b1 I"
bz01z 7"
b110z H"
b10 S"
bz111 6"
bz00z 8"
bz010z T"
bz0011 U"
1%
b10 *
b10 g
1l
b10 n
b10 Y"
1)
#480
0)
#485
b1000 X"
1W"
b1000 e
1>"
b1000 :"
1@"
b1000 L
10"
b1000 ;"
b1000 M
b1zz A"
b10 L"
b1000 <"
1?"
b10 Z
b1000 N
1&"
bz01zz K
b0 K"
b0 J"
b0 M"
0z
b0 X
b0 Y
b0 [
bz0 R"
13"
b1000000000000000 ="
04"
b0z Q"
bz0 _
1E
b1000000000000000 O
0F
b11 S"
bz101 6"
bz0011 9"
b11 I"
bz11z 7"
bz100z T"
b101z H"
bz0110 U"
b11 `
b11 W
bz11z J
bz1000 b
b101z V
bz011z a
b101 n
b101 Y"
0l
b101 *
b101 g
0%
1)
#490
0)
