Timing/test.vcd
$date
	Sat Oct 10 17:44:08 2020
$end
$version
	Icarus Verilog
$end
$timescale
	1ps
$end
$scope module BUF $end
$var wire 1 ! A $end
$var wire 1 " Y $end
$upscope $end
$scope module BUFX2 $end
$var wire 1 # A $end
$var wire 1 $ Y $end
$upscope $end
$scope module NOR $end
$var wire 1 % A $end
$var wire 1 & B $end
$var wire 1 ' Y $end
$upscope $end
$scope module tb_top $end
$var wire 4 ( Q_tb [3:0] $end
$var wire 1 ) load_tb $end
$var wire 1 * rco_tb $end
$var wire 1 + reset $end
$var wire 1 , rco_synth $end
$var wire 1 - rco $end
$var wire 2 . mode [1:0] $end
$var wire 1 / load_synth $end
$var wire 1 0 load $end
$var wire 1 1 enable $end
$var wire 1 2 clock $end
$var wire 4 3 Q_synth [3:0] $end
$var wire 4 4 Q [3:0] $end
$var wire 4 5 D [3:0] $end
$scope module clk1 $end
$var reg 1 2 clock $end
$upscope $end
$scope module dut $end
$var wire 1 2 clk $end
$var wire 1 + reset $end
$var wire 2 6 mode [1:0] $end
$var wire 1 1 enable $end
$var wire 4 7 D [3:0] $end
$var reg 4 8 Q [3:0] $end
$var reg 1 0 load $end
$var reg 1 - rco $end
$upscope $end
$scope module synth $end
$var wire 1 2 clk $end
$var wire 1 + reset $end
$var wire 1 , rco $end
$var wire 2 9 mode [1:0] $end
$var wire 1 / load $end
$var wire 1 1 enable $end
$var wire 1 : _062_ $end
$var wire 1 ; _061_ $end
$var wire 1 < _060_ $end
$var wire 1 = _059_ $end
$var wire 1 > _058_ $end
$var wire 1 ? _057_ $end
$var wire 1 @ _056_ $end
$var wire 1 A _055_ $end
$var wire 1 B _054_ $end
$var wire 1 C _053_ $end
$var wire 1 D _052_ $end
$var wire 1 E _051_ $end
$var wire 1 F _050_ $end
$var wire 1 G _049_ $end
$var wire 1 H _048_ $end
$var wire 1 I _047_ $end
$var wire 1 J _046_ $end
$var wire 1 K _045_ $end
$var wire 1 L _044_ $end
$var wire 1 M _043_ $end
$var wire 1 N _042_ $end
$var wire 1 O _041_ $end
$var wire 1 P _040_ $end
$var wire 1 Q _039_ $end
$var wire 1 R _038_ $end
$var wire 1 S _037_ $end
$var wire 1 T _036_ $end
$var wire 1 U _035_ $end
$var wire 1 V _034_ $end
$var wire 1 W _033_ $end
$var wire 1 X _032_ $end
$var wire 1 Y _031_ $end
$var wire 1 Z _030_ $end
$var wire 1 [ _029_ $end
$var wire 1 \ _028_ $end
$var wire 1 ] _027_ $end
$var wire 1 ^ _026_ $end
$var wire 1 _ _025_ $end
$var wire 1 ` _024_ $end
$var wire 1 a _023_ $end
$var wire 1 b _022_ $end
$var wire 1 c _021_ $end
$var wire 1 d _020_ $end
$var wire 1 e _019_ $end
$var wire 1 f _018_ $end
$var wire 1 g _017_ $end
$var wire 1 h _016_ $end
$var wire 1 i _015_ $end
$var wire 1 j _014_ $end
$var wire 1 k _013_ $end
$var wire 1 l _012_ $end
$var wire 1 m _011_ $end
$var wire 1 n _010_ $end
$var wire 1 o _009_ $end
$var wire 1 p _008_ $end
$var wire 1 q _007_ $end
$var wire 1 r _006_ $end
$var wire 1 s _005_ $end
$var wire 1 t _004_ $end
$var wire 1 u _003_ $end
$var wire 1 v _002_ $end
$var wire 1 w _001_ $end
$var wire 4 x _000_ [3:0] $end
$var wire 4 y Q [3:0] $end
$var wire 4 z D [3:0] $end
$scope module _063_ $end
$var wire 1 u Y $end
$var wire 1 + A $end
$upscope $end
$scope module _064_ $end
$var wire 1 { A $end
$var wire 1 t Y $end
$upscope $end
$scope module _065_ $end
$var wire 1 | A $end
$var wire 1 s Y $end
$upscope $end
$scope module _066_ $end
$var wire 1 s A $end
$var wire 1 } B $end
$var wire 1 r Y $end
$upscope $end
$scope module _067_ $end
$var wire 1 r A $end
$var wire 1 ~ B $end
$var wire 1 !" C $end
$var wire 1 q Y $end
$upscope $end
$scope module _068_ $end
$var wire 1 q A $end
$var wire 1 t B $end
$var wire 1 "" C $end
$var wire 1 p Y $end
$upscope $end
$scope module _069_ $end
$var wire 1 #" A $end
$var wire 1 $" B $end
$var wire 1 o Y $end
$upscope $end
$scope module _070_ $end
$var wire 1 o A $end
$var wire 1 n Y $end
$upscope $end
$scope module _071_ $end
$var wire 1 %" A $end
$var wire 1 m Y $end
$upscope $end
$scope module _072_ $end
$var wire 1 s A $end
$var wire 1 m B $end
$var wire 1 l Y $end
$upscope $end
$scope module _073_ $end
$var wire 1 l A $end
$var wire 1 k Y $end
$upscope $end
$scope module _074_ $end
$var wire 1 &" A $end
$var wire 1 j Y $end
$upscope $end
$scope module _075_ $end
$var wire 1 '" A $end
$var wire 1 j B $end
$var wire 1 i Y $end
$upscope $end
$scope module _076_ $end
$var wire 1 i A $end
$var wire 1 h Y $end
$upscope $end
$scope module _077_ $end
$var wire 1 h A $end
$var wire 1 k B $end
$var wire 1 n C $end
$var wire 1 g Y $end
$upscope $end
$scope module _078_ $end
$var wire 1 g A $end
$var wire 1 p B $end
$var wire 1 f Y $end
$upscope $end
$scope module _079_ $end
$var wire 1 f A $end
$var wire 1 u B $end
$var wire 1 e Y $end
$upscope $end
$scope module _080_ $end
$var wire 1 (" A $end
$var wire 1 m B $end
$var wire 1 d Y $end
$upscope $end
$scope module _081_ $end
$var wire 1 d A $end
$var wire 1 )" B $end
$var wire 1 c Y $end
$var wire 1 + C $end
$upscope $end
$scope module _082_ $end
$var wire 1 c A $end
$var wire 1 n B $end
$var wire 1 t C $end
$var wire 1 b Y $end
$upscope $end
$scope module _083_ $end
$var wire 1 b A $end
$var wire 1 e B $end
$var wire 1 v Y $end
$upscope $end
$scope module _084_ $end
$var wire 1 s B $end
$var wire 1 m C $end
$var wire 1 w Y $end
$var wire 1 + A $end
$upscope $end
$scope module _085_ $end
$var wire 1 w A $end
$var wire 1 *" B $end
$var wire 1 a Y $end
$upscope $end
$scope module _086_ $end
$var wire 1 +" A $end
$var wire 1 ," B $end
$var wire 1 ` Y $end
$upscope $end
$scope module _087_ $end
$var wire 1 ` A $end
$var wire 1 j B $end
$var wire 1 u C $end
$var wire 1 _ Y $end
$upscope $end
$scope module _088_ $end
$var wire 1 _ A $end
$var wire 1 a B $end
$var wire 1 -" Y $end
$upscope $end
$scope module _089_ $end
$var wire 1 w A $end
$var wire 1 ." B $end
$var wire 1 ^ Y $end
$upscope $end
$scope module _090_ $end
$var wire 1 t A $end
$var wire 1 /" B $end
$var wire 1 ] Y $end
$upscope $end
$scope module _091_ $end
$var wire 1 i A $end
$var wire 1 ] B $end
$var wire 1 \ Y $end
$upscope $end
$scope module _092_ $end
$var wire 1 \ A $end
$var wire 1 [ Y $end
$upscope $end
$scope module _093_ $end
$var wire 1 [ A $end
$var wire 1 d B $end
$var wire 1 r C $end
$var wire 1 Z Y $end
$upscope $end
$scope module _094_ $end
$var wire 1 \ A $end
$var wire 1 l B $end
$var wire 1 Y Y $end
$upscope $end
$scope module _095_ $end
$var wire 1 Y A $end
$var wire 1 Z B $end
$var wire 1 u C $end
$var wire 1 X Y $end
$upscope $end
$scope module _096_ $end
$var wire 1 X A $end
$var wire 1 ^ B $end
$var wire 1 0" Y $end
$upscope $end
$scope module _097_ $end
$var wire 1 d A $end
$var wire 1 W Y $end
$upscope $end
$scope module _098_ $end
$var wire 1 1" A $end
$var wire 1 V Y $end
$upscope $end
$scope module _099_ $end
$var wire 1 V A $end
$var wire 1 t B $end
$var wire 1 j C $end
$var wire 1 U Y $end
$upscope $end
$scope module _100_ $end
$var wire 1 t A $end
$var wire 1 j B $end
$var wire 1 T Y $end
$upscope $end
$scope module _101_ $end
$var wire 1 T A $end
$var wire 1 2" B $end
$var wire 1 S Y $end
$upscope $end
$scope module _102_ $end
$var wire 1 S A $end
$var wire 1 U B $end
$var wire 1 W C $end
$var wire 1 R Y $end
$upscope $end
$scope module _103_ $end
$var wire 1 S A $end
$var wire 1 U B $end
$var wire 1 Q Y $end
$upscope $end
$scope module _104_ $end
$var wire 1 Q A $end
$var wire 1 s B $end
$var wire 1 3" C $end
$var wire 1 P Y $end
$upscope $end
$scope module _105_ $end
$var wire 1 4" A $end
$var wire 1 5" B $end
$var wire 1 6" C $end
$var wire 1 O Y $end
$upscope $end
$scope module _106_ $end
$var wire 1 7" A $end
$var wire 1 8" B $end
$var wire 1 N Y $end
$upscope $end
$scope module _107_ $end
$var wire 1 N A $end
$var wire 1 V B $end
$var wire 1 M Y $end
$upscope $end
$scope module _108_ $end
$var wire 1 9" A $end
$var wire 1 :" B $end
$var wire 1 ;" C $end
$var wire 1 L Y $end
$upscope $end
$scope module _109_ $end
$var wire 1 L A $end
$var wire 1 M B $end
$var wire 1 k C $end
$var wire 1 K Y $end
$upscope $end
$scope module _110_ $end
$var wire 1 K A $end
$var wire 1 O B $end
$var wire 1 J Y $end
$upscope $end
$scope module _111_ $end
$var wire 1 J A $end
$var wire 1 I Y $end
$upscope $end
$scope module _112_ $end
$var wire 1 I A $end
$var wire 1 P B $end
$var wire 1 R C $end
$var wire 1 H Y $end
$upscope $end
$scope module _113_ $end
$var wire 1 H A $end
$var wire 1 u B $end
$var wire 1 G Y $end
$upscope $end
$scope module _114_ $end
$var wire 1 G A $end
$var wire 1 <" Y $end
$upscope $end
$scope module _115_ $end
$var wire 1 w A $end
$var wire 1 =" B $end
$var wire 1 F Y $end
$upscope $end
$scope module _116_ $end
$var wire 1 S A $end
$var wire 1 W B $end
$var wire 1 E Y $end
$upscope $end
$scope module _117_ $end
$var wire 1 U A $end
$var wire 1 s B $end
$var wire 1 >" C $end
$var wire 1 D Y $end
$upscope $end
$scope module _118_ $end
$var wire 1 L A $end
$var wire 1 s B $end
$var wire 1 m C $end
$var wire 1 C Y $end
$upscope $end
$scope module _119_ $end
$var wire 1 C A $end
$var wire 1 ?" B $end
$var wire 1 B Y $end
$upscope $end
$scope module _120_ $end
$var wire 1 B A $end
$var wire 1 A Y $end
$upscope $end
$scope module _121_ $end
$var wire 1 A A $end
$var wire 1 D B $end
$var wire 1 E C $end
$var wire 1 @ Y $end
$upscope $end
$scope module _122_ $end
$var wire 1 T A $end
$var wire 1 W B $end
$var wire 1 @" C $end
$var wire 1 ? Y $end
$upscope $end
$scope module _123_ $end
$var wire 1 U A $end
$var wire 1 A" B $end
$var wire 1 m C $end
$var wire 1 > Y $end
$upscope $end
$scope module _124_ $end
$var wire 1 L A $end
$var wire 1 B" B $end
$var wire 1 C" C $end
$var wire 1 = Y $end
$upscope $end
$scope module _125_ $end
$var wire 1 = A $end
$var wire 1 > B $end
$var wire 1 D" C $end
$var wire 1 < Y $end
$upscope $end
$scope module _126_ $end
$var wire 1 < A $end
$var wire 1 ? B $end
$var wire 1 ; Y $end
$upscope $end
$scope module _127_ $end
$var wire 1 ; A $end
$var wire 1 @ B $end
$var wire 1 u C $end
$var wire 1 : Y $end
$upscope $end
$scope module _128_ $end
$var wire 1 : A $end
$var wire 1 F B $end
$var wire 1 E" Y $end
$upscope $end
$scope module _129_ $end
$var wire 1 2 C $end
$var wire 1 F" D $end
$var reg 1 G" Q $end
$upscope $end
$scope module _130_ $end
$var wire 1 2 C $end
$var wire 1 H" D $end
$var reg 1 I" Q $end
$upscope $end
$scope module _131_ $end
$var wire 1 2 C $end
$var wire 1 J" D $end
$var reg 1 K" Q $end
$upscope $end
$scope module _132_ $end
$var wire 1 2 C $end
$var wire 1 L" D $end
$var reg 1 M" Q $end
$upscope $end
$scope module _133_ $end
$var wire 1 2 C $end
$var wire 1 w D $end
$var reg 1 / Q $end
$upscope $end
$scope module _134_ $end
$var wire 1 2 C $end
$var wire 1 v D $end
$var reg 1 , Q $end
$upscope $end
$upscope $end
$scope module tb $end
$var wire 4 N" Q [3:0] $end
$var wire 1 2 clk $end
$var wire 4 O" dut_Q [3:0] $end
$var wire 1 P" dut_load $end
$var wire 1 Q" dut_rco $end
$var wire 1 ) load $end
$var wire 1 * rco $end
$var wire 1 R" sb_rco $end
$var wire 1 S" sb_load $end
$var wire 4 T" sb_Q [3:0] $end
$var reg 4 U" D [3:0] $end
$var reg 1 1 enable $end
$var reg 2 V" mode [1:0] $end
$var reg 1 + reset $end
$var integer 32 W" log [31:0] $end
$scope module sb $end
$var wire 4 X" D [3:0] $end
$var wire 1 2 clk $end
$var wire 1 1 enable $end
$var wire 2 Y" mode [1:0] $end
$var wire 1 + reset $end
$var reg 4 Z" Q [3:0] $end
$var reg 1 S" load $end
$var reg 1 R" rco $end
$upscope $end
$scope task checker $end
$var integer 32 [" iteration [31:0] $end
$upscope $end
$scope task drv_init $end
$upscope $end
$scope task test00 $end
$var integer 32 \" iteration [31:0] $end
$upscope $end
$scope task test01 $end
$var integer 32 ]" iteration [31:0] $end
$upscope $end
$scope task test10 $end
$var integer 32 ^" iteration [31:0] $end
$upscope $end
$scope task test11 $end
$var integer 32 _" iteration [31:0] $end
$upscope $end
$upscope $end
$upscope $end
$enddefinitions $end
#0
$dumpvars
bx _"
bx ^"
bx ]"
bx \"
bx ["
b0 Z"
bx Y"
bx X"
b10 W"
bx V"
bx U"
b0 T"
xS"
xR"
zQ"
zP"
bz O"
bz N"
xM"
xL"
xK"
xJ"
xI"
xH"
xG"
xF"
xE"
xD"
xC"
xB"
xA"
x@"
x?"
x>"
x="
x<"
x;"
x:"
x9"
x8"
x7"
x6"
x5"
x4"
x3"
x2"
x1"
x0"
x/"
x."
x-"
x,"
x+"
x*"
x)"
x("
x'"
x&"
x%"
x$"
x#"
x""
x!"
x~
x}
x|
x{
bx z
bx y
bx x
xw
xv
xu
xt
xs
xr
xq
xp
xo
xn
xm
xl
xk
xj
xi
xh
xg
xf
xe
xd
xc
xb
xa
x`
x_
x^
x]
x\
x[
xZ
xY
xX
xW
xV
xU
xT
xS
xR
xQ
xP
xO
xN
xM
xL
xK
xJ
xI
xH
xG
xF
xE
xD
xC
xB
xA
x@
x?
x>
x=
x<
x;
x:
bx 9
b0 8
bx 7
bx 6
bx 5
b0 4
bx 3
02
x1
x0
x/
bx .
x-
x,
x+
z*
z)
bz (
x'
z&
z%
z$
z#
z"
z!
$end
#20000000000000
0R"
1S"
bx T"
bx Z"
12
#40000000000000
0F"
0H"
0L"
0-"
00"
0E"
0v
1a
1^
1F
1b
0J"
b0 x
0<"
0w
1e
1_
1X
1G
1:
0c
0u
1+
02
#60000000000000
0f
1R
1D
1@
1K
1Q
1Y
1g
0=
1[
0U
0\
0A
0M
0n
0h
0T
1B
1?
1S
1o
1i
1L
1N
1]
1p
1V
1t
1j
0D"
0?"
0#"
0~
0@"
09"
02"
01"
0$"
0!"
0:"
07"
0'"
0{
0;"
08"
0/"
0)"
0&"
0""
0,
0/
0M"
0K"
0I"
b0 3
b0 y
0G"
b0 T"
b0 Z"
0S"
12
#80000000000000
02
#100000000000000
12
#120000000000000
02
#140000000000000
12
#160000000000000
02
#180000000000000
12
#200000000000000
xF"
xH"
xL"
xa
x^
xF
x-"
x0"
xJ"
xE"
bx x
x<"
xw
x_
xX
xG
x:
xc
1u
0+
02
#220000000000000
xv
x@
xb
xK
x=
xY
xR
xD
x?
xe
xg
x[
xQ
xS
x\
xf
xA
xM
xn
xL
xh
xU
xT
xB
xo
xi
xN
x]
xp
xV
xt
xj
xD"
x?"
x#"
x~
x@"
x9"
x2"
x1"
x$"
x!"
x:"
x7"
x'"
x{
x;"
x8"
x/"
x)"
x&"
x""
x/
xM"
xK"
xI"
bx 3
bx y
xG"
1S"
bx T"
bx Z"
12
#240000000000000
b110010 \"
b110010 ["
02
#260000000000000
x,
12
#280000000000000
1b
1p
1?
0c
1R
1E
0q
1Y
1k
0W
0w
0>
0l
1F
1^
1a
1D
1O
1P
1`
1d
1r
1m
1s
0="
04"
0."
0*"
0C"
0B"
0A"
0>"
06"
05"
03"
0,"
0+"
0("
0%"
0}
0|
b0 5
b0 7
b0 z
b0 U"
b0 X"
b0 .
b0 6
b0 9
b0 V"
b0 Y"
11
02
#300000000000000
0/
0-
00
b1 4
b1 8
0S"
12
#320000000000000
02
#340000000000000
b10 4
b10 8
12
#360000000000000
02
#380000000000000
b11 4
b11 8
12
#400000000000000
02
#420000000000000
b100 4
b100 8
12
#440000000000000
02
#460000000000000
b101 4
b101 8
12
#480000000000000
02
#500000000000000
b110 4
b110 8
12
#520000000000000
02
#540000000000000
b111 4
b111 8
12
#560000000000000
02
#580000000000000
b1000 4
b1000 8
12
#600000000000000
02
#620000000000000
b1001 4
b1001 8
12
#640000000000000
02
#660000000000000
b1010 4
b1010 8
12
#680000000000000
02
#700000000000000
b1011 4
b1011 8
12
#720000000000000
02
#740000000000000
b1100 4
b1100 8
12
#760000000000000
02
#780000000000000
b1101 4
b1101 8
12
#800000000000000
02
#820000000000000
b1110 4
b1110 8
12
#840000000000000
02
#860000000000000
1-
b1111 4
b1111 8
12
#880000000000000
02
#900000000000000
0-
b0 4
b0 8
12
#920000000000000
02
#940000000000000
b1 4
b1 8
12
#960000000000000
02
#980000000000000
b10 4
b10 8
12
#1000000000000000
02
#1020000000000000
b11 4
b11 8
12
#1040000000000000
02
#1060000000000000
b100 4
b100 8
12
#1080000000000000
02
#1100000000000000
b101 4
b101 8
12
#1120000000000000
02
#1140000000000000
b110 4
b110 8
12
#1160000000000000
02
#1180000000000000
b111 4
b111 8
12
#1200000000000000
02
#1220000000000000
b1000 4
b1000 8
12
#1240000000000000
02
#1260000000000000
b1001 4
b1001 8
12
#1280000000000000
02
#1300000000000000
b1010 4
b1010 8
12
#1320000000000000
02
#1340000000000000
b1011 4
b1011 8
12
#1360000000000000
02
#1380000000000000
b1100 4
b1100 8
12
#1400000000000000
02
#1420000000000000
b1101 4
b1101 8
12
#1440000000000000
02
#1460000000000000
b1110 4
b1110 8
12
#1480000000000000
02
#1500000000000000
1-
b1111 4
b1111 8
12
#1520000000000000
02
#1540000000000000
0-
b0 4
b0 8
12
#1560000000000000
02
#1580000000000000
b1 4
b1 8
12
#1600000000000000
02
#1620000000000000
b10 4
b10 8
12
#1640000000000000
02
#1660000000000000
b11 4
b11 8
12
#1680000000000000
02
#1700000000000000
b100 4
b100 8
12
#1720000000000000
02
#1740000000000000
b101 4
b101 8
12
#1760000000000000
02
#1780000000000000
b110 4
b110 8
12
#1800000000000000
02
#1820000000000000
b111 4
b111 8
12
#1840000000000000
02
#1860000000000000
b1000 4
b1000 8
12
#1880000000000000
02
#1900000000000000
b1001 4
b1001 8
12
#1920000000000000
02
#1940000000000000
b1010 4
b1010 8
12
#1960000000000000
02
#1980000000000000
b1011 4
b1011 8
12
#2000000000000000
02
#2020000000000000
b1100 4
b1100 8
12
#2040000000000000
02
#2060000000000000
b1101 4
b1101 8
12
#2080000000000000
02
#2100000000000000
b1110 4
b1110 8
12
#2120000000000000
02
#2140000000000000
1-
b1111 4
b1111 8
12
#2160000000000000
02
#2180000000000000
0-
b0 4
b0 8
12
#2200000000000000
02
#2220000000000000
b1 4
b1 8
12
#2240000000000000
02
#2260000000000000
b10 4
b10 8
12
#2280000000000000
0F"
0H"
0L"
0v
0-"
00"
0J"
0E"
b0 x
0<"
1e
1_
1X
1G
1:
0u
1+
02
#2300000000000000
0H
0;
1I
0J
1<
0Z
0f
1@
1K
1Q
1g
0C
0=
1[
0U
0\
0A
0M
0n
0h
0T
1B
1S
1o
1i
1L
1N
1]
1V
1t
1j
0D"
0?"
0#"
0~
0@"
09"
02"
01"
0$"
0!"
0:"
07"
0'"
0{
0;"
08"
0/"
0)"
0&"
0""
0,
0M"
0K"
0I"
b0 3
b0 y
0G"
b0 4
b0 8
b0 T"
b0 Z"
12
#2320000000000000
02
#2340000000000000
12
#2360000000000000
02
#2380000000000000
12
#2400000000000000
02
#2420000000000000
12
#2440000000000000
1F"
b1 x
1-"
0_
1u
0+
02
#2460000000000000
1H"
10"
0X
1Z
0F"
b10 x
0-"
0[
0Q
1\
1_
1U
1T
0]
0j
1;"
18"
1/"
1)"
1&"
1""
b1 3
b1 y
1G"
b1 4
b1 8
b1 T"
b1 Z"
12
#2480000000000000
b110010 ]"
02
#2500000000000000
1F"
b11 x
1-"
1h
0_
0i
1]
1j
0t
0;"
08"
0/"
0)"
0&"
0""
1:"
17"
1'"
1{
0G"
b10 3
b10 y
1I"
b10 T"
b10 Z"
b10 4
b10 8
12
#2520000000000000
0H"
b1 x
00"
1X
0Y
1q
0k
1l
1C
0D
0r
0m
1C"
1>"
16"
13"
1,"
1%"
1}
b1 .
b1 6
b1 9
b1 V"
b1 Y"
02
#2540000000000000
1v
0e
0F"
1f
b0 x
0-"
0p
1_
0h
0]
1i
1t
0j
0:"
07"
0'"
0{
1;"
18"
1/"
1)"
1&"
1""
0I"
b1 3
b1 y
1G"
b1 4
b1 8
b1 T"
b1 Z"
12
#2560000000000000
02
#2580000000000000
1L"
1E"
1J"
1<"
0:
0G
1H"
10"
1H
1;
0X
0<
0P
0v
1F"
1Y
b1111 x
1-"
1D
1>
1e
1[
1Q
0\
0_
0f
0U
0T
1]
1p
1j
0;"
08"
0/"
0)"
0&"
0""
b0 3
b0 y
0G"
1,
1R"
b0 T"
b0 Z"
1-
b0 4
b0 8
12
#2600000000000000
02
#2620000000000000
1J"
1<"
0G
1L"
1H"
1E"
10"
1H
0:
0X
0P
0v
0F"
1@
1Y
b1110 x
0-"
0D
0>
1e
1[
1Q
0S
0\
1_
0f
1A
1M
1n
0L
1U
1T
0B
0o
0q
0N
1]
1p
0V
0t
0j
1D"
1?"
1#"
1~
1@"
19"
12"
11"
1$"
1!"
1:"
17"
1'"
1{
1;"
18"
1/"
1)"
1&"
1""
0,
1M"
1K"
1I"
b1111 3
b1111 y
1G"
0-
b1111 4
b1111 8
0R"
b1111 T"
b1111 Z"
12
#2640000000000000
02
#2660000000000000
0H"
00"
1X
0Y
1F"
0[
b1101 x
1-"
1\
1h
0_
0i
1L
1N
1j
0;"
08"
0/"
0)"
0&"
0""
b1110 3
b1110 y
0G"
b1110 T"
b1110 Z"
b1110 4
b1110 8
12
#2680000000000000
02
#2700000000000000
0F"
b1100 x
0-"
1_
0h
0]
1i
1L
1t
0j
0:"
07"
0'"
0{
1;"
18"
1/"
1)"
1&"
1""
0I"
b1101 3
b1101 y
1G"
b1101 4
b1101 8
b1101 T"
b1101 Z"
12
#2720000000000000
02
#2740000000000000
0J"
0<"
1G
0H
1H"
10"
1P
0X
1F"
0Q
1Y
b1011 x
1-"
1[
1S
0\
0_
0T
1]
1j
0;"
08"
0/"
0)"
0&"
0""
b1100 3
b1100 y
0G"
b1100 T"
b1100 Z"
b1100 4
b1100 8
12
#2760000000000000
02
#2780000000000000
1H"
10"
0X
0F"
1Y
b1010 x
0-"
1[
0\
1_
0n
1T
1o
0N
1]
1V
0t
0j
0@"
09"
02"
01"
0$"
0!"
1:"
17"
1'"
1{
1;"
18"
1/"
1)"
1&"
1""
0K"
1I"
b1011 3
b1011 y
1G"
b1011 4
b1011 8
b1011 T"
b1011 Z"
12
#2800000000000000
02
#2820000000000000
0H"
00"
1X
0Y
1F"
0[
b1001 x
1-"
1\
0M
1h
0_
0i
1N
1j
0;"
08"
0/"
0)"
0&"
0""
b1010 3
b1010 y
0G"
b1010 T"
b1010 Z"
b1010 4
b1010 8
12
#2840000000000000
02
#2860000000000000
0F"
b1000 x
0-"
1_
0h
0]
1i
1t
0j
0:"
07"
0'"
0{
1;"
18"
1/"
1)"
1&"
1""
0I"
b1001 3
b1001 y
1G"
b1001 4
b1001 8
b1001 T"
b1001 Z"
12
#2880000000000000
02
#2900000000000000
1J"
0L"
1<"
0E"
0G
1H"
1:
10"
1H
0X
0@
0P
1F"
1Y
b111 x
1-"
1D
1>
1[
1Q
0\
0_
0U
0T
1]
1j
0;"
08"
0/"
0)"
0&"
0""
b1000 3
b1000 y
0G"
b1000 T"
b1000 Z"
b1000 4
b1000 8
12
#2920000000000000
02
#2940000000000000
1J"
1<"
0G
0L"
1H"
0E"
10"
1H
0;
1:
0X
1<
0P
0F"
1@
1Y
b110 x
0-"
0D
0>
1[
1Q
0S
0\
1_
0A
1M
0L
1U
1T
1B
0N
1]
0V
0t
0j
0D"
0?"
0#"
0~
1@"
19"
12"
11"
1$"
1!"
1:"
17"
1'"
1{
1;"
18"
1/"
1)"
1&"
1""
0M"
1K"
1I"
b111 3
b111 y
1G"
b111 4
b111 8
b111 T"
b111 Z"
12
#2960000000000000
02
#2980000000000000
0H"
00"
1X
0Y
1F"
0[
b101 x
1-"
1\
1h
0_
0i
1L
1N
1j
0;"
08"
0/"
0)"
0&"
0""
b110 3
b110 y
0G"
b110 T"
b110 Z"
b110 4
b110 8
12
#3000000000000000
02
#3020000000000000
0F"
b100 x
0-"
1_
0h
0]
1i
1L
1t
0j
0:"
07"
0'"
0{
1;"
18"
1/"
1)"
1&"
1""
0I"
b101 3
b101 y
1G"
b101 4
b101 8
b101 T"
b101 Z"
12
#3040000000000000
02
#3060000000000000
0J"
0<"
1G
0H
1H"
10"
1P
0X
1F"
0Q
1Y
b11 x
1-"
1[
1S
0\
0_
0T
1]
1j
0;"
08"
0/"
0)"
0&"
0""
b100 3
b100 y
0G"
b100 T"
b100 Z"
b100 4
b100 8
12
#3080000000000000
02
#3100000000000000
1H"
10"
0X
0F"
1Y
b10 x
0-"
1[
0\
1_
1T
1q
0N
1]
1V
0t
0j
0@"
09"
02"
01"
0$"
0!"
1:"
17"
1'"
1{
1;"
18"
1/"
1)"
1&"
1""
0K"
1I"
b11 3
b11 y
1G"
b11 4
b11 8
b11 T"
b11 Z"
12
#3120000000000000
02
#3140000000000000
0H"
00"
1X
0Y
1F"
0[
b1 x
1-"
1\
0M
1h
0_
0i
1N
1j
0;"
08"
0/"
0)"
0&"
0""
b10 3
b10 y
0G"
b10 T"
b10 Z"
b10 4
b10 8
12
#3160000000000000
02
#3180000000000000
1v
0e
0F"
1f
b0 x
0-"
0p
1_
0h
0]
1i
1t
0j
0:"
07"
0'"
0{
1;"
18"
1/"
1)"
1&"
1""
0I"
b1 3
b1 y
1G"
b1 4
b1 8
b1 T"
b1 Z"
12
#3200000000000000
02
#3220000000000000
1L"
1E"
1J"
1<"
0:
0G
1H"
10"
1H
1;
0X
0<
0P
0v
1F"
1Y
b1111 x
1-"
1D
1>
1e
1[
1Q
0\
0_
0f
0U
0T
1]
1p
1j
0;"
08"
0/"
0)"
0&"
0""
b0 3
b0 y
0G"
1,
1R"
b0 T"
b0 Z"
1-
b0 4
b0 8
12
#3240000000000000
02
#3260000000000000
1J"
1<"
0G
1L"
1H"
1E"
10"
1H
0:
0X
0P
0v
0F"
1@
1Y
b1110 x
0-"
0D
0>
1e
1[
1Q
0S
0\
1_
0f
1A
1M
1n
0L
1U
1T
0B
0o
0q
0N
1]
1p
0V
0t
0j
1D"
1?"
1#"
1~
1@"
19"
12"
11"
1$"
1!"
1:"
17"
1'"
1{
1;"
18"
1/"
1)"
1&"
1""
0,
1M"
1K"
1I"
b1111 3
b1111 y
1G"
0-
b1111 4
b1111 8
0R"
b1111 T"
b1111 Z"
12
#3280000000000000
02
#3300000000000000
0H"
00"
1X
0Y
1F"
0[
b1101 x
1-"
1\
1h
0_
0i
1L
1N
1j
0;"
08"
0/"
0)"
0&"
0""
b1110 3
b1110 y
0G"
b1110 T"
b1110 Z"
b1110 4
b1110 8
12
#3320000000000000
02
#3340000000000000
0F"
b1100 x
0-"
1_
0h
0]
1i
1L
1t
0j
0:"
07"
0'"
0{
1;"
18"
1/"
1)"
1&"
1""
0I"
b1101 3
b1101 y
1G"
b1101 4
b1101 8
b1101 T"
b1101 Z"
12
#3360000000000000
02
#3380000000000000
0J"
0<"
1G
0H
1H"
10"
1P
0X
1F"
0Q
1Y
b1011 x
1-"
1[
1S
0\
0_
0T
1]
1j
0;"
08"
0/"
0)"
0&"
0""
b1100 3
b1100 y
0G"
b1100 T"
b1100 Z"
b1100 4
b1100 8
12
#3400000000000000
02
#3420000000000000
1H"
10"
0X
0F"
1Y
b1010 x
0-"
1[
0\
1_
0n
1T
1o
0N
1]
1V
0t
0j
0@"
09"
02"
01"
0$"
0!"
1:"
17"
1'"
1{
1;"
18"
1/"
1)"
1&"
1""
0K"
1I"
b1011 3
b1011 y
1G"
b1011 4
b1011 8
b1011 T"
b1011 Z"
12
#3440000000000000
02
#3460000000000000
0H"
00"
1X
0Y
1F"
0[
b1001 x
1-"
1\
0M
1h
0_
0i
1N
1j
0;"
08"
0/"
0)"
0&"
0""
b1010 3
b1010 y
0G"
b1010 T"
b1010 Z"
b1010 4
b1010 8
12
#3480000000000000
02
#3500000000000000
0F"
b1000 x
0-"
1_
0h
0]
1i
1t
0j
0:"
07"
0'"
0{
1;"
18"
1/"
1)"
1&"
1""
0I"
b1001 3
b1001 y
1G"
b1001 4
b1001 8
b1001 T"
b1001 Z"
12
#3520000000000000
02
#3540000000000000
1J"
0L"
1<"
0E"
0G
1H"
1:
10"
1H
0X
0@
0P
1F"
1Y
b111 x
1-"
1D
1>
1[
1Q
0\
0_
0U
0T
1]
1j
0;"
08"
0/"
0)"
0&"
0""
b1000 3
b1000 y
0G"
b1000 T"
b1000 Z"
b1000 4
b1000 8
12
#3560000000000000
02
#3580000000000000
1J"
1<"
0G
0L"
1H"
0E"
10"
1H
0;
1:
0X
1<
0P
0F"
1@
1Y
b110 x
0-"
0D
0>
1[
1Q
0S
0\
1_
0A
1M
0L
1U
1T
1B
0N
1]
0V
0t
0j
0D"
0?"
0#"
0~
1@"
19"
12"
11"
1$"
1!"
1:"
17"
1'"
1{
1;"
18"
1/"
1)"
1&"
1""
0M"
1K"
1I"
b111 3
b111 y
1G"
b111 4
b111 8
b111 T"
b111 Z"
12
#3600000000000000
02
