ContadorA/test.vcd
$date
	Thu Sep 17 18:56:23 2020
$end
$version
	Icarus Verilog
$end
$timescale
	1s
$end
$scope module tb_top $end
$var wire 4 ! Q_tb [3:0] $end
$var wire 1 " load_tb $end
$var wire 1 # rco_tb $end
$var wire 1 $ reset $end
$var wire 1 % rco $end
$var wire 2 & mode [1:0] $end
$var wire 1 ' load $end
$var wire 1 ( enable $end
$var wire 1 ) clock $end
$var wire 4 * Q [3:0] $end
$var wire 4 + D [3:0] $end
$scope module clk1 $end
$var reg 1 ) clock $end
$upscope $end
$scope module dut $end
$var wire 1 , _004_ $end
$var wire 1 - _005_ $end
$var wire 1 . _020_ $end
$var wire 1 / _021_ $end
$var wire 1 0 _024_ $end
$var wire 1 1 _025_ $end
$var wire 1 2 _026_ $end
$var wire 1 3 _027_ $end
$var wire 1 4 _028_ $end
$var wire 1 5 _029_ $end
$var wire 1 6 _030_ $end
$var wire 1 7 _031_ $end
$var wire 1 8 _032_ $end
$var wire 1 9 _033_ $end
$var wire 1 : _034_ $end
$var wire 1 ; _035_ $end
$var wire 1 < _036_ $end
$var wire 1 = _037_ $end
$var wire 1 > _038_ $end
$var wire 1 ? _039_ $end
$var wire 1 @ _040_ $end
$var wire 1 A _041_ $end
$var wire 1 B _043_ $end
$var wire 1 C _045_ $end
$var wire 1 D _053_ $end
$var wire 1 E _055_ $end
$var wire 1 F _056_ $end
$var wire 1 ) clk $end
$var wire 1 $ reset $end
$var wire 2 G mode [1:0] $end
$var wire 1 ( enable $end
$var wire 32 H _054_ [31:0] $end
$var wire 32 I _052_ [31:0] $end
$var wire 32 J _051_ [31:0] $end
$var wire 32 K _050_ [31:0] $end
$var wire 4 L _049_ [3:0] $end
$var wire 4 M _048_ [3:0] $end
$var wire 16 N _047_ [15:0] $end
$var wire 1 O _046_ $end
$var wire 4 P _044_ [3:0] $end
$var wire 4 Q _042_ [3:0] $end
$var wire 2 R _023_ [1:0] $end
$var wire 4 S _022_ [3:0] $end
$var wire 2 T _019_ [1:0] $end
$var wire 2 U _018_ [1:0] $end
$var wire 2 V _017_ [1:0] $end
$var wire 2 W _016_ [1:0] $end
$var wire 2 X _015_ [1:0] $end
$var wire 2 Y _014_ [1:0] $end
$var wire 2 Z _013_ [1:0] $end
$var wire 2 [ _012_ [1:0] $end
$var wire 2 \ _011_ [1:0] $end
$var wire 2 ] _010_ [1:0] $end
$var wire 2 ^ _009_ [1:0] $end
$var wire 2 _ _008_ [1:0] $end
$var wire 32 ` _007_ [31:0] $end
$var wire 32 a _006_ [31:0] $end
$var wire 1 b _003_ $end
$var wire 1 c _002_ $end
$var wire 1 d _001_ $end
$var wire 4 e _000_ [3:0] $end
$var wire 4 f D [3:0] $end
$var reg 4 g Q [3:0] $end
$var reg 1 ' load $end
$var reg 1 % rco $end
$upscope $end
$scope module tb $end
$var wire 4 h Q [3:0] $end
$var wire 1 ) clk $end
$var wire 4 i dut_Q [3:0] $end
$var wire 1 j dut_load $end
$var wire 1 k dut_rco $end
$var wire 1 " load $end
$var wire 1 # rco $end
$var wire 1 l sb_rco $end
$var wire 1 m sb_load $end
$var wire 4 n sb_Q [3:0] $end
$var reg 4 o D [3:0] $end
$var reg 1 ( enable $end
$var reg 2 p mode [1:0] $end
$var reg 1 $ reset $end
$var integer 32 q log [31:0] $end
$scope module sb $end
$var wire 4 r D [3:0] $end
$var wire 1 s _005_ $end
$var wire 1 t _012_ $end
$var wire 1 u _013_ $end
$var wire 1 v _019_ $end
$var wire 1 w _020_ $end
$var wire 1 x _023_ $end
$var wire 1 y _024_ $end
$var wire 1 z _025_ $end
$var wire 1 { _026_ $end
$var wire 1 | _027_ $end
$var wire 1 } _028_ $end
$var wire 1 ~ _029_ $end
$var wire 1 !" _030_ $end
$var wire 1 "" _031_ $end
$var wire 1 #" _032_ $end
$var wire 1 $" _033_ $end
$var wire 1 %" _034_ $end
$var wire 1 &" _035_ $end
$var wire 1 '" _036_ $end
$var wire 1 (" _037_ $end
$var wire 1 )" _038_ $end
$var wire 1 *" _039_ $end
$var wire 1 +" _040_ $end
$var wire 1 ," _042_ $end
$var wire 1 -" _044_ $end
$var wire 1 ." _045_ $end
$var wire 1 /" _048_ $end
$var wire 1 0" _051_ $end
$var wire 1 1" _062_ $end
$var wire 1 2" _063_ $end
$var wire 1 3" _065_ $end
$var wire 1 4" _066_ $end
$var wire 1 ) clk $end
$var wire 1 ( enable $end
$var wire 2 5" mode [1:0] $end
$var wire 1 $ reset $end
$var wire 32 6" _064_ [31:0] $end
$var wire 32 7" _061_ [31:0] $end
$var wire 32 8" _060_ [31:0] $end
$var wire 32 9" _059_ [31:0] $end
$var wire 4 :" _058_ [3:0] $end
$var wire 4 ;" _057_ [3:0] $end
$var wire 4 <" _056_ [3:0] $end
$var wire 16 =" _055_ [15:0] $end
$var wire 1 >" _054_ $end
$var wire 1 ?" _053_ $end
$var wire 1 @" _052_ $end
$var wire 3 A" _050_ [2:0] $end
$var wire 1 B" _049_ $end
$var wire 1 C" _047_ $end
$var wire 1 D" _046_ $end
$var wire 1 E" _043_ $end
$var wire 4 F" _041_ [3:0] $end
$var wire 2 G" _022_ [1:0] $end
$var wire 4 H" _021_ [3:0] $end
$var wire 2 I" _018_ [1:0] $end
$var wire 2 J" _017_ [1:0] $end
$var wire 2 K" _016_ [1:0] $end
$var wire 2 L" _015_ [1:0] $end
$var wire 2 M" _014_ [1:0] $end
$var wire 2 N" _011_ [1:0] $end
$var wire 2 O" _010_ [1:0] $end
$var wire 2 P" _009_ [1:0] $end
$var wire 2 Q" _008_ [1:0] $end
$var wire 2 R" _007_ [1:0] $end
$var wire 2 S" _006_ [1:0] $end
$var wire 32 T" _004_ [31:0] $end
$var wire 32 U" _003_ [31:0] $end
$var wire 1 V" _002_ $end
$var wire 1 W" _001_ $end
$var wire 4 X" _000_ [3:0] $end
$var reg 4 Y" Q [3:0] $end
$var reg 1 m load $end
$var reg 1 l rco $end
$upscope $end
$scope task checker $end
$var integer 32 Z" iteration [31:0] $end
$upscope $end
$scope task drv_init $end
$upscope $end
$scope task test_high_impedance $end
$var integer 32 [" iteration [31:0] $end
$upscope $end
$scope task test_modo00_static $end
$var integer 32 \" iteration [31:0] $end
$upscope $end
$scope task test_modo01_static $end
$var integer 32 ]" iteration [31:0] $end
$upscope $end
$scope task test_modo10_static $end
$var integer 32 ^" iteration [31:0] $end
$upscope $end
$scope task test_modo11_random $end
$var integer 32 _" iteration [31:0] $end
$upscope $end
$scope task test_reset $end
$var integer 32 `" iteration [31:0] $end
$upscope $end
$upscope $end
$upscope $end
$enddefinitions $end
#0
$dumpvars
bx `"
bx _"
bx ^"
bx ]"
bx \"
bx ["
bx Z"
bx Y"
bx X"
xW"
xV"
bzxxxx U"
bzxxxz T"
bx S"
bzx R"
bxz Q"
bzx P"
bx O"
bx N"
bx M"
bx L"
bx K"
bx J"
bx I"
bxz H"
bx G"
bxzz F"
xE"
xD"
xC"
xB"
bxzz A"
x@"
x?"
x>"
bx ="
bx <"
bx ;"
bx :"
bzxxxx 9"
bzxxz 8"
bzxxz 7"
bzxxx 6"
bx 5"
x4"
x3"
x2"
x1"
x0"
x/"
x."
x-"
x,"
x+"
x*"
x)"
x("
x'"
x&"
x%"
x$"
x#"
x""
x!"
x~
x}
x|
x{
xz
xy
xx
xw
xv
xu
xt
xs
bx r
b10 q
bx p
bx o
bx n
xm
xl
zk
zj
bz i
bz h
bx g
bx f
bx e
xd
xc
xb
bzxxxx a
bzxxxz `
bx _
bzx ^
bxz ]
bzx \
bx [
bx Z
bx Y
bx X
bx W
bx V
bx U
bxz T
bxz S
bx R
bzxx Q
bxzxz P
xO
bx N
bx M
bx L
bzxxzz K
bzxxz J
bzxxz I
bzxzz H
bx G
xF
xE
xD
xC
xB
xA
x@
x?
x>
x=
x<
x;
x:
x9
x8
x7
x6
x5
x4
x3
x2
x1
x0
x/
x.
x-
x,
bx +
bx *
0)
x(
x'
bx &
x%
x$
z#
z"
bz !
$end
#5
1)
#10
0=
0<
0>
b0z0z P
07
0:
09
08
12
11
10
1-
bz0zz H
1,
b1z ]
bz11zz K
0F
b11 _
0.
bz1 \
b0xxxxxx000xxxxx N
b0z T
bz00z J
b111z S
bz0 ^
0E
bz00z I
bz0011 a
bz000z `
0%
0'
b0 *
b0 g
zB"
z>"
bz :"
0d
0c
b0 e
0)"
0;
0#"
0V"
0W"
b0 X"
06
1$
0)
#15
b0xzz F"
0C"
0*"
b0zz A"
0+"
bx0 O"
0D"
0?"
0$"
0""
0'"
0&"
0%"
1x
1|
1{
1z
1y
1("
b1z Q"
04"
bz001z T"
b11 S"
0v
bz1110 9"
bz1 P"
bz1 R"
b0xxxxx0000xxxxx ="
bz00z 7"
bz001 6"
b111z H"
b0 I"
03"
bz00z 8"
bz0001 U"
0l
0m
b0 n
b0 Y"
1)
#20
xB"
x>"
bx :"
xd
xc
bx e
x)"
x;
1#"
xV"
xW"
bx X"
16
0$
0)
#25
bxzz F"
bxzz A"
xC"
x=
x<
x>
bxzxz P
xD"
x?"
bx O"
x*"
x+"
x7
x:
x9
x8
x'"
x&"
x""
x%"
x$"
x2
x1
x0
x-
x{
xz
x|
xy
xx
x,
x("
bxz ]
bzxxzz K
xF
bx _
x.
bzx \
bx N
bzx R"
bzx P"
x4"
bxz Q"
xv
bx S"
bx ="
bxz T
bzxzz H
bzxxz J
bxz S
bzx ^
xE
bzxxz I
bzxxxx a
bzxxxz `
x3"
bzxxz 7"
bzxxz 8"
bzxxxx 9"
bzxxx 6"
bx I"
bxz H"
bzxxxz T"
bzxxxx U"
x%
x'
bx *
bx g
bx n
bx Y"
xm
xl
1)
#30
b11110 _"
b11110 Z"
0)
#35
1)
#40
b0 X"
b0 :"
b0 e
0V"
1c
1d
b0 ;"
0B"
1O
1b
b0 L
0E"
1W"
1D
1C
1B
0,"
b0 <"
11"
1>"
b0 M
1@"
12"
b0 J"
b0 K"
b0 M"
b0 L"
10"
b1 Y
b0 U
b0 V
b0 X
b0 W
1u
1t
b0 O"
0s
b0zz F"
b0zz A"
b1 N"
0}
03
b1 [
b1 Z
bz01 Q
b0z0z P
0-"
0."
0/"
0A
0@
0?
1~
1!"
1w
b0 G"
b0 R
1/
15
14
b0 ="
b0 N
1)"
1;
b11 &
b11 G
b11 p
b11 5"
1(
b0 +
b0 f
b0 o
b0 r
0)
#45
0C"
0=
0<
0>
0D"
0?"
0*"
0+"
07
0:
09
08
0'"
0&"
0""
0%"
0$"
12
11
10
1-
1{
1z
1|
1y
1x
bz0zz H
1,
1("
b1z ]
bz11zz K
0F
b11 _
0.
bz1 \
bz1 R"
bz1 P"
bz001z T"
bz1110 9"
04"
b1z Q"
0v
b11 S"
b0z T
bz00z J
b111z S
bz0 ^
0E
bz00z I
bz0011 a
bz000z `
03"
bz001 6"
bz0001 U"
bz00z 7"
bz00z 8"
b0 I"
b111z H"
1%
1'
b0 *
b0 g
b0 n
b0 Y"
1m
0l
1)
#50
b1 X"
b1 :"
b1 e
b1 ;"
b1 L
b1 <"
b1 M
b1 J"
b1 U
b1 ="
b1 N
b1 +
b1 f
b1 o
b1 r
0)
#55
bz1zz H
0,
bz00zz K
1F
0("
1.
1v
bz1111 9"
bz0 R"
bz01z J
bz01z 7"
bz1 ^
1E
bz0100 a
bz001z `
b1 I"
13"
bz010z T"
bz0010 U"
b1 *
b1 g
b1 n
b1 Y"
1)
#60
0)
#65
1)
#70
b11 X"
b11 :"
b11 e
b11 ;"
b11 L
b11 <"
b11 M
b1 K"
b1 V
b11 ="
b11 N
b11 +
b11 f
b11 o
b11 r
0)
#75
bz0110 a
0E
bz0 \
14"
bz011z T"
03"
bz0 P"
bz01z I
b110z S
bz010z `
bz1 R"
bz111 6"
bz01z 8"
b110z H"
bz0001 9"
bz0100 U"
b11 *
b11 g
b11 n
b11 Y"
1)
#80
b1 X"
b1 :"
b1 e
b1 ;"
b1 L
b1 <"
b1 M
b0 K"
b0 V
b1 ="
b1 N
b1 +
b1 f
b1 o
b1 r
0)
#85
bz1zz H
bz00zz K
1F
bz0100 a
1E
bz1 \
04"
bz010z T"
13"
bz1 P"
bz01z J
bz00z I
b111z S
bz001z `
bz0 R"
bz01z 7"
bz001 6"
bz00z 8"
b111z H"
bz1111 9"
bz0010 U"
b1 *
b1 g
b1 n
b1 Y"
1)
#90
0)
#95
1)
#100
0)
#105
1)
#110
b10 X"
b10 :"
b10 e
b10 ;"
b10 L
b10 <"
b10 M
b0 J"
b1 K"
b1 V
b0 U
b10 ="
b10 N
b10 +
b10 f
b10 o
b10 r
0)
#115
b10 _
14"
b10 S"
0E
bz0101 a
b110z S
bz1 R"
b110z H"
bz0000 9"
03"
bz111 6"
bz010z T"
bz0011 U"
b10 *
b10 g
b10 n
b10 Y"
1)
#120
b1 X"
b1 :"
b1 e
b1 ;"
b1 L
b1 <"
b1 M
b1 J"
b0 K"
b0 V
b1 U
b1 ="
b1 N
b1 +
b1 f
b1 o
b1 r
0)
#125
bz1zz H
bz00zz K
1F
1E
bz0 R"
04"
13"
bz01z J
b111z S
b11 _
bz0100 a
b11 S"
bz010z T"
bz0010 U"
bz01z 7"
bz001 6"
b111z H"
bz1111 9"
b1 *
b1 g
b1 n
b1 Y"
1)
#130
0)
#135
1)
#140
b10 X"
b10 :"
b10 e
b10 ;"
b10 L
b10 <"
b10 M
b0 J"
b1 K"
b1 V
b0 U
b10 ="
b10 N
b10 +
b10 f
b10 o
b10 r
0)
#145
b10 _
14"
b10 S"
b110z S
0E
bz0101 a
03"
bz010z T"
bz0011 U"
bz1 R"
bz111 6"
b110z H"
bz0000 9"
b10 *
b10 g
b10 n
b10 Y"
1)
#150
b1 X"
b1 :"
b1 e
b1 ;"
b1 L
b1 <"
b1 M
b1 J"
b0 K"
b0 V
b1 U
b1 ="
b1 N
b1 +
b1 f
b1 o
b1 r
0)
#155
bz1zz H
bz00zz K
1F
1E
04"
13"
bz0 R"
b11 _
bz0100 a
bz01z J
b111z S
bz01z 7"
bz001 6"
b111z H"
bz1111 9"
b11 S"
bz010z T"
bz0010 U"
b1 *
b1 g
b1 n
b1 Y"
1)
#160
0)
#165
1)
#170
b0 X"
b0 :"
b0 e
b0 ;"
b0 L
b0 <"
b0 M
b0 J"
b0 U
b0 ="
b0 N
b0 +
b0 f
b0 o
b0 r
0)
#175
bz0zz H
1,
bz11zz K
0F
1("
0.
0v
bz1110 9"
bz1 R"
bz00z J
bz00z 7"
bz0 ^
0E
bz0011 a
bz000z `
b0 I"
03"
bz001 6"
bz001z T"
bz0001 U"
b0 *
b0 g
b0 n
b0 Y"
1)
#180
b1 X"
b1 :"
b1 e
b1 ;"
b1 L
b1 <"
b1 M
b1 J"
b1 U
b1 ="
b1 N
b1 +
b1 f
b1 o
b1 r
0)
#185
bz1zz H
0,
bz00zz K
1F
0("
1.
1v
bz1111 9"
bz0 R"
bz01z J
bz01z 7"
bz1 ^
1E
bz0100 a
bz001z `
b1 I"
13"
bz010z T"
bz0010 U"
b1 *
b1 g
b1 n
b1 Y"
1)
#190
b10 X"
b10 :"
b10 e
b10 ;"
b10 L
b10 <"
b10 M
b0 J"
b1 K"
b1 V
b0 U
b10 ="
b10 N
b10 +
b10 f
b10 o
b10 r
0)
#195
b10 _
14"
b10 S"
0E
bz0101 a
b110z S
bz1 R"
b110z H"
bz0000 9"
03"
bz111 6"
bz010z T"
bz0011 U"
b10 *
b10 g
b10 n
b10 Y"
1)
#200
b1 X"
b1 :"
b1 e
b1 ;"
b1 L
b1 <"
b1 M
b1 J"
b0 K"
b0 V
b1 U
b1 ="
b1 N
b1 +
b1 f
b1 o
b1 r
0)
#205
bz1zz H
bz00zz K
1F
1E
bz0 R"
04"
13"
bz01z J
b111z S
b11 _
bz0100 a
b11 S"
bz010z T"
bz0010 U"
bz01z 7"
bz001 6"
b111z H"
bz1111 9"
b1 *
b1 g
b1 n
b1 Y"
1)
#210
b10 X"
b10 :"
b10 e
b10 ;"
b10 L
b10 <"
b10 M
b0 J"
b1 K"
b1 V
b0 U
b10 ="
b10 N
b10 +
b10 f
b10 o
b10 r
0)
#215
b10 _
14"
b10 S"
0E
bz0101 a
b110z S
bz1 R"
b110z H"
bz0000 9"
03"
bz111 6"
bz010z T"
bz0011 U"
b10 *
b10 g
b10 n
b10 Y"
1)
#220
b1 X"
b1 :"
b1 e
b1 ;"
b1 L
b1 <"
b1 M
b1 J"
b0 K"
b0 V
b1 U
b1 ="
b1 N
b1 +
b1 f
b1 o
b1 r
0)
#225
bz1zz H
bz00zz K
1F
1E
bz0 R"
04"
13"
bz01z J
b111z S
b11 _
bz0100 a
b11 S"
bz010z T"
bz0010 U"
bz01z 7"
bz001 6"
b111z H"
bz1111 9"
b1 *
b1 g
b1 n
b1 Y"
1)
#230
b11 X"
b11 :"
b11 e
b11 ;"
b11 L
b11 <"
b11 M
b1 K"
b1 V
b11 ="
b11 N
b11 +
b11 f
b11 o
b11 r
0)
#235
bz0110 a
0E
bz0 \
14"
bz011z T"
03"
bz0 P"
bz01z I
b110z S
bz010z `
bz1 R"
bz111 6"
bz01z 8"
b110z H"
bz0001 9"
bz0100 U"
b11 *
b11 g
b11 n
b11 Y"
1)
#240
b10 X"
b10 :"
b10 e
b10 ;"
b10 L
b10 <"
b10 M
b0 J"
b0 U
b10 ="
b10 N
b10 +
b10 f
b10 o
b10 r
0)
#245
14"
bz1 \
bz0000 9"
bz1 P"
b10 _
bz00z I
bz0101 a
bz001z `
b10 S"
bz111 6"
bz00z 8"
bz010z T"
bz0011 U"
b10 *
b10 g
b10 n
b10 Y"
1)
#250
b11 X"
b11 :"
b11 e
b11 ;"
b11 L
b11 <"
b11 M
b1 J"
b1 U
b11 ="
b11 N
b11 +
b11 f
b11 o
b11 r
0)
#255
bz0 \
bz0001 9"
bz0 P"
b11 _
bz01z I
bz0110 a
bz010z `
b11 S"
bz01z 8"
bz011z T"
bz0100 U"
b11 *
b11 g
b11 n
b11 Y"
1)
#260
b10 X"
b10 :"
b10 e
b10 ;"
b10 L
b10 <"
b10 M
b0 J"
b0 U
b10 ="
b10 N
b10 +
b10 f
b10 o
b10 r
0)
#265
14"
bz1 \
bz0000 9"
bz1 P"
b10 _
bz00z I
bz0101 a
bz001z `
b10 S"
bz111 6"
bz00z 8"
bz010z T"
bz0011 U"
b10 *
b10 g
b10 n
b10 Y"
1)
#270
0)
#275
1)
#280
b0 X"
b0 :"
b0 e
b0 ;"
b0 L
b0 <"
b0 M
b0 K"
b0 V
b0 ="
b0 N
b0 +
b0 f
b0 o
b0 r
0)
#285
1,
bz0zz H
1("
0.
bz11zz K
0F
bz0011 a
b11 _
0v
04"
bz001z T"
b11 S"
bz0 ^
bz00z J
b111z S
bz000z `
b0 I"
bz00z 7"
bz001 6"
b111z H"
bz1110 9"
bz0001 U"
b0 *
b0 g
b0 n
b0 Y"
1)
#290
b1 X"
b1 :"
b1 e
b1 ;"
b1 L
b1 <"
b1 M
b1 J"
b1 U
b1 ="
b1 N
b1 +
b1 f
b1 o
b1 r
0)
#295
bz1zz H
0,
bz00zz K
1F
0("
1.
1v
bz1111 9"
bz0 R"
bz01z J
bz01z 7"
bz1 ^
1E
bz0100 a
bz001z `
b1 I"
13"
bz010z T"
bz0010 U"
b1 *
b1 g
b1 n
b1 Y"
1)
#300
b0 X"
b0 :"
b0 e
b0 ;"
b0 L
b0 <"
b0 M
b0 J"
b0 U
b0 ="
b0 N
b0 +
b0 f
b0 o
b0 r
0)
#305
bz0zz H
1,
bz11zz K
0F
1("
0.
0v
bz1110 9"
bz1 R"
bz00z J
bz00z 7"
bz0 ^
0E
bz0011 a
bz000z `
b0 I"
03"
bz001 6"
bz001z T"
bz0001 U"
b0 *
b0 g
b0 n
b0 Y"
1)
#310
b1 X"
b1 :"
b1 e
b1 ;"
b1 L
b1 <"
b1 M
b1 J"
b1 U
b1 ="
b1 N
b1 +
b1 f
b1 o
b1 r
0)
#315
bz1zz H
0,
bz00zz K
1F
0("
1.
1v
bz1111 9"
bz0 R"
bz01z J
bz01z 7"
bz1 ^
1E
bz0100 a
bz001z `
b1 I"
13"
bz010z T"
bz0010 U"
b1 *
b1 g
b1 n
b1 Y"
1)
#320
0)
#325
1)
#330
0)
#335
1)
#340
bz0zz H
1,
bz11zz K
0F
0.
bz00z J
bz0 ^
0E
bz0011 a
bz000z `
0%
0'
b0 *
b0 g
zB"
z>"
bz :"
0d
0c
b0 e
0)"
0;
0#"
0W"
b0 X"
06
1$
0)
#345
1("
0v
bz1110 9"
bz1 R"
bz00z 7"
b0 I"
03"
bz001 6"
bz001z T"
bz0001 U"
b0 n
b0 Y"
0m
1)
#350
0B"
1>"
b1 :"
1d
1c
b1 e
1)"
1;
1#"
0V"
1W"
b1 X"
16
0$
0)
#355
bz1zz H
0,
bz00zz K
1F
0("
1.
1v
bz1111 9"
bz0 R"
bz01z J
bz01z 7"
bz1 ^
1E
bz0100 a
bz001z `
b1 I"
13"
bz010z T"
bz0010 U"
1%
1'
b1 *
b1 g
1m
b1 n
b1 Y"
1)
#360
b11110 \"
0)
#365
1)
#370
b100 X"
b100 :"
0d
b100 e
0b
0c
b100 ;"
0B
0O
b100 L
0W"
b0 U
0C
b100 <"
0>"
b0 [
b100 M
0u
0@"
b0 Y
b0 J"
b0 K"
b0 L"
b10 M"
00"
b10 X
b0 V
0t
0s
b100000000000000 ="
b10 N"
1}
13
b10 Z
bz00 Q
b100000000000000 N
0-"
0."
1/"
1A
0@
0?
1~
1!"
0w
b11 G"
b11 R
0/
15
14
b0 &
b0 G
b0 p
b0 5"
0)
#375
b111 X"
b111 e
b111 :"
b111 L
b111 ;"
b0 W
b111 M
b0 L"
b111 <"
b10 X
b10 U
b10 V
b10 M"
b10 K"
b10 J"
0F
b111000000000000 N
b0z Q"
bz0010 9"
b111000000000000 ="
bz1 R"
b1z T
bz00z J
b101z S
bz0 ^
0E
bz0111 a
bz010z `
bz00z 7"
b101z H"
b10 I"
03"
bz101 6"
bz011z T"
bz0101 U"
0%
0'
b100 *
b100 g
0m
b100 n
b100 Y"
1)
#380
0)
#385
1V"
1B"
1E"
b1010 X"
1,"
b1010 e
b1010 :"
b10 O"
b1010 L
b10 W
b1010 ;"
b10 L"
b10zz F"
1C"
b1010 M
b0 X
b1010 <"
b0 M"
1D"
1'"
b0 U
b10 V
b10 K"
b0 J"
0{
b1010000000000000 N
bz01zz K
bz100z `
bz0 \
b1010000000000000 ="
bz0 P"
0E
bz1010 a
bz1 ^
bz11z J
bz11z I
b100z S
03"
bz101z T"
bz1000 U"
b11 I"
bz11z 7"
bz111 6"
bz11z 8"
b100z H"
bz0101 9"
b111 *
b111 g
b111 n
b111 Y"
1)
#390
0)
#395
0V"
0B"
b1101 X"
0E"
b1101 e
0,"
b1101 :"
b1101 L
b0 O"
b1101 ;"
b1101 M
b0zz F"
b1101 <"
0C"
b10 W
b10 X
b10 U
b0 V
0D"
b10 L"
b10 M"
b0 K"
b10 J"
0'"
b0z ]
bz10zz K
1F
bz1 \
b1101000000000000 N
1{
14"
bz1000 9"
b1101000000000000 ="
bz1 P"
bz01z J
bz1zz H
b10z S
b10 _
bz00z I
bz1101 a
bz101z `
b1z Q"
bz01z 7"
b10z H"
b10 S"
bz111 6"
bz00z 8"
bz110z T"
bz1011 U"
b1010 *
b1010 g
1l
b1010 n
b1010 Y"
1)
#400
0)
#405
1V"
1B"
1E"
b0 X"
1,"
b0 e
b0 :"
b10 O"
b0 L
b0 ;"
b10zz F"
1C"
b0 W
b0 M
b0 L"
b0 <"
1*"
bz11zz K
1%"
b0 U
b0 V
b0 X
b0 K"
b0 J"
b0 M"
0y
1E
0F
b0 N
bz0 R"
13"
b0 ="
04"
b1 _
b1z ]
bz11z J
b1z S
bz0000 a
bz111z `
b1 S"
bz101 6"
bz1011 9"
bz11z 7"
bz000z T"
b1z H"
bz1110 U"
b1101 *
b1101 g
b1101 n
b1101 Y"
0l
1)
#410
0)
#415
0V"
0B"
0E"
b11 X"
0,"
0c
0O
b11 e
b11 :"
b0 O"
0C
b11 L
b11 ;"
b0zz F"
b0 Y
0C"
b11 M
b11 <"
0*"
b0z0z P
0%"
b0 W
b0 X
0=
0<
b10 U
b10 V
b0 L"
b0 M"
b10 K"
b10 J"
1y
1,
07
0:
0&"
1("
b11 _
0.
12
11
b11000000000000 N
1z
b11 S"
0v
bz1110 9"
b11000000000000 ="
bz1 R"
b1z ]
b0z T
bz00z J
bz0zz H
b111z S
bz0 ^
0E
bz0011 a
bz000z `
b1z Q"
bz00z 7"
b111z H"
b0 I"
03"
bz001 6"
bz001z T"
bz0001 U"
b0 *
b0 g
1l
b0 n
b0 Y"
1)
#420
0)
#425
b110 X"
b110 e
b110 :"
b110 L
b110 ;"
b110 M
b10 X
b110 <"
b10 M"
b0 U
b10 V
b10 K"
b0 J"
0,
bz1zz H
0("
b110000000000000 N
1.
bz00zz K
1F
bz010z `
bz0 \
b110000000000000 ="
1v
14"
bz0 P"
0E
bz0110 a
bz1 ^
bz01z J
bz01z I
b110z S
03"
bz011z T"
bz0100 U"
b1 I"
bz01z 7"
bz111 6"
bz01z 8"
b110z H"
bz0001 9"
b11 *
b11 g
b11 n
b11 Y"
0l
1)
#430
0)
#435
b1001 X"
b1001 e
b1001 :"
b1001 L
b1001 ;"
b10 W
b1001 M
b10 L"
b1001 <"
b0 X
b10 U
b0 V
b0 M"
b0 K"
b10 J"
bz01zz K
0F
bz1 \
b1001000000000000 N
04"
b0z Q"
bz0100 9"
b1001000000000000 ="
bz1 P"
b1z T
bz11z J
b100z S
b10 _
bz00z I
bz1001 a
bz011z `
b11 I"
bz11z 7"
b100z H"
b10 S"
bz111 6"
bz00z 8"
bz100z T"
bz0111 U"
b110 *
b110 g
b110 n
b110 Y"
1)
#440
0)
#445
b1100 X"
b1100 e
b1100 :"
b1100 L
b1100 ;"
b1100 M
b1100 <"
bz10zz K
1F
b0 U
b0 V
b10 X
b10 W
b0 K"
b0 J"
b10 M"
b10 L"
1E
b1100000000000000 N
b0z ]
bz0 R"
13"
b1100000000000000 ="
b11 _
bz01z J
bz1zz H
bz1100 a
b11z S
bz101z `
b11 S"
bz0111 9"
bz01z 7"
bz001 6"
b1z Q"
b11z H"
bz110z T"
bz1010 U"
b1001 *
b1001 g
b1001 n
b1001 Y"
1)
#450
0)
#455
1c
1O
1C
b1111 X"
b10 Y
b1111 e
b1111 :"
b1z0z P
b1111 L
b1111 ;"
1=
b10 W
1<
b1111 M
b10 L"
b1111 <"
1:
01
b10 X
b10 U
b10 V
b10 M"
b10 K"
b10 J"
0F
b1 _
b1111000000000000 N
b1 S"
bz1010 9"
b1111000000000000 ="
bz1 R"
b1z ]
bz00z J
b1z S
bz0 ^
0E
bz1111 a
bz110z `
bz00z 7"
b1z H"
b10 I"
03"
bz101 6"
bz111z T"
bz1101 U"
b1100 *
b1100 g
b1100 n
b1100 Y"
1)
#460
0)
#465
1V"
1B"
1E"
1,"
1c
b10 X"
1O
b10 O"
b10 e
1C
b10 :"
b10zz F"
b10 L
b10 Y
b0 W
b10 ;"
b0 L"
1C"
1*"
b10 M
b1z0z P
b0 X
1>
b10 <"
b0 M"
1+"
1=
18
1""
b0 U
b10 V
1<
0-
b10 K"
b0 J"
0|
0:
b10000000000000 N
11
bz11zz K
bz000z `
bz0 \
b10000000000000 ="
bz0 P"
0E
bz0010 a
bz1 ^
bz11z J
bz11z I
b0z S
03"
bz001z T"
bz0000 U"
b11 I"
bz11z 7"
bz111 6"
bz11z 8"
b0z H"
bz1101 9"
b1111 *
b1111 g
1%
b1111 n
b1111 Y"
1)
#470
0)
#475
0V"
0c
0B"
0O
0E"
0C
0,"
b101 X"
b0 Y
b0 O"
b101 e
b101 :"
b0z0z P
b0zz F"
0=
b101 L
b101 ;"
0C"
0<
0*"
0>
b101 M
b101 <"
0+"
08
0""
b0 W
b10 X
b10 U
1-
b0 V
0D"
b0 L"
b10 M"
b0 K"
b10 J"
1|
09
0'"
0$"
bz00zz K
1F
10
bz1 \
b101000000000000 N
1{
14"
1x
bz0000 9"
b101000000000000 ="
bz1 P"
b1z ]
b0z T
bz01z J
bz1zz H
b110z S
b10 _
bz00z I
bz0101 a
bz001z `
b1z Q"
b1 I"
bz01z 7"
b110z H"
b10 S"
bz111 6"
bz00z 8"
bz010z T"
bz0011 U"
b10 *
b10 g
1l
b10 n
b10 Y"
1)
#480
0)
#485
b1000 X"
1W"
1>"
b1000 e
b1000 :"
1@"
10"
b1000 L
b1000 ;"
b1zz A"
b10 W
b1000 M
b10 L"
b1000 <"
1?"
bz01zz K
1&"
b0 U
b0 V
b0 X
b0 K"
b0 J"
b0 M"
0z
1E
0F
b1000000000000000 N
bz0 R"
13"
b1000000000000000 ="
04"
b0z Q"
b11 _
b1z T
bz11z J
b101z S
bz1000 a
bz011z `
b11 S"
bz101 6"
bz0011 9"
b11 I"
bz11z 7"
bz100z T"
b101z H"
bz0110 U"
b101 *
b101 g
0%
b101 n
b101 Y"
0l
1)
#490
0)
#495
1c
1O
b1011 X"
1C
b1011 e
0W"
b1011 :"
b10 Y
0>"
b1011 L
0@"
b1011 ;"
b1z0z P
00"
1=
b1011 M
b1011 <"
17
b0zz A"
b10 W
02
b0 X
b10 U
b10 V
0?"
b10 L"
b0 M"
b10 K"
b10 J"
0&"
b0z ]
b1011000000000000 N
1z
bz0110 9"
b1011000000000000 ="
bz1 R"
bz00z J
bz0zz H
b11z S
bz0 ^
0E
bz1011 a
bz100z `
b1z Q"
bz00z 7"
b11z H"
b10 I"
03"
bz001 6"
bz101z T"
bz1001 U"
b1000 *
b1000 g
1m
b1000 n
b1000 Y"
1)
#500
0)
