Timing/Modelo_sintetizado_sin_retardos/test.vcd
$date
	Sat Oct 10 18:01:40 2020
$end
$version
	Icarus Verilog
$end
$timescale
	1ps
$end
$scope module BUF $end
$var wire 1 ! A $end
$var wire 1 " Y $end
$upscope $end
$scope module BUFX2 $end
$var wire 1 # A $end
$var wire 1 $ Y $end
$upscope $end
$scope module NOR $end
$var wire 1 % A $end
$var wire 1 & B $end
$var wire 1 ' Y $end
$upscope $end
$scope module contador $end
$var wire 4 ( D [3:0] $end
$var wire 1 ) clk $end
$var wire 1 * enable $end
$var wire 2 + mode [1:0] $end
$var wire 1 , reset $end
$var reg 4 - Q [3:0] $end
$var reg 1 . load $end
$var reg 1 / rco $end
$upscope $end
$scope module tb_top $end
$var wire 4 0 Q_tb [3:0] $end
$var wire 1 1 load_tb $end
$var wire 1 2 rco_tb $end
$var wire 1 3 reset $end
$var wire 1 4 rco_synth $end
$var wire 2 5 mode [1:0] $end
$var wire 1 6 load_synth $end
$var wire 1 7 enable $end
$var wire 1 8 clock $end
$var wire 4 9 Q_synth [3:0] $end
$var wire 4 : D [3:0] $end
$scope module clk1 $end
$var reg 1 8 clock $end
$upscope $end
$scope module dut $end
$var wire 1 8 clk $end
$var wire 1 3 reset $end
$var wire 1 4 rco $end
$var wire 2 ; mode [1:0] $end
$var wire 1 6 load $end
$var wire 1 7 enable $end
$var wire 1 < _062_ $end
$var wire 1 = _061_ $end
$var wire 1 > _060_ $end
$var wire 1 ? _059_ $end
$var wire 1 @ _058_ $end
$var wire 1 A _057_ $end
$var wire 1 B _056_ $end
$var wire 1 C _055_ $end
$var wire 1 D _054_ $end
$var wire 1 E _053_ $end
$var wire 1 F _052_ $end
$var wire 1 G _051_ $end
$var wire 1 H _050_ $end
$var wire 1 I _049_ $end
$var wire 1 J _048_ $end
$var wire 1 K _047_ $end
$var wire 1 L _046_ $end
$var wire 1 M _045_ $end
$var wire 1 N _044_ $end
$var wire 1 O _043_ $end
$var wire 1 P _042_ $end
$var wire 1 Q _041_ $end
$var wire 1 R _040_ $end
$var wire 1 S _039_ $end
$var wire 1 T _038_ $end
$var wire 1 U _037_ $end
$var wire 1 V _036_ $end
$var wire 1 W _035_ $end
$var wire 1 X _034_ $end
$var wire 1 Y _033_ $end
$var wire 1 Z _032_ $end
$var wire 1 [ _031_ $end
$var wire 1 \ _030_ $end
$var wire 1 ] _029_ $end
$var wire 1 ^ _028_ $end
$var wire 1 _ _027_ $end
$var wire 1 ` _026_ $end
$var wire 1 a _025_ $end
$var wire 1 b _024_ $end
$var wire 1 c _023_ $end
$var wire 1 d _022_ $end
$var wire 1 e _021_ $end
$var wire 1 f _020_ $end
$var wire 1 g _019_ $end
$var wire 1 h _018_ $end
$var wire 1 i _017_ $end
$var wire 1 j _016_ $end
$var wire 1 k _015_ $end
$var wire 1 l _014_ $end
$var wire 1 m _013_ $end
$var wire 1 n _012_ $end
$var wire 1 o _011_ $end
$var wire 1 p _010_ $end
$var wire 1 q _009_ $end
$var wire 1 r _008_ $end
$var wire 1 s _007_ $end
$var wire 1 t _006_ $end
$var wire 1 u _005_ $end
$var wire 1 v _004_ $end
$var wire 1 w _003_ $end
$var wire 1 x _002_ $end
$var wire 1 y _001_ $end
$var wire 4 z _000_ [3:0] $end
$var wire 4 { Q [3:0] $end
$var wire 4 | D [3:0] $end
$scope module _063_ $end
$var wire 1 w Y $end
$var wire 1 3 A $end
$upscope $end
$scope module _064_ $end
$var wire 1 } A $end
$var wire 1 v Y $end
$upscope $end
$scope module _065_ $end
$var wire 1 ~ A $end
$var wire 1 u Y $end
$upscope $end
$scope module _066_ $end
$var wire 1 u A $end
$var wire 1 !" B $end
$var wire 1 t Y $end
$upscope $end
$scope module _067_ $end
$var wire 1 t A $end
$var wire 1 "" B $end
$var wire 1 #" C $end
$var wire 1 s Y $end
$upscope $end
$scope module _068_ $end
$var wire 1 s A $end
$var wire 1 v B $end
$var wire 1 $" C $end
$var wire 1 r Y $end
$upscope $end
$scope module _069_ $end
$var wire 1 %" A $end
$var wire 1 &" B $end
$var wire 1 q Y $end
$upscope $end
$scope module _070_ $end
$var wire 1 q A $end
$var wire 1 p Y $end
$upscope $end
$scope module _071_ $end
$var wire 1 '" A $end
$var wire 1 o Y $end
$upscope $end
$scope module _072_ $end
$var wire 1 u A $end
$var wire 1 o B $end
$var wire 1 n Y $end
$upscope $end
$scope module _073_ $end
$var wire 1 n A $end
$var wire 1 m Y $end
$upscope $end
$scope module _074_ $end
$var wire 1 (" A $end
$var wire 1 l Y $end
$upscope $end
$scope module _075_ $end
$var wire 1 )" A $end
$var wire 1 l B $end
$var wire 1 k Y $end
$upscope $end
$scope module _076_ $end
$var wire 1 k A $end
$var wire 1 j Y $end
$upscope $end
$scope module _077_ $end
$var wire 1 j A $end
$var wire 1 m B $end
$var wire 1 p C $end
$var wire 1 i Y $end
$upscope $end
$scope module _078_ $end
$var wire 1 i A $end
$var wire 1 r B $end
$var wire 1 h Y $end
$upscope $end
$scope module _079_ $end
$var wire 1 h A $end
$var wire 1 w B $end
$var wire 1 g Y $end
$upscope $end
$scope module _080_ $end
$var wire 1 *" A $end
$var wire 1 o B $end
$var wire 1 f Y $end
$upscope $end
$scope module _081_ $end
$var wire 1 f A $end
$var wire 1 +" B $end
$var wire 1 e Y $end
$var wire 1 3 C $end
$upscope $end
$scope module _082_ $end
$var wire 1 e A $end
$var wire 1 p B $end
$var wire 1 v C $end
$var wire 1 d Y $end
$upscope $end
$scope module _083_ $end
$var wire 1 d A $end
$var wire 1 g B $end
$var wire 1 x Y $end
$upscope $end
$scope module _084_ $end
$var wire 1 u B $end
$var wire 1 o C $end
$var wire 1 y Y $end
$var wire 1 3 A $end
$upscope $end
$scope module _085_ $end
$var wire 1 y A $end
$var wire 1 ," B $end
$var wire 1 c Y $end
$upscope $end
$scope module _086_ $end
$var wire 1 -" A $end
$var wire 1 ." B $end
$var wire 1 b Y $end
$upscope $end
$scope module _087_ $end
$var wire 1 b A $end
$var wire 1 l B $end
$var wire 1 w C $end
$var wire 1 a Y $end
$upscope $end
$scope module _088_ $end
$var wire 1 a A $end
$var wire 1 c B $end
$var wire 1 /" Y $end
$upscope $end
$scope module _089_ $end
$var wire 1 y A $end
$var wire 1 0" B $end
$var wire 1 ` Y $end
$upscope $end
$scope module _090_ $end
$var wire 1 v A $end
$var wire 1 1" B $end
$var wire 1 _ Y $end
$upscope $end
$scope module _091_ $end
$var wire 1 k A $end
$var wire 1 _ B $end
$var wire 1 ^ Y $end
$upscope $end
$scope module _092_ $end
$var wire 1 ^ A $end
$var wire 1 ] Y $end
$upscope $end
$scope module _093_ $end
$var wire 1 ] A $end
$var wire 1 f B $end
$var wire 1 t C $end
$var wire 1 \ Y $end
$upscope $end
$scope module _094_ $end
$var wire 1 ^ A $end
$var wire 1 n B $end
$var wire 1 [ Y $end
$upscope $end
$scope module _095_ $end
$var wire 1 [ A $end
$var wire 1 \ B $end
$var wire 1 w C $end
$var wire 1 Z Y $end
$upscope $end
$scope module _096_ $end
$var wire 1 Z A $end
$var wire 1 ` B $end
$var wire 1 2" Y $end
$upscope $end
$scope module _097_ $end
$var wire 1 f A $end
$var wire 1 Y Y $end
$upscope $end
$scope module _098_ $end
$var wire 1 3" A $end
$var wire 1 X Y $end
$upscope $end
$scope module _099_ $end
$var wire 1 X A $end
$var wire 1 v B $end
$var wire 1 l C $end
$var wire 1 W Y $end
$upscope $end
$scope module _100_ $end
$var wire 1 v A $end
$var wire 1 l B $end
$var wire 1 V Y $end
$upscope $end
$scope module _101_ $end
$var wire 1 V A $end
$var wire 1 4" B $end
$var wire 1 U Y $end
$upscope $end
$scope module _102_ $end
$var wire 1 U A $end
$var wire 1 W B $end
$var wire 1 Y C $end
$var wire 1 T Y $end
$upscope $end
$scope module _103_ $end
$var wire 1 U A $end
$var wire 1 W B $end
$var wire 1 S Y $end
$upscope $end
$scope module _104_ $end
$var wire 1 S A $end
$var wire 1 u B $end
$var wire 1 5" C $end
$var wire 1 R Y $end
$upscope $end
$scope module _105_ $end
$var wire 1 6" A $end
$var wire 1 7" B $end
$var wire 1 8" C $end
$var wire 1 Q Y $end
$upscope $end
$scope module _106_ $end
$var wire 1 9" A $end
$var wire 1 :" B $end
$var wire 1 P Y $end
$upscope $end
$scope module _107_ $end
$var wire 1 P A $end
$var wire 1 X B $end
$var wire 1 O Y $end
$upscope $end
$scope module _108_ $end
$var wire 1 ;" A $end
$var wire 1 <" B $end
$var wire 1 =" C $end
$var wire 1 N Y $end
$upscope $end
$scope module _109_ $end
$var wire 1 N A $end
$var wire 1 O B $end
$var wire 1 m C $end
$var wire 1 M Y $end
$upscope $end
$scope module _110_ $end
$var wire 1 M A $end
$var wire 1 Q B $end
$var wire 1 L Y $end
$upscope $end
$scope module _111_ $end
$var wire 1 L A $end
$var wire 1 K Y $end
$upscope $end
$scope module _112_ $end
$var wire 1 K A $end
$var wire 1 R B $end
$var wire 1 T C $end
$var wire 1 J Y $end
$upscope $end
$scope module _113_ $end
$var wire 1 J A $end
$var wire 1 w B $end
$var wire 1 I Y $end
$upscope $end
$scope module _114_ $end
$var wire 1 I A $end
$var wire 1 >" Y $end
$upscope $end
$scope module _115_ $end
$var wire 1 y A $end
$var wire 1 ?" B $end
$var wire 1 H Y $end
$upscope $end
$scope module _116_ $end
$var wire 1 U A $end
$var wire 1 Y B $end
$var wire 1 G Y $end
$upscope $end
$scope module _117_ $end
$var wire 1 W A $end
$var wire 1 u B $end
$var wire 1 @" C $end
$var wire 1 F Y $end
$upscope $end
$scope module _118_ $end
$var wire 1 N A $end
$var wire 1 u B $end
$var wire 1 o C $end
$var wire 1 E Y $end
$upscope $end
$scope module _119_ $end
$var wire 1 E A $end
$var wire 1 A" B $end
$var wire 1 D Y $end
$upscope $end
$scope module _120_ $end
$var wire 1 D A $end
$var wire 1 C Y $end
$upscope $end
$scope module _121_ $end
$var wire 1 C A $end
$var wire 1 F B $end
$var wire 1 G C $end
$var wire 1 B Y $end
$upscope $end
$scope module _122_ $end
$var wire 1 V A $end
$var wire 1 Y B $end
$var wire 1 B" C $end
$var wire 1 A Y $end
$upscope $end
$scope module _123_ $end
$var wire 1 W A $end
$var wire 1 C" B $end
$var wire 1 o C $end
$var wire 1 @ Y $end
$upscope $end
$scope module _124_ $end
$var wire 1 N A $end
$var wire 1 D" B $end
$var wire 1 E" C $end
$var wire 1 ? Y $end
$upscope $end
$scope module _125_ $end
$var wire 1 ? A $end
$var wire 1 @ B $end
$var wire 1 F" C $end
$var wire 1 > Y $end
$upscope $end
$scope module _126_ $end
$var wire 1 > A $end
$var wire 1 A B $end
$var wire 1 = Y $end
$upscope $end
$scope module _127_ $end
$var wire 1 = A $end
$var wire 1 B B $end
$var wire 1 w C $end
$var wire 1 < Y $end
$upscope $end
$scope module _128_ $end
$var wire 1 < A $end
$var wire 1 H B $end
$var wire 1 G" Y $end
$upscope $end
$scope module _129_ $end
$var wire 1 8 C $end
$var wire 1 H" D $end
$var reg 1 I" Q $end
$upscope $end
$scope module _130_ $end
$var wire 1 8 C $end
$var wire 1 J" D $end
$var reg 1 K" Q $end
$upscope $end
$scope module _131_ $end
$var wire 1 8 C $end
$var wire 1 L" D $end
$var reg 1 M" Q $end
$upscope $end
$scope module _132_ $end
$var wire 1 8 C $end
$var wire 1 N" D $end
$var reg 1 O" Q $end
$upscope $end
$scope module _133_ $end
$var wire 1 8 C $end
$var wire 1 y D $end
$var reg 1 6 Q $end
$upscope $end
$scope module _134_ $end
$var wire 1 8 C $end
$var wire 1 x D $end
$var reg 1 4 Q $end
$upscope $end
$upscope $end
$scope module tb $end
$var wire 4 P" Q [3:0] $end
$var wire 1 8 clk $end
$var wire 4 Q" dut_Q [3:0] $end
$var wire 1 R" dut_load $end
$var wire 1 S" dut_rco $end
$var wire 1 1 load $end
$var wire 1 2 rco $end
$var wire 1 T" sb_rco $end
$var wire 1 U" sb_load $end
$var wire 4 V" sb_Q [3:0] $end
$var reg 4 W" D [3:0] $end
$var reg 1 7 enable $end
$var reg 2 X" mode [1:0] $end
$var reg 1 3 reset $end
$var integer 32 Y" log [31:0] $end
$scope module sb $end
$var wire 4 Z" D [3:0] $end
$var wire 1 8 clk $end
$var wire 1 7 enable $end
$var wire 2 [" mode [1:0] $end
$var wire 1 3 reset $end
$var reg 4 \" Q [3:0] $end
$var reg 1 U" load $end
$var reg 1 T" rco $end
$upscope $end
$scope task checker $end
$var integer 32 ]" iteration [31:0] $end
$upscope $end
$scope task drv_init $end
$upscope $end
$scope task test00 $end
$var integer 32 ^" iteration [31:0] $end
$upscope $end
$scope task test01 $end
$var integer 32 _" iteration [31:0] $end
$upscope $end
$scope task test10 $end
$var integer 32 `" iteration [31:0] $end
$upscope $end
$scope task test11 $end
$var integer 32 a" iteration [31:0] $end
$upscope $end
$upscope $end
$upscope $end
$enddefinitions $end
#0
$dumpvars
bx a"
bx `"
bx _"
bx ^"
bx ]"
b0 \"
bx ["
bx Z"
b10 Y"
bx X"
bx W"
b0 V"
xU"
xT"
zS"
zR"
bz Q"
bz P"
xO"
xN"
xM"
xL"
xK"
xJ"
xI"
xH"
xG"
xF"
xE"
xD"
xC"
xB"
xA"
x@"
x?"
x>"
x="
x<"
x;"
x:"
x9"
x8"
x7"
x6"
x5"
x4"
x3"
x2"
x1"
x0"
x/"
x."
x-"
x,"
x+"
x*"
x)"
x("
x'"
x&"
x%"
x$"
x#"
x""
x!"
x~
x}
bx |
bx {
bx z
xy
xx
xw
xv
xu
xt
xs
xr
xq
xp
xo
xn
xm
xl
xk
xj
xi
xh
xg
xf
xe
xd
xc
xb
xa
x`
x_
x^
x]
x\
x[
xZ
xY
xX
xW
xV
xU
xT
xS
xR
xQ
xP
xO
xN
xM
xL
xK
xJ
xI
xH
xG
xF
xE
xD
xC
xB
xA
x@
x?
x>
x=
x<
bx ;
bx :
bx 9
08
x7
x6
bx 5
x4
x3
z2
z1
bz 0
x/
x.
b0 -
z,
bz +
z*
z)
bz (
x'
z&
z%
z$
z#
z"
z!
$end
#20000000000000
0T"
1U"
bx V"
bx \"
18
#40000000000000
0H"
0J"
0N"
0/"
02"
0G"
0x
1c
1`
1H
1d
0L"
b0 z
0>"
0y
1g
1a
1Z
1I
1<
0e
0w
13
08
#60000000000000
0h
1T
1F
1B
1M
1S
1[
1i
0?
1]
0W
0^
0C
0O
0p
0j
0V
1D
1A
1U
1q
1k
1N
1P
1_
1r
1X
1v
1l
0F"
0A"
0%"
0""
0B"
0;"
04"
03"
0&"
0#"
0<"
09"
0)"
0}
0="
0:"
01"
0+"
0("
0$"
04
06
0O"
0M"
0K"
b0 9
b0 {
0I"
b0 V"
b0 \"
0U"
18
#80000000000000
08
#100000000000000
18
#120000000000000
08
#140000000000000
18
#160000000000000
08
#180000000000000
18
#200000000000000
xH"
xJ"
xN"
xc
x`
xH
x/"
x2"
xL"
xG"
bx z
x>"
xy
xa
xZ
xI
x<
xe
1w
03
08
#220000000000000
xx
xB
xd
xM
x?
x[
xT
xF
xA
xg
xi
x]
xS
xU
x^
xh
xC
xO
xp
xN
xj
xW
xV
xD
xq
xk
xP
x_
xr
xX
xv
xl
xF"
xA"
x%"
x""
xB"
x;"
x4"
x3"
x&"
x#"
x<"
x9"
x)"
x}
x="
x:"
x1"
x+"
x("
x$"
x6
xO"
xM"
xK"
bx 9
bx {
xI"
1U"
bx V"
bx \"
18
#240000000000000
b110010 ^"
b110010 ]"
08
#260000000000000
x4
18
#280000000000000
1d
1r
1A
0e
1T
1G
0s
1[
1m
0Y
0y
0@
0n
1H
1`
1c
1F
1Q
1R
1b
1f
1t
1o
1u
0?"
06"
00"
0,"
0E"
0D"
0C"
0@"
08"
07"
05"
0."
0-"
0*"
0'"
0!"
0~
b0 :
b0 |
b0 W"
b0 Z"
b0 5
b0 ;
b0 X"
b0 ["
17
08
#300000000000000
06
0U"
18
